:02000000E634E4
:10000400573557355735573557355735573557358C
:1000140057355735573557355735E73157355735F0
:10002400573557355735383457355735573557358C
:10003400573557355735573557355735573557355C
:10004400573557355735573557355735573557354C
:10005400573557355735573557355735573557353C
:10006400573557355735573557355735573557352C
:0C00740057355735573557355735573538
:0400C0007FFFAA0410
:0A00C4000000000000000000000032
:1000D800F6BF88FCBF8AFCF5B9FCF5B4FCD740B480
:1000E800FC01200461F8EDA701EBF8FFF6F7FDA984
:1000F8002BD161F8EDA001A8002C9FDD192C04611B
:10010800F8ED96012C09DD732C10DD672C17DD74D2
:100118002C02DD75EF7DF5B5FCE5B4FCA800FDAA61
:1001280001F7D9B5FCF1C3C1D9B6FC318DC3C1D92A
:10013800B7FCF116314E121731CDFD39301004FDE0
:1001480039301004B80013B802A800C3C1F6F7FD8F
:10015800791A300200F7FD1B1BB80413B806A8046F
:1001680010045CEFB800C3C1300200F7FD791A1023
:1001780004EF2CF5B5FCE5B6FCEF9EF5B5FCCFB663
:10018800FC02EF95E5B5FCEF90E5B5FCEFE8E5B5C9
:10019800FCEFEB300010EF03300008F7FDA334103C
:1001A80004D72C9FDD202C0461F8EDB7022C09DD63
:1001B800502C10DD2B2C1761F8ED74022C0261F81D
:1001C800ED9402EDD902304083F5B5FCCFB8FC0AB6
:1001D800CFBBFC09BF80FCF6BF82FC5190ED8B02BF
:1001E800304083F5B5FCE5B6FCCFB8FC07CFBBFCC7
:1001F80011BF80FCF6BF82FC5110BF84FCE6EDB253
:1002080002304083F5B5FCCFB6FC02CFB8FC07CF6F
:10021800BBFC11BF80FCF6BF82FC5110BF84FCE61A
:10022800BF86FC30B4B7BF8CFC300200BF8EFCE147
:10023800FDFD0F60F0CF58FCE5CF59FC03C1340237
:10024800003258FCE6FD130FCF58FC65E559FC71E8
:1002580033017103023658FC5302100250808B613F
:100268005861F8ED0203712200ED0503300078E5CE
:10027800B5FCCFB8FC0ACFBBFC08BF80FCF6BF8238
:10028800FC5180BF84FCF6BF86FCEF4C300078E55B
:10029800B5FCE5B6FCCFB8FC08CFBBFC0FBF80FCB3
:1002A800F6BF82FC51F0BF84FCF6BF86FCEF4130FC
:1002B8000078E5B5FCCFB6FC02CFB8FC08CFBBFC94
:1002C8000FBF80FCF6BF82FC51F0BF84FCF6ED281E
:1002D80002300010F7FDA334D5B6FCDF0A30D49401
:1002E800BF8CFCF6ED340240B6FC0161E8ED2B0250
:1002F800302458BF8CFCE6ED340271230060311ABB
:1003080071020070D071030061E8ED6602937132EA
:1003180001A761E8ED6402712300710202714201D4
:10032800714201CEABACE6FDEC33CF58FCAB713279
:10033800017143015080605CABDD05712200EF0361
:1003480071230060311A71020070D0710300DFE67A
:10035800713201712300710202714201714201CEB2
:10036800ABACCF58FC03F559FCCF5AFC64F55BFCE9
:100378007132017143013658FC530450808B615827
:10038800DD05712200EF0371230060311A7102004C
:1003980070D0710300DFE693713201A7DFDD7123AE
:1003A80000CEABACF03401003258FC5104FD7B0F99
:1003B8008F58FC9FBAFCCF58FC03F559FCCF5AFC68
:1003C80061CF5BFCAA7132017143013658FC5304BA
:1003D80050808B6158DD05712200EF0371230060A6
:1003E800311A71020070D0710300DFE69371320197
:1003F800A7DFDD712300CEABACF0340A003268FC15
:100408005104FD7B0FCF58FC03F559FCCF5AFC640F
:10041800CF5BFC107132017143013658FC53045014
:10042800808B6158DD05712200EF03712300603174
:100438001A71020070D0710300DFE693713201A7D0
:10044800DFDD712300CEABACF0340A003272FC5110
:1004580004FD7B0FCF58FC65F559FC71330171031E
:10046800023658FC530250808B6158DD057122001A
:10047800EF0371230060311A71020070D07103001C
:10048800DFE693713201A7DFDD712300710202718B
:100498004201714201CEABACF1FDFD0FD7C1202C5A
:1004A800F6B80CB80E50FFB80AF6C130F401C130E6
:1004B8001100F7FD1B1B04FA0061D8A3FDF52F609E
:1004C8009805E1FD3B25E1FDFD0FE558FCCF59FC02
:1004D80037F55AFCCF5BFC05CF5CFC057133017125
:1004E80003023658FC5305100450808B6158DD0513
:1004F800712200EF0371230060311A71020070D07D
:10050800710300DFE693713201A7DFDD712300710B
:100518000202714201714201CEABACF558FCCF59D1
:10052800FCCFCF5AFC087133017103023658FC53D3
:100538000350808B6158DD05712200EF03712300A1
:1005480060311A71020070D0710300DFE6937132D6
:1005580001A7DFDD712300710202714201714201BE
:10056800CEABACE6FDEC33510AEF07E6FDEC338881
:100578000091980031140C03ED06068800D1DFEBDA
:10058800300081B80E300200F7FD1B1BB81013B8FD
:1005980012A8103344ADDE1361F844EFBEDF05F650
:1005A800B810B812A80EC1F6C1A81612A814FD39C1
:1005B800301004C3C1300200F7FD791A1004F1FDB0
:1005C8003B25300A00FDEC33F1FDFD0F301000F73C
:1005D800FD1B1B04010061D8A3C3C1301000F7FD47
:1005E800791A301200F7FD1B1BB80613B808880CDF
:1005F800D110041361E8ED970E6CC0ED990ECF5839
:10060800FCE5CF59FC037133017103023658FC53E2
:100618000250808B6158DD05712200EF03712300C1
:1006280060311A71020070D0710300DFE6937132F5
:1006380001A7DFDD712300710202714201714201DD
:10064800CEABACCF58FC03F559FC713301710302F2
:100658003658FC530250808B6158DD05712200EF3B
:100668000371230060311A71020070D0710300DF3A
:10067800E693713201A7DFDD712300710202714236
:1006880001714201CEABACCF58FCE3CF59FCEE71FF
:1006980033017103023658FC530250808B6158DDD8
:1006A80005712200EF0371230060311A7102007096
:1006B800D0710300DFE693713201A7DFDD712300FB
:1006C800710202714201714201CEABACCF58FC06F7
:1006D800CF59FC27CF5AFC27CF5BFC277133017118
:1006E80003023658FC530450808B6158DD05712293
:1006F80000EF0371230060311A71020070D071039A
:1007080000DFE693713201A7DFDD71230071020279
:10071800714201714201CEABAC88017C802C86DE2F
:1007280003F6EF5788017C802CA7DE03E6EF4C88A0
:100738000176317B77F95CFCF317FD4235DE053035
:100748000400EF37F95DFCFD4235DE05300500EFAA
:100758002AF95EFCFD4235DE05300600EF1DF95F23
:10076800FCFD4235DE05300700EF10F960FCFD4264
:1007780035DE05300800EF03300900B806CF58FC15
:1007880030A806123658FC4972FC9F59FC71330197
:10079800710302530250808B6158DD05712200EF0E
:1007A8000371230060311A71020070D0710300DFF9
:1007B800E693713201A7DFDD7123007102027142F5
:1007C80001714201CEABACCF58FC50CF59FC7771C8
:1007D80033017103023658FC530250808B6158DD97
:1007E80005712200EF0371230060311A7102007055
:1007F800D0710300DFE693713201A7DFDD712300BA
:10080800710202714201714201CEABACCF58FC605B
:10081800CF59FC227133017103023658FC53025040
:10082800808B6158DD05712200EF03712300603170
:100838001A71020070D0710300DFE693713201A7CC
:10084800DFDD712300710202714201714201CEABFA
:10085800ACCF58FC61D5B5FCCF59FC02DF0DCF5A9F
:10086800FC58E55BFCCF5CFCC0EF0BCF5AFC80E585
:100878005BFCCF5CFC807133017103023658FC537A
:100888000550808B6158DD05712200EF037123004C
:1008980060311A71020070D0710300DFE693713283
:1008A80001A7DFDD7123007102027142017142016B
:1008B800CEABAC300F00FDEC3330AC0DEF0AE6FDEB
:1008C800EC33CEABACA806B1B80631120C0DA806B5
:1008D800440000DFE9300004ED8B05CF58FC0471BB
:1008E800330151807103029800AEF81631A50571E5
:1008F8002200EF03712300710200710300880031A8
:100908001AD19800DFE3713201712300710202717C
:100918004201714201CEABAC301E00FDEC33516494
:10092800EF07E6FDEC33880091980031120C0B8834
:1009380000D1DFEE300040ED8B05CF58FC4071331D
:100948000151807103029800AEF81631E505712255
:1009580000EF037123007102007103008800311A4F
:10096800D19800DFE3713201712300CEABAC300ABD
:1009780000FDEC335164EF07E6FDEC3388009198F5
:100988000031120C0ECEABAC8800D1DFEB30000189
:10099800ED8B05F03402003258FCE1FD7B0F8F58D7
:1009A800FC3659FC31199F58FC8B3658FC317A6D4E
:1009B8009B88012F58FC707C802C88DC045007EF42
:1009C80009607C802C7861D850F8605C0FCF58FCA7
:1009D800419F59FC713301710302530250808B61AE
:1009E80058DD05712200EF0371230060311A71028E
:1009F8000070D0710300DFE693713201A7DFDD716B
:100A08002300710202714201714201CEABACCF5892
:100A1800FC828FBAFC9F59FC71330171030236586E
:100A2800FC530250808B6158DD05712200EF037181
:100A3800230060311A71020070D0710300DFE69361
:100A4800713201A7DFDD7123007102027142017169
:100A58004201CEABACCF58FC107133015180710309
:100A6800029800AEF81631C505712200EF03712314
:100A7800007102007103008800311AD19800DFE389
:100A8800713201712300710202714201714201CE7B
:100A9800ABACAF86FCC1AF84FCC1F7883170F1FD07
:100AA800A22F04001061D8A31004B81433B816D5C7
:100AB800B6FCDF0713B820A816EF1112A81402809D
:100AC800FC61D8A3330282FC33B82013B822AF806C
:100AD800FCB81CAF82FCB81E12A81C3344000013DB
:100AE80061F844000061F8ED1B0D300400C1AEF858
:100AF800042A0014A81812A816FDB227A81812A8CC
:100B08001604040061D8A31002B81413B816D5B699
:100B1800FCDD24300400C1AEF804260014A8241219
:100B2800A822FDB227A82412A82204040061D8A391
:100B38001002B82013B822AEF8042800B81004FC3C
:100B4800FFB8063458FC500416A810378BA7980035
:100B580037B810A806378BA7980137B8061735D5C8
:100B6800B6FCB81235A5FBF8FFDF7A31F503F7EFCD
:100B78000332300031E502EF0633086C03083362B4
:100B880016A812379B35B81235FBF8FFA531D503E7
:100B9800F7EF02523031C502EF0633086C03083311
:100BA8006216A812379B35B81235FBF8FFA531B588
:100BB80003F7EF02523031A502EF0633086C030841
:100BC800336216A812379B35B81235FBF8FFA531EA
:100BD8009503F7EF025230318502EF0633086C03B4
:100BE8000833EDB10C31F503F7EF0CA731F50532F9
:100BF8004000EF03323000FBF8FF31E502EF0EA7AB
:100C0800330831E5046C04EF026C0308336216A85C
:100C180012379B35B81235FBF8FFA531D503F7EF2E
:100C28000AA731D5045240EF025230FBF8FF31C514
:100C380002EF0EA7330831C5046C04EF026C0308F9
:100C4800336216A812379B35B81235FBF8FFA53169
:100C5800B503F7EF0AA731B5045240EF025230FB53
:100C6800F8FF31A502EF0EA7330831A5046C04EF95
:100C7800026C0308336216A812379B35B81235FB8D
:100C8800F8FFA5319503F7EF0AA73195045240EF15
:100C9800025230FBF8FF318502EF0EA73308318589
:100CA800046C04EF026C0308336216A81237909B99
:100CB80061E8ED500B7132017103023658FC531094
:100CC80050808B6158DD05712200EF0371230060AD
:100CD800311A71020070D0710300DFE6937132019E
:100CE800A7DFDD712300710202714201714201CE5A
:100CF800ABACA81E12A81C24040061D8B3B81C13FE
:100D0800B81EA81C334400001361F844000061E8D1
:100D1800EDF20ACF58FC1271330171030250806062
:100D28005C12DD05712200EF0371230060311A7136
:100D3800020070D0710300DFE67132017123007187
:100D48000202714201714201CEABAC303200FDECBF
:100D580033AEF804020014308001F7FDA92B4C01D2
:100D6800DF2CA80412A8026C04C3C1308001F7FD6F
:100D7800122B4C011004DF16A80412A802618A6C19
:100D880004618AC3C1308001F7FD122B1004306C56
:100D980007FDEC33F9C6FC31120C1C61ED00CEAB3B
:100DA800ACC3C65700D9C6FCF1277C8044F080DC70
:100DB800E6300010ED8B05A80412A8026C04C3C12C
:100DC800308001F7FD122BAEF8041C0014308401AA
:100DD800F7FDA92B4C011004DF11A81AF1B818F679
:100DE800B81AA81844FF0061D8B80ACF58FC517146
:100DF80033017103025080605C51DD05712200EF00
:100E08000371230060311A71020070D0710300DF92
:100E1800E6713201E671230014AEF8040800CEAB87
:100E2800AC12F0E1FD7B0F306400FDEC33CF58FCD1
:100E38000271330151807103029800AEF8163195A2
:100E480005712200EF03712300710200710300880D
:100E580000311AD19800DFE3713201712300710269
:100E680002714201714201CEABAC510AEF07E6FDB7
:100E7800EC33880091980031140C0B8800D1DFEE18
:100E8800300020ED8B05306400FDEC33EDC6055CC9
:100E9800BFB804A80E440000F661F8440000A80496
:100EA800DD046C30EF025CEFF7B804A80AC3C1A8F0
:100EB8000812A806F0FD39301004B802F00816A888
:100EC8000A47DE12F7318DC3C1A80812A806F1FD42
:100ED80039301004B802A802C3C1301200F7FD79F6
:100EE8001A1032E5B9FCD74FB8FC7061C8D78FBB70
:100EF800FC74D6360000A15500C71231FFC533C3B4
:100F0800C1300010F7FD7E291008D7C3D1C1DF0515
:100F1800713301EF03713201FBF8FF31850371036F
:100F28000231950371430131A50371430115440052
:100F380000DD29131650808B6158DD05712200EF02
:100F48000371230060311A71020070D0710300DF51
:100F5800E61504FFFF713201A714DFD97123008859
:100F680008D1DF097102027142017142011004CEF9
:100F7800ABACD7C3C5C1C16073AEF804030016316A
:100F8800A502EF11318508712A20710302EF09319A
:100F98009506712A2071430115440000DD42A80618
:100FA80014A804B800F052806031197016AEF871B8
:100FB800020004030037F131A50571240CEF037119
:100FC800240061DC7760616F7062311A72D271033C
:100FD80000DFD56099A800B1440000A5B800DFC5BE
:100FE800D3712B20DF097102027142017142011095
:100FF80008CEABACD74C01DF2A71320271330071D5
:101008000202714201710300712200712B20E6FD7A
:10101800EC33713302300300FDEC33713202E6FD2C
:10102800EC33D77123007103007132007103027130
:101038004301713301713302D7C3C1201213609881
:1010480001A812709800624FB8FC61C8ED65116084
:101058004FB8FC61C8ED6511E1FD3B25AEF80412FF
:10106800001631932588004FB8FCDE1EF7D9BBFC6B
:10107800F1C3C18804708FBBFCD6A11231FF33C302
:10108800C1300010F7FD7E29100840BCFC01DD3896
:10109800AF86FCC1AF84FCC1F7880570F1FDA22FB3
:1010A8001004B80613B808AF86FCC1AF84FCC1F7BA
:1010B800880470F1FDA22F1004B80213B804AF80A1
:1010C800FCB80AAF82FCB80CA80812A806040010E5
:1010D80061D8A3B80613B808A80412A8020400101F
:1010E80061D8A3B80213B804A80C12A80A334400A4
:1010F800001361F8440000DD64300400C1AEF80458
:10110800100014A80A12A808FDB227300400C1AEC6
:10111800F804120014A80812A806FDE625A80C1267
:10112800A80A04040061D8A31004B80613B808A8D4
:101138000412A80204040061D8A3B80213B804A8D2
:101148000C12A80A24040061D8B3B80A13B80CA872
:101158000A334400001361F8440000DF9C1016D7DE
:10116800C3C12012AEF8040200FD4A34E1FD3B255C
:10117800F19800D5B8FC61F8ED5B12880074300076
:1011880001F7FD712FC3C1A81812A816FD623033EC
:1011980044000010041361F844000061F8ED4E1299
:1011A80040BCFC01DD21AF86FCC1AF84FCC1F788DF
:1011B8000470F1FDA22F1004B80E13B810AF80FC14
:1011C800B80AAF82FCB80CA80C12A80A3344000075
:1011D8001361F8440000DD6E300400C1AEF8040865
:1011E8000014A81212A810FDB227880872AEF804DD
:1011F8000400FD5234880972AEF8040400FD52342C
:10120800880A72AEF8040400FD5234880B72AEF8F6
:10121800040400FD5234A81212A81004040061D876
:10122800A31002B80E13B810A80C12A80A240400C0
:1012380061D8B3B80A13B80CA80A33440000136184
:10124800F8440000DF9288008198004FB8FC61D80C
:10125800ED8311A80412A802C3C1301500F7FD7967
:101268001A101AD7F6BFA4FCBFA6FC200CBFA8FC16
:10127800F5B2FC717BFABF9CFB510FBF9EFB717AE4
:10128800FA8EA8D17561F8EDA713717BFAAFA0FBB0
:10129800B808AFA2FBB80A717AFA12A808318E33DF
:1012A80016318E3337318D07B80033B8026274A80F
:1012B8000212A800318E3316318E3337318D07B8BC
:1012C80000F6B8026570F1C3C15500A804F008C360
:1012D800C1880870F1C3C1C3C5A81A12A818318CF7
:1012E80016318E031217318DC40561D8A3C6318C0F
:1012F80016318E031217318DC40561D8A3C6318CFF
:1013080016318E031217318DC40561D8A3C6F0FDBE
:101318003930618B6C801004618BB80413B806A84F
:1013280004318E3316318E3337318D07B80033B818
:10133800026270F114F6C1C5F7880870F1318DC4E6
:101348000561D8A3C6B80413B806A80212A80031CC
:101358008E3316318E3337318D07B80033B80271AA
:101368007BFA13F00814F616C162C570F114C7C5EC
:10137800A80E12A80C318C16318E031217318DC4A9
:101388000561D8A3C6318C16318E031217318DC46E
:101398000561D8A3C6BFA0FB13BFA2FB717AFA717F
:1013A8007BFA300001BFC4FBBFC6FB717AFA717BC0
:1013B800FABFC8FBBFCAFB717AFA717BFABFCCFBD4
:1013C800BFCEFB717AFA717BFABFD0FBBFD2FB713B
:1013D8007AFA717BFABFD4FBBFD6FB717AFA717BBC
:1013E800FAF6BFDCFB305208BFDEFB717AFA717B7C
:1013F800FAF6BFE0FB50FFBFE2FB717AFA717BFAA5
:10140800F6BFF4FBBFF6FB717AFA100CD7201A71FD
:101418007BFADBF6FB717AFA139808ED4515717BB8
:10142800FAAFACFBB804AFAEFBB806880475A806E3
:1014380012A804318E3316318E3337318D07B80434
:1014480033B8066274A80612A804318E3316318E9A
:101458003337318D07B804F6B806A804F008C3C1BD
:10146800880870F1C3C115F1C3C16570F1318DC42D
:101478000561D8A3C6318C16318E031217318DC47D
:101488000561D8A3C6318C16318E031217318DC46D
:101498000561D8A304FA0061D8A3C6B80033B8021E
:1014A8006275A80212A800318E3316318E33373197
:1014B8008D07B80033B8026274A80212A800318EF2
:1014C8003316318E3337318D07B800F6B802A800CD
:1014D800F008C3C1880470F1C3C115F1C3C16570B8
:1014E800F1318DC40561D8A3C6318C16318E031233
:1014F80017318DC40561D8A3C6318C16318E0312FD
:1015080017318DC40561D8A3C6BFACFB13BFAEFBB2
:10151800D5C3FC61E8B0C3FCB0C6FC717AFAAF88E9
:10152800FCDB8AFC04010061D8A3BF88FC13BF8AD6
:10153800FCA0BDFCA0BEFCA2AAFCA2ACFCD5C6FCCB
:1015480061E8ED2614F1EDEA15607CFF7365615BD7
:101558007560311A70D0DF3B6473AEF8040A001668
:10156800658461D9644C10DF26301000C1AEF804E0
:101578000C0014A80812A806FDE625A80812A8065B
:1015880004100061D8A310025400B80413B8065020
:101598008055008802D161E8EDE216880191980132
:1015A80061E8EDD21664D1DF05604C80DD24604C23
:1015B80080DD0C6473AEF8040A00166561D98455A1
:1015C80000C5AEF8040C0014A80812A806FDE6250C
:1015D8001002AFA6FC440001DC04F6BFA6FC88009C
:1015E8000C049800717BFA8800765700AFA8FC2796
:1015F800BFA8FCAFA8FC717AFA440000DF03101AF8
:10160800D7DBA6FC4964FA9800A2A6FCEBA6FCA2CC
:10161800A6FCFBA6FCA2A6FCDBA6FC4964FAF770B4
:10162800F1C3C1C7C24964FAF770F1C3C1C5C24961
:1016380064FA70F1F7318DFD393016318E12173199
:101648008D1004FD39301004B80413B806A2A6FCA6
:101658008808D1DF42A804334409003361F8440004
:101668000061C8EDFA16880070F1C1AFA6FC0464E9
:10167800FA14A8062400F061D8B3FDE625880270A4
:10168800F102A6FCBFA6FCAFA6FC44000110026153
:10169800D8EDE615EDE2154C0161E8EDE615A80474
:1016A800334401003361F844000061D8EDE61524A5
:1016B80000F061D8B3B80413B8068800D15080543C
:1016C80000550061F8EDDA159801DBA6FC4964FACB
:1016D80098035C7F81A2A6FC980288029198021662
:1016E800AEF80403003731F303ED5115656168ED79
:1016F80058152400F061D8B33324080033EFB6BF7F
:101708007CFC13BF7EFCF5B2FCD7708FB2FC4C306A
:10171800DE0AE9B2FC6018F8FBA0B2FCD720068FFD
:10172800B2FCD19800F5B2FC61F8ED1C1ADB7EFC26
:10173800AF7CFC334400003361F8440010DE3730DE
:10174800FFFFBF00F9BF02F9AF7CFC334400001370
:1017580061F8447C00DF0A301C00BF7CFCF6BF7EC9
:10176800FCAF7CFC0498FBB804AF7CFC0404F9557E
:1017780000B802ED5F19AF02F9C1AF00F9C1AF7C43
:10178800FCFDA5301004DF4E88004FB3FCDF475541
:1017980000EF0E657309F8FB700928FC6140DF361D
:1017A8008588006145DE28657309F8FB700928FC07
:1017B8006140DF228588006145DE14657309F8FB06
:1017C800700928FC6140DF0E8588006145DCC46132
:1017D8004561F8ED1C1ADB7EFCAF7CFCBF00F913F9
:1017E800BF02F988009FB3FC5C033628FC34F8FB81
:1017F80070DD0789909BA5A7DFF98800312A70D092
:10180800DD19899B8A019C018A029C028A039C0338
:10181800A5A7A5A790A5A7A5A7DFE7DB7EFCAF7CBA
:10182800FC334400003361F84400F061D8EDE71858
:10183800880070F102A8FC04040044010161C8EDAD
:101848001C1ADBA4FC88004864FAA2A4FCAF7EFC46
:10185800DBA4FC604864FAA2A4FCDBA4FCAF7CFC1B
:101868004864FAA2A4FCDBA4FC8F7CFC4864FAA2BE
:10187800A4FC88005C0336F8FB70DD0EDBA4FC8B4F
:101888004864FA90A2A4FCA7DFF28800312A70D03D
:10189800DD32DBA4FC8B4864FAA2A4FCDBA4FC8C3C
:1018A800014864FAA2A4FCDBA4FC8C024864FAA2F6
:1018B800A4FC8C03DBA4FCA7A74864FA90A7A2A405
:1018C800FCA7DFCEAFA4FC440001DC04F6BFA4FCF7
:1018D80088000C0470F102A8FCBFA8FCED1C1A33A8
:1018E8004400001361F844C06061E8ED69173014E2
:1018F80000BF7CFCF6BF7EFC510498008FFCFB9F68
:10190800F8FB8FFDFB9FF9FB8FFEFB9FFAFB8FFF18
:10191800FB9FFBFBED6917A802168C027CFF706524
:101928007309F8FB6158708C027316A804378C028F
:10193800615B61689C02AF7CFCDB7EFC040100619A
:10194800D8A3BF7CFC13BF7EFCA80285040300B8A3
:101958000217040300B8048800614561C8ED1C1A29
:10196800DB7EFCAF7CFC334400001361F84460006C
:1019780061C8ED1C1AA802168B7CFF70657309F804
:10198800FBC76158C27016A804378BC3C65D61686F
:1019980073A80416639BAF7CFCDB7EFC040100612A
:1019A800D8A3BF7CFC13BF7EFC8588006145DE643C
:1019B800AF7CFC334400001361F8446000DE55A896
:1019C8000216A78B7CFF70657309F8FB61587016C7
:1019D800A80237C7C216A80437A7A38BC3C65D6180
:1019E8006873A80416A7639BAF7CFCDB7EFC04012C
:1019F8000061D8A3BF7CFC13BF7EFC8588006145CD
:101A0800DE12AF7CFC334400001361F844600061CF
:101A1800D8ED1F191006D7C3C1C1F19800A8023329
:101A28004400003361F84400F0DC2D2400F061D854
:101A3800B3B80213B804AF9EFCC1AF9CFCC1A806A2
:101A4800FDA5301004DE22E6C1AEF804020014A899
:101A580004FDB2271002EF11334400001361F8446B
:101A68006000DE054998FB9800F5B3FC8800100675
:101A7800D7C3C13344000020041361F8441800613F
:101A8800C8ED181BA80E12A80C318E3316318E33F0
:101A980037318D07B80033B8026270F114F6C1C54A
:101AA800F7881070F1318DC40561D8A3C6B80C133E
:101AB800B80EA80212A800318E3316318E33373192
:101AC8008D07B80033B802717BFA13F00814F616C4
:101AD800C162C570F114C7C5A81612A814318C16B6
:101AE800318E031217318DC40561D8A3C6318C1607
:101AF800318E031217318DC40561D8A3C6C3C1A89E
:101B080008312D0498FB16C0C2BB13BC02717AFAC7
:101B18001008D7C3C12008F6B804B806A80833448B
:101B280000001361F8441800DE7E717BFA312D0441
:101B380098FB16ABB804AC02B806717AFA12A8047E
:101B4800318E3316318E3337318D07B80033B802F2
:101B58006274A80212A800318E3316318E333731E1
:101B68008D07B800F6B802A800F008C3C155008870
:101B78000470F1C3C1C3C5881070F1318DC405610B
:101B8800D8A3C6318C16318E031217318DC4056166
:101B9800D8A3C6318C16318E031217318DC4056156
:101BA800D8A3C6B80413B806A80612A804100CD700
:101BB800E6D7200E717BFACF770000CF760000CFF2
:101BC800A80002CEA000717AA1714BA4CFF3001037
:101BD800710BA1CD0008CE20F0CF500002CF30000D
:101BE80002CD0105CE21E2CF310000CF510000CF58
:101BF800410000CF610000CD0202CF760001CE2265
:101C080000F404CE24F8CF340002CF540002CF648D
:101C18000000F406CE2603CF3C0011712AE4712B94
:101C2800E0713AE4713BE0714AE4714BE0715AE4C7
:101C3800715BE0FDC733FD3233FD6C12FD0B2BF5F4
:101C4800BCFCF5B5FCF5B6FCF5B7FC302C01FDEC99
:101C580033EF07300008F7FDA33430002CC1300102
:101C680003C1302010F7FD122BD11004DDE5FD9CD7
:101C780031FD1024FDD800FDE600F6BF94FCBF96A8
:101C8800FCCFBFFCFFF5BDFCF5BEFCBFAAFCBFAC9A
:101C9800FCBFAEFCBF90FCBF92FCCF780080717A8D
:101CA800FAEF0B36310271F200000061FD00D5C574
:101CB800FCDD0B717BFAB0C5FC717AFAEF08D5C66A
:101CC800FC61F8EDF623FDE600FD15148FBEFC4C13
:101CD800F1DC4EEBF8FF30A001F7FDA92BF6C1307F
:101CE8002303C1F6C1304502C1F6C130E803C1A8DB
:101CF8000E12F633F1FDA22F2485C061D8B333B19B
:101D0800331004FDA22F1004FDF52F04204E61D8D6
:101D1800A31004C3C1301100F7FD791AF5BEFC10F9
:101D280004AFACFC44600961D8EDC11DF6BFACFC42
:101D3800EBF8FF301812F7FDA92BA80212A8003300
:101D48004400001361F8440000DF06F6BFAEFCEF64
:101D580068EBF8FF30AC11F7FDA92BAF92FCC1AFCF
:101D680090FCC1A80612A804FDA5301004AFAEFC73
:101D7800DF21442001DE36A1442001A2AEFCDF2D84
:101D8800300006C130CF6AC1301412F7FD122B1093
:101D980004EF1A442001DC11300006C1300E04C1E2
:101DA800301412F7FD122B1004F6BFAEFCA8021275
:101DB800A800BF90FC13BF92FCAFAAFC444138DCDA
:101DC8002EEBF8FF301812F7FDA92BA80212A80075
:101DD800334400001361F8440000DF0FF6C130A15E
:101DE80007C1301812F7FD122B1004F6BFAAFC30F9
:101DF8000400F7FD1B1B1004C3C1AEF8163185485B
:101E0800F19804D5B8FCDD31880474300001F7FD81
:101E1800712FC3C1A80612A804FD62303344000024
:101E280010041361F8440000DD058804FDEF0E88F6
:101E3800048198044FB8FCDCCFF6B800B802C1C1E1
:101E48005004F7FD791A1004301300F7FD1B1B101E
:101E580004C3C1AEF81631851BA800FD4110A802C5
:101E680012A800085CFE08B800C3C1301300F7FDD3
:101E7800791A1004301400F7FD1B1B1004C3C1AEFF
:101E8800F81631851BA800FD6811A80212A80008E1
:101E98005CFE08B800C3C1301400F7FD791A1004BD
:101EA80040B9FC01DF0DF6BF88FCBF8AFCF5B9FC20
:101EB800EDF623DB8AFCAF88FC334400001361F89D
:101EC80044150061D8EDF623F198045007F7FD1B7F
:101ED8001B1004C3C1AEF8163185668800311A5C40
:101EE8000FFDA504A80212A800085CBE08B80008E7
:101EF8006C2008B800C3C1300700F7FD791A300517
:101F080000F7FD1B1BB80813B80A30FF03C13000E7
:101F1800FCC1A80A12A808316E3316316E33373166
:101F2800AD07FD623014A80E16A80C350561D8A3BC
:101F3800330733BF94FC13BF96FCE1980C1008EFED
:101F48002231E51F31D5068FBFFCFDA504A802127A
:101F5800A800085C9F08B800C3C1300700F7FD79E6
:101F68001A1004AEF81631D547300500F7FD1B1BD3
:101F7800C314AF94FCDB96FC2561D8B3C613275C69
:101F880080F27313440000F661F8440000DD1E8FF0
:101F9800BFFCFDA504A80212A800085CDF08B80071
:101FA800C3C1300700F7FD791A1004EF03E1980464
:101FB800300300F7FD1B1B1004C3C1AEF8163183B4
:101FC80003ED502031931DDB8AFCAF88FC334400BD
:101FD800001361F8447900DE0BE9BFFCA8007063C8
:101FE8006148DD4E300600F7FD1B1B14605C21DDE7
:101FF8001015085CDE08C3C1300600F7FD791A1019
:1020080004300800F7FD1B1B14605C07DD10150881
:102018005CF808C3C1300800F7FD791A1004A8005D
:102028009FBFFCAEF8040400163183068FBFFCFD89
:10203800A504A80212A800085CFC08B800C3C130B7
:102048000300F7FD791A1004300600F7FD1B1B107A
:1020580004C3C1AEF81631857C300500F7FD1B1BA3
:10206800B80613B808A8021613275C80F273134445
:102078000000F661F8440000DF5B8800311A5C0F4D
:102088009FBFFCAEF8040400163183068FBFFCFD29
:10209800A504A80212A800085CFE08B800086C2075
:1020A80008B800C3C1300600F7FD791A300800F7F8
:1020B800FD1B1BB80433B806625C061004DD16A8C5
:1020C8000212A800085CF908B800C3C1300800F77C
:1020D800FD791A1004300800F7FD1B1B1004C3C15A
:1020E800AEF816318303ED7B22300500F7FD1B1B8C
:1020F800B80613B808A80212A800085CE008BF9840
:10210800FC13BF9AFCA80812A8062298FC61D8B351
:1021180033229AFC3316AEF804060037A7B8061324
:10212800A7B808A731F503EDF623A80212A80008FE
:102138005CFE08B800086C0408B800C3C130080089
:10214800F7FD791A300A00F7FD1B1BB80433B806EF
:102158001331CE609FC0FC625C0F9FC1FC1004EF7E
:1021680026C3C6A80827B808FB9AFC1307BF9AFC21
:10217800A0C0FCB0C1FCDF0FA80031CE609FC0FC3E
:1021880088005C0F9FC1FC8FC0FC311A70F1040BF2
:10219800001231FF33FD1B1BB80A33B80C36C0FCE4
:1021A800318506F6B80A13B80CF6B80AAEF8040674
:1021B8000016A80C4E0312DF0B624E02DF06F14E2A
:1021C8000161F84DDC9B8FC0FC4C08DE183009001B
:1021D800F7FD1B1BB80613B80851072FC0FC31299F
:1021E80074A806EF1CDF0DA80212A800541CFD8677
:1021F8002F60EF1340C0FC09DF12A80212A8005498
:1022080018FD862F605C0F9FBFFCEF04CFBFFC0F4B
:10221800D9BFFCF1318D1231FF33C3C1A80612A812
:10222800045CF0FD39301004B80013B802A800C3EC
:10223800C1300A00F7FD791A1004AEF8040400163C
:102248003183068FBFFCFDA504300600F7FD1B1B7C
:102258001004C3C1AEF81631D303EDF623A8000865
:102268005CDF08B800C3C1300600F7FD791A100416
:10227800EDF62388005C064C0661E8EDF6238FC076
:10228800FC4C0A61C8EDF223311A70F1040B0012FC
:1022980031FF33FD1B1BB80633B80836C0FC318547
:1022A80006F6B80613B808A80812F60298FC330216
:1022B8009AFC33B80633B808C1C3300500F7FD1BD4
:1022C8001BC42561D8B3C613275C80F273F6334468
:1022D8000000F661F844000061E8EDF623500AFDBD
:1022E8001B1B1004C3C1EF0615B80617B808A808C9
:1022F80012A806BF98FC13BF9AFCA0C0FCB0C1FC92
:10230800DF0FA80031CE609FC0FC88005C0F9FC122
:10231800FC8FC0FC311A70F1040B001231FF33FD41
:102328001B1BB80A33B80C36C0FC318506F6B80A50
:1023380013B80CA80C12F60298FC33029AFC33B8B6
:102348000A33B80CC1C3300500F7FD1B1BC4256157
:10235800D8B3C613275C80F273F633440000F661E5
:10236800F8440000DD828FC0FC4C08DE17300900FD
:10237800FD1B1BB80613B80851072FC0FC31297480
:10238800A806EF1CDF0DA80212A800541CFD862F1A
:1023980060EF1340C0FC09DF12A80212A80054180D
:1023A800FD862F605C0F9FBFFCEF04CFBFFC0FD9E9
:1023B800BFFCF1318D1231FF33C3C1A80612A80446
:1023C8005CF0FD39301004B80013B802A800C3C18E
:1023D800300A00F7FD791A1004AEF804040016312B
:1023E800830C8FBFFCFDA504EF04CFBFFC0FCEAB61
:1023F800ACF1FD3B25D5C4FCDF098E515CB261F818
:10240800EDAB1C61EDEDB51C300001BFB0FCF6BFB3
:102418009CFC5008BF9EFC40C2FC012006DD6C718C
:102428001302514AFD3D345106711202980060F0C2
:10243800C1E6C1F614AEF804040012F0E1FD7033F1
:10244800E19804F1980508C1300200C1AEF804080B
:102458000014AEF804080012F0E1FD70335105983D
:102468000860F0C1300200C1AEF8040C0014AEF8E8
:10247800040C0012F0E1FD7033880D5C0C100CDDCB
:1024880007300002F7FDA334E5C2FC519FCFC3FC1F
:102498000A9802F198039804980508C1300400C10D
:1024A800AEF804060014AEF804060012F0E1FD7060
:1024B8003388074C1F1004DF4188042C40DD102CA2
:1024C80002DD1C91DD2191DD262C21DD0BEF2B3067
:1024D8000080BF9CFCF6EF1DF6BF9CFCE6EF16F6ED
:1024E800BF9CFCA1A1EF0EF6BF9CFC5004EF06F6C2
:1024F800BF9CFC5008BF9EFCEF07300004F7FDA30B
:1025080034717BFAF5C3FC717AFAD5C2FCDD21710E
:102518007BFA5179980060F0C1E6C1F614AEF80470
:10252800040012F0E1FD7033F5C2FC1004717AFA70
:102538001006D74C01C1DF7840C2FC01DD6C711375
:1025480002514AFD3D345106711202980060F0C1F3
:10255800E6C1F614AEF804040012F0E1FD7033E1B0
:102568009804F1980508C1300200C1AEF8040800CB
:1025780014AEF804080012F0E1FD70335105980814
:1025880060F0C1300200C1AEF8040C0014AEF804CB
:102598000C0012F0E1FD7033880D5C0C100CDD07A7
:1025A800300002F7FDA334E5C2FCCFC3FC0AEF2BD1
:1025B800D5C2FCDD26717BFAD5C3FCDF1B517998A7
:1025C8000060F0C1E6C1F614AEF804040012F0E1B0
:1025D800FD7033F5C2FC1004717AFA1002D7C3C13A
:1025E800C52006A81014A8080561D8A32401006115
:1025F800D8B3F0C3C1A80E12A80CF0FDA530100482
:10260800DD3604000161D8A3B80213B804A8081481
:10261800A80225B800C1A80814A80C12A80AFD4EE3
:1026280026A80216A81227C1A80A0714A80812A8E3
:1026380006FD4E261004EF0BC5A80814A80AFD4E87
:10264800261002100CD7C3C1C540C2FC01200ADD08
:102658006C711302514AFD3D345106711202980003
:1026680060F0C1E6C1F614AEF804040012F0E1FD12
:102678007033E19804F1980508C1300200C1AEF842
:1026880004080014AEF804080012F0E1FD7033519C
:1026980005980860F0C1300200C1AEF8040C0014BF
:1026A800AEF8040C0012F0E1FD7033880D5C0C10DC
:1026B8000CDD07300002F7FDA334E5C2FCCFC3FCF4
:1026C8000AA80E12A80C334400001361F844000055
:1026D800DF29F6B806B80851089800A80812A80615
:1026E800FD8A28A80812A80604000161D8A3B80624
:1026F80033B808138800919800DFE051069802600B
:10270800F0C1E6C1F614AEF804060012F0E1FD705F
:102718003351029806DB9EFCAF9CFC334401001049
:10272800041361F8440100DC16A80E609803A80C95
:10273800709804880C980560F0C1300400EF0FA869
:102748000C709803880C980460F0C1300300C1F63F
:1027580014AEF804060012E1E0FD70331004E1083D
:10276800C1A816C1F614A80E12F0E1FD7033510B82
:10277800710300980410045105980260F0C13002FA
:1027880000C1AEF804060014AEF804060012F0E129
:10279800FD703316AEF80407003771841004DE07A5
:1027A8008800919800DFD01010D7C3C1C540C2FC83
:1027B800012006DD6C711302514AFD3D345106714A
:1027C8001202980060F0C1E6C1F614AEF8040400E5
:1027D80012F0E1FD7033E19804F1980508C1300268
:1027E80000C1AEF804080014AEF804080012F0E1C5
:1027F800FD70335105980860F0C1300200C1AEF891
:10280800040C0014AEF8040C0012F0E1FD703388DB
:102818000D5C0C100CDD07300002F7FDA334E5C297
:10282800FC5103CFC3FC0A9802DB9EFCAF9CFC332F
:102838004401001361F8440100DC16A80A609803FB
:10284800A8087098048808980560F0C1300400EF63
:102858000FA8087098038808980460F0C130030036
:10286800C1F614AEF804060012E1E0FD703310045E
:10287800E108C1F7A812C1A80A14F0E1FD703310ED
:1028880010D7C3C140C2FC012006DD6C7113025190
:102898004AFD3D345106711202980060F0C1E6C14C
:1028A800F614AEF804040012F0E1FD7033E1980468
:1028B800F1980508C1300200C1AEF804080014AE52
:1028C800F804080012F0E1FD70335105980860F033
:1028D800C1300200C1AEF8040C0014AEF8040C00BC
:1028E80012F0E1FD7033880D5C0C100CDD07300030
:1028F80002F7FDA334E5C2FC5106CFC3FC0A9802D7
:1029080060F0C1E6C1F614AEF804060012F0E1FD6D
:10291800703351819806A80C609807A80A70980827
:10292800F1980908C1300400C1F614AEF8040A0091
:1029380012F0E1FD7033510B98081008EF04E6FD22
:10294800EC3351059802F1980308C1300200C1AE7A
:10295800F804060014AEF804060012F0E1FD703326
:10296800AEF80407001671841004DE0788009198F9
:1029780000DFCB100AD7C3C1200CA816C1A816C106
:10298800A810FDA22F1004B80813B80A40C2FC0111
:10299800DD6C711302514AFD3D34510671120298E3
:1029A8000060F0C1E6C1F614AEF804040012F0E1CC
:1029B800FD7033E19804F1980508C1300200C1AEFA
:1029C800F804080014AEF804080012F0E1FD7033B2
:1029D8005105980860F0C1300200C1AEF8040C003F
:1029E80014AEF8040C0012F0E1FD7033880D5C0C95
:1029F800100CDD07300002F7FDA334E5C2FCCFC39D
:102A0800FC0AF6B800A81A12A8183344000013618B
:102A1800F844000061F8ED082B5106980260F0C1F7
:102A2800E6C1F614AEF804060012F0E1FD7033A812
:102A38001212A81033440000100413DF2C440001C4
:102A4800DD0C440010DD10440080DD14EF1B5181C3
:102A58009802301A00EF1051209802303200EF0728
:102A680051529802309001B806A80A609803A80845
:102A7800709804F1980508C1300400C1F614AEF846
:102A880004060012F0E1FD70331004EF04E6FDECDB
:102A98003351059802F1980308C1300200C1AEF81D
:102AA80004060014AEF804060012F0E1FD7033AE1F
:102AB800F80407001671841004DE0AA806B1440061
:102AC80000B806DFC8A80E16A80C14A80A12A80891
:102AD8000561D8A3330733B80813B80AA800A1B80A
:102AE80000AEF804180016A800F3618B4E03DF0B44
:102AF8004E02DF07634E01DF02604D61D8ED212AE7
:102B08001010D7711200711204D7C3C12004F198B4
:102B18000071130451140091DFFC7113005114006B
:102B280091DFFC5182FD9C2E4C01DF1FA80660FD41
:102B38009C2E4C01DF15A804FD9C2E4C01DF0C884F
:102B480004FD9C2E4C01DF03E19800A80E12A80C8E
:102B58005418FD862F60FD9C2E9803A80E60FD9CDE
:102B68002E9802A80CFD9C2E9801880CFD9C2E71B5
:102B780013047051140091DFFC711200511400917C
:102B8800DFFC71120451140091DFFC880173880284
:102B9800728803758800615D615A615B100861582D
:102BA800D7C3C1C52006F19800F6B802B80471135E
:102BB8000451140091DFFC71130051140091DFFCE3
:102BC800F35080605C82DD05711204EF0371130419
:102BD80060311A7112007051140091DFFC51140019
:102BE80091DFFC71130051140091DFFCD0DFD47128
:102BF8001204711A2451140091DFFC31120401E30C
:102C0800711B2471120051140091DFFC51140091C2
:102C1800DFFC71130051140091DFFCD361F8ED550E
:102C28002DA80A12F63360725080626158DD057172
:102C38001204EF0371130460311A711200705114F9
:102C48000091DFFC51140091DFFC71130051140056
:102C580091DFFCD0DFD4711204711A245114009151
:102C6800DFFC31120401E3711B24711200511400BE
:102C780091DFFC51140091DFFC7113005114009195
:102C8800DFFCD361F8ED552DA80872F3508062611E
:102C980058DD05711204EF0371130460311A7112C3
:102CA800007051140091DFFC51140091DFFC711386
:102CB8000051140091DFFCD0DFD4711204711A2482
:102CC80051140091DFFC31120401E3711B247112CD
:102CD8000051140091DFFC51140091DFFC711300C6
:102CE80051140091DFFCD3DD64880872F3508062D0
:102CF8006158DD05711204EF0371130460311A7114
:102D080012007051140091DFFC51140091DFFC7126
:102D1800130051140091DFFCD0DFD4711204711A32
:102D28002451140091DFFC31120401E3711B24715A
:102D3800120051140091DFFC51140091DFFC711353
:102D48000051140091DFFCD3DD03E19800711304F6
:102D580051140091DFFC71120051140091DFFC71D5
:102D6800120451140091DFFCAEF816318303ED6FA5
:102D78002E71130451140091DFFC711300511400DB
:102D880091DFFCF35080605C83DD05711204EF0372
:102D980071130460311A7112007051140091DFFC34
:102DA80051140091DFFC71130051140091DFFCD025
:102DB800DFD4711204711A2451140091DFFC31120E
:102DC8000401E3711B2471120051140091DFFC51BE
:102DD800140091DFFC71130051140091DFFCD361E2
:102DE800F8ED6F2EF1DBF8FF9801A3FDFA2E4C01E8
:102DF8009800DF12880170F1318DDBF8FFB804A369
:102E0800F1FDFA2E980088004C01DF1E880170F150
:102E180012F6C3C1A80812F6FD3930100413DBF806
:102E2800FFB804A3F1FDFA2E980088004C01DF1EBC
:102E3800880170F1F7318DC3C1A80812F6FD393049
:102E48001004DBF8FFB802A3E1FDFA2E9800880011
:102E58004C01DF138801F770F1C3C1A80812A80656
:102E6800FD39301004B80271130451140091DFFCCD
:102E780071120051140091DFFC7112045114009179
:102E8800DFFCA80412A80216A80637BB13BC0288E8
:102E980000100CD772F35080626158DD057112047E
:102EA800EF0371130460311A71120070511400910C
:102EB800DFFC51140091DFFC71130051140091DF05
:102EC800FCD0DFD4711204711A2451140091DFFC74
:102ED80031120401E3711B2471120051140091DFB7
:102EE800FC51140091DFFC71130051140091DFFCB8
:102EF80063D7C3C6711204711A24755380F0F25453
:102F080001711200711A203112000880604C40DCF7
:102F1800F65400711B2051140091DFFC3114040495
:102F280062616B7263311A7113007351140091DF7F
:102F3800FCD3DFCD65D1711B24DF05711304EF03CA
:102F480071120451140091DFFC7112003112000853
:102F580080604C40DCF6540051140091DFFC64D1D1
:102F6800711300DD02629B64D7C58494DD0601619C
:102F7800FE94DFFA146168616B616A15C4D7C58471
:102F880094DD0D33311E3361FB0861FB0894DFF3D8
:102F9800146168616B616A15C4D7C5C72004C3C1D1
:102FA800AEF81404100016AD20C1AD22C1F422F70A
:102FB800F4208D20819D218BB77089A5D6031261DD
:102FC800D8A422B421DFF0C7AEF8062016629C0A06
:102FD8006372E822F42215C416A5A420312420D255
:102FE800C0BD22C0BD201004C0C2C6C4D7C5333579
:102FF800C7FEE100C1C7C1AEF816C0617D61AD056D
:10300800C6618D61DCDE0A61FB618DFED700EE04CE
:103018000061FB618D317503FEDB00FEED00C03100
:103028007503FEC00065616C616A616B3533C6C4A7
:10303800D7C53335C7AEF816618A6E08618A618BC9
:103048006E09618B618C6E0A618C618D6E0B756186
:103058006C616A616B3533C6C4D7C53335C7FBF8B5
:10306800FF625E0872635E0973645E0A70655E0BD8
:1030780033C6C4D7C53335C7AEF816618A7E086132
:103088008A618B7E09618B618C7E0A618C618D7E81
:103098000B75616C616A616B3533C6C4D7C533354E
:1030A800C7AEF816622E0870633E096160643E0A76
:1030B8006160653E0B61603533C6C4D7C535F661BE
:1030C8002C08613D35F6613A08613B126168616D13
:1030D800616C15C4D7AEF8168C0C088C0DC18C0E1B
:1030E800708C0FC6D7C1F6612A08613B12F6613CA5
:1030F80008613D14C0D7C312F6612E08613F1670EF
:103108006178613A706178613BC2D7C1C7C5C3AE07
:10311800F8168C046E056E066E07DF09F73400009A
:10312800C6C6EE6C005220F61461AC610161AC6158
:10313800AD0161DC61AD0161AD0261DC61AD0261CF
:10314800AD0361DC61AD03618C61DC618C618D6113
:10315800DC618D0861DC0861DC4E07DF04084E067F
:1031680008DC29DF10618D4E05618DDF06618C4E0C
:1031780004618CDC17618C2E04618C618D3E0561C5
:103188008D083E06083E0761AC8161AC92DF9AC2A9
:10319800C4C6C6D77140F00071783002715AE57123
:1031A8005BE1715BED715BE95A06FC8E266C039E50
:1031B8002636310271B2CF320226CF33022B718309
:1031C800CF340240711A52710A52B771C371B27189
:1031D800A2715BE571F271E28E265CFC9E26D7C176
:1031E800C3C5C7AEFCC1C1D5C4FCDD0F40C4FC06D5
:1031F800DD098E50980136300271D27178310200A3
:10320800000000008E519800AEF816318521363046
:103218000271C340C4FC05DF08FD2517A0C5FCEFFB
:103228000840C4FC0661F871D2F5C4FCED2733D51B
:10323800C4FCDF2E31D50836300271E2ED27333178
:10324800C303ED27337140300231B507CFC4FC0604
:10325800ED023336300271D2E5C4FCF6BFA0FCEDB6
:103268001D3340C4FC01DF0FCFC4FC02880170F19C
:10327800BFA0FCF6ED1D3340C4FC02DF06CFC4FC42
:1032880003EF0A40C4FC03DF2FCFC4FC04DBA2FC1D
:10329800AFA0FC318C16318E031217318DBFA0FC04
:1032A80013BFA2FC8801FBA2FC70F1EBA0FCF705A0
:1032B80061D8A3330733EF5940C4FC04DD0640C48A
:1032C800FC05DF2D40C4FC04DF09DBA2FCAFA0FC39
:1032D800FD07178801FD1217DBA2FCAFA0FC040153
:1032E8000061D8A3BFA0FC13BFA2FCCFC4FC05EFAC
:1032F8002E40C4FC06DF2831A520DBA2FCAFA0FCD1
:10330800FD1F1A9E50DBA2FCAFA0FC04010061D88F
:10331800A3BFA0FC13BFA2FCEF0536300271D21088
:1033280002C0C6C4C2BEFCC061FC7120F000E6FD4C
:10333800EC33F6BF2601E6BF2401710AE5710BE103
:103348005007BF08015020BF10013007F0BF180117
:10335800C9100002AF28015CFE085CFE08BF280106
:10336800E6BF2A01BF2201D7C5C1C3C671130260D7
:1033780072A808440000DD3BB800880A73634C015A
:103388008B61F87CFF9D1000000000AF00016031E8
:1033980063F9A802440000DF048D10EF0A634C01B2
:1033A8008D1061F87CFF99A800B1440000A5A7B86A
:1033B80000DFCAD261F87112021004CEABACD7712B
:1033C80070F000CB900000713AE6713BE2713AEE82
:1033D800713AEACB90FF0EAE906C80BE90713BE6DE
:1033E800713BE2D7360600377100F000BFB601170F
:1033F80036000037BF900117360100C9187D003725
:10340800BFB20117440000DD1EB1FB8001DB800163
:10341800374317DCEFEB8001334513DCE7FB800112
:10342800354715DCDFEFE6E6BFB4017108F000D7D9
:10343800A0C6FC61FCF0000000000000806148DECE
:10344800F5D71630FFFFBBBC02D7F3C113318D127D
:10345800F6C3C1A80416AC0212ABFD7C3013BC0243
:1034680055081004A7A7A731F51D30C104C130B70E
:103478001DC1A80416AC0212AB0161FEFD7C30BB75
:1034880013BC021004EF0EA80016AC0212AB0161C7
:10349800FEBB13BC0295DFCC1002D7C3C120043099
:1034A8000200F7FD1B1B300200F7FD1B1B1004C3B5
:1034B800C13344ADDE1361F844EFBEDF05F6B80052
:1034C800B802A806C1A806C1A80612A804FD39308A
:1034D8001004C3C1300200F7FD791A100CD7717BB4
:1034E800FA5100718C7109FECBF864FA3664F9322E
:1034F8000001D261E88351CD9BA792DFFB93DFF8EF
:10350800CEFC00E60C006168DD0FFCA83600362012
:10351800FE5304F19BA793DFFBFDBA1BFD5335C790
:10352800C3C6127066D660731367D66361087313D7
:1035380066D6610BF743C7C2C6D7C1C3337C803395
:103548007C8043C2C0D7C1C0FD5935FD4E35D76117
:03355800FCEFFE87
:10355B00FFFFFFFFFFFF0000FFFFFFFFFFFFFFFF6E
:10356B00FFFFF0FCFF0000FC000000000000FFE08C
:10357B000000FFA00000001C0000000000FF0FF087
:10358B000000000000000000000000000000000030
:10359B0000000000FFFFFFFF000000000000000024
:1035AB000000000000000000FFFFFFFF0000000014
:1035BB000000000000E43500000400000020FE0FB6
:1035CB0000E43500006302000064FA0F004F360080
:0935DB000064005B35000000F9FA
:1035E400C3C52008A8101688129EFD11ABB804119B
:1035F400AC02B806C7C4118A06980211AA04B8001E
:10360400A8001688029EFDF1119BC7C4E605A561BA
:10361400D8A0FDFF8EFD980215B800A80612A804D4
:1036240024010061D8B3B80413B806A804334400D5
:103634000013DF02F743DFC8A8101688129EFD1797
:10364400040800168EFD1008C4C2D7C3C52006A8FE
:103654000E1688109EFD11AB12C7C4118A0498047B
:1036640011AA02B80211AC06B800EF1FA80216880E
:10367400049EFD118B75A80016659BA80214A58EE7
:10368400FD980415B80217A1B800B313F74312DF6D
:10369400DBA80E1688109EFD17040800168EFD1078
:1036A40006C4C2D7C3C52004C8020030C035EF1C0D
:1036B400A7A7A7A78EFD70C1C7A80416118C029EE8
:1036C400FC11AB61CA1004C7C4980215B800A80065
:1036D4001688029EFD8EFD4C00DF041744E435DF9E
:0636E400CF1004C4C2D7A0
:04000005000034E6DD
:00000001FF
