:020000003028A6
:02001E00BE1909
:02002A00DB27D2
:0400C0007FFFAA0410
:0A00C4000000000000000000000032
:1000D800F6BF38FCBF3AFC200CBF3CFCF546FC716F
:1000E8007BFA363CFBBB5109BC02717AFA8EA8D167
:1000F8007461F8EDFF01717BFAAF40FBB808AF42BD
:10010800FBB80A717AFA12A808318E3316318E3389
:1001180037318D07B80013B802880075A800318EF2
:100128003316318E3337318D07B800F6B802647054
:10013800F1C3C1A804F008C3C1880870F1C3C16144
:100148008D74C3C5A81A12A818318C16318E0312E3
:1001580017318DC40561D8A3C6318C16318E0312B0
:1001680017318DC40561D8A3C6318C16318E0312A0
:1001780017318DC40561D8A3C6F0FD0F21618B6CC2
:10018800801004618BB80413B806A804318E3316A6
:10019800318E3337318D07B80013B802880074A840
:1001A80000318E3316318E3337318D07B800F6B8EB
:1001B80002717BFAA800F008C3C1880470F1C3C1BA
:1001C800C3C5881070F1318DC40561D8A3C6318CC0
:1001D80016318E031217318DC40561D8A3C6318C30
:1001E80016318E031217318DC40561D8A3C6BF40DE
:1001F800FB13BF42FBEF0F717BFA3640FB30DEADDD
:10020800BB30BEEFBC02717AFA717BFA3664FB3000
:100218000001BBBC02717AFA717BFA3668FBBBBC81
:1002280002717AFA717BFA366CFBBBBC02717AFAFE
:10023800717BFA3670FBBBBC02717AFA717BFA36B5
:1002480074FBBBBC02717AFA717BFA367CFBF6BB95
:10025800305208BC02717AFA717BFA3680FBF6BB21
:1002680050FFBC02717AFA100CD72018ED92037176
:100278007BFAAF4CFBB804AF4EFBB806880475A8F0
:100288000612A804318E3316318E3337318D07B8F4
:100298000413B806880474A804318E3316318E33DB
:1002A80037318D07B804F6B806A804F008C3C1882A
:1002B8000870F1C3C16470F1C3C16570F1318DC4B8
:1002C8000561D8A3C6318C16318E031217318DC43F
:1002D8000561D8A3C6318C16318E031217318DC42F
:1002E8000561D8A304FA0061D8A3C6B80013B80200
:1002F800880075A800318E3316318E3337318D075B
:10030800B80013B802880074A800318E3316318EF5
:100318003337318D07B800F6B802A800F008C3C11A
:10032800880470F1C3C16470F1C3C16570F1318D87
:10033800C40561D8A3C6318C16318E031217318DCE
:10034800C40561D8A3C6318C16318E031217318DBE
:10035800C40561D8A3C6BF4CFB13BF4EFBD555FCE3
:1003680061E8B055FCB058FC717AFAAF1CFCDB1E92
:10037800FC04010061D8A3BF1CFC13BF1EFCA04FE6
:10038800FCA050FCA23EFCA240FCD558FC61E8ED64
:100398007702F1ED3704607CFF7365615B7560314E
:1003A8001A70D0DF3B6473AEF804080016658461E8
:1003B800D9644C10DF26301000C1AEF8040A0014CE
:1003C800A80812A806FD4E14A80812A806041000D2
:1003D80061D8A310025400B80413B8065080550021
:1003E8008802D161E8ED0405880191980161E8ED82
:1003F800F40464D1DF05604C80DD24604C80DD0CA2
:100408006473AEF8040800166561D9845500C5AE5A
:10041800F8040A0014A80812A806FD4E141002AF2A
:100428003AFC440001DC04F6BF3AFC88000C04984E
:1004380000717BFA8800765700AF3CFC27BF3CFC74
:10044800AF3CFC717AFA440000DF031018D7DB3A9E
:10045800FC4904FA9800A23AFCEB3AFCA23AFCFBED
:100468003AFCA23AFCDB3AFC4904FAF770F1C3C142
:10047800C7C24904FAF770F1C3C1C5C24904FA708A
:10048800F1F7318DFD0F2116318E1217318D1004C1
:10049800FD0F211004B80413B806A23AFCA80433CF
:1004A8004408003361F8440010DE2B880070F1C165
:1004B800AF3AFC0404FA14A806FD4E14880270F141
:1004C800023AFCBF3AFCAF3AFC440001100261D882
:1004D800ED3304ED2F0413240800B8068800D1502A
:1004E800805400550061F8ED27049801DB3AFC4977
:1004F80004FA98035C7F81A23AFC980288029198DA
:100508000216AEF80403003731F303ED9E0365616C
:1005180068EDA503BF18FC13BF1AFCF546FCD7709D
:100528008F46FC4C30DE0873601894FBA046FCD75D
:100538008F46FCD1200474F546FC61F8ED4A08DBCF
:100548001AFCAF18FC334400003361F8440010DE95
:10055800373600FA30FFFFBBBC02AF18FC3344004B
:10056800001361F8447C00DF0A3618FC301C00BB1D
:10057800F6BC02AF18FC0438FBB802AF18FC040044
:10058800205500B800ED8E07AF02FAC1AF00FAC1DE
:10059800AF18FCFD52211004DF48644F47FCDF42CE
:1005A8005500EF0D730994FB7009C4FB6140DF32FD
:1005B8008565614CDE24730994FB7009C4FB6140B6
:1005C800DF208565614CDE12730994FB7009C4FB5A
:1005D8006140DF0E8565614CDCCA65614C61F8EDF0
:1005E8004A08DB1AFCAF18FCBF00FA13BF02FA6412
:1005F8009F47FC5C03550070DD0C6573850994FB0F
:100608009018C4FBDFF464312A70D0DD2765738548
:100618000994FB18C4FB6573850994FB18C4FB6532
:1006280073850994FB18C4FB6573850994FB9018BE
:10063800C4FBDFD9DB1AFCAF18FC3344000033617C
:10064800F84400F061D8ED18072400F061D8B3BF72
:1006580018FC13BF1AFC6470F1023CFC040400444B
:10066800010161C8ED4A08DB38FC644804FAA23885
:10067800FCAF1AFCDB38FC604804FAA238FCDB3813
:10068800FCAF18FC4804FAA238FCDB38FC8F18FCD5
:100698004804FA645C03A238FC550070DD126573E7
:1006A800850994FBDB38FC904804FAA238FCDFEE9D
:1006B80064312A70D0DD3F6573850994FBDB38FC13
:1006C8004804FA65A238FC73850994FBDB38FC48BA
:1006D80004FA65A238FC73850994FBDB38FC4804EE
:1006E800FA65A238FC73850994FBDB38FC90480452
:1006F800FAA238FCDFC1AF38FC440001DC04F6BFC5
:1007080038FC640C0470F1023CFCBF3CFCED4A0868
:10071800334400001361F844C06061E8ED7B05369E
:1007280018FC301400BBF6BC028F98FB9F94FB8F1B
:1007380099FB9F95FB8F9AFB9F96FB8F9BFB54041D
:100748009F97FBED7B05A800168C027CFF706573F4
:100758000994FB6158708C027316A802378C0261E9
:100768005B61689C02AF18FCDB1AFC04010061D8CD
:10077800A3BF18FC13BF1AFCA80085040300B80027
:1007880017040300B80265614C61C8ED4A08DB1A1A
:10079800FCAF18FC334400001361F8445C0061C8E6
:1007A800ED4A08A800168B7CFF7065730994FBC797
:1007B8006158C27016A802378BC3C65D616873A8FA
:1007C8000216639BAF18FCDB1AFC04010061D8A376
:1007D800BF18FC33BF1AFC3385618D614C618DDE17
:1007E80061334400001361F8445C00DE55A800162C
:1007F800A78B7CFF7065730994FB61587016A8007D
:1008080037C7C216A80237A7A38BC3C65D61687332
:10081800A80216A7639BAF18FCDB1AFC0401006151
:10082800D8A3BF18FC33BF1AFC3385618D614C61B6
:100838008DDE0F334400001361F8445C0061D8ED8D
:100848004E071004D7C3C1C1F19800A80233440071
:10085800003361F84400F0DC2D2400F061D8B3B80F
:100868000213B804AF32FCC1AF30FCC1A806FD5278
:10087800211004DE22E6C1AEF804020014A804FD2B
:100888001A161002EF11334400001361F8445C009B
:10089800DE054938FB980088001006D7C3C13344E9
:1008A800000020041361F8441700DE7CA80E12A88B
:1008B8000C318E3316318E3337318D07B80013B8AB
:1008C80002880074A800318E3316318E3337318D8B
:1008D80007B800F6B802717BFAA800F008C3C15542
:1008E80000880470F1C3C1C3C5881870F1318DC484
:1008F8000561D8A3C6318C16318E031217318DC409
:100908000561D8A3C6318C16318E031217318DC4F8
:100918000561D8A3C6C3C1A808312D0438FB16C089
:10092800C2BB13BC02717AFA1008D7C3C12008F6FB
:10093800B804B806A808334400001361F844170047
:10094800DE7C717BFA312D0438FB16ABB804AC029F
:10095800B806717AFA12A804318E3316318E3337FD
:10096800318D07B80013B802880074A800318E339F
:1009780016318E3337318D07B800F6B802A800F06B
:1009880008C3C15500880470F1C3C1C3C58810707D
:10099800F1318DC40561D8A3C6318C16318E03128E
:1009A80017318DC40561D8A3C6318C16318E031258
:1009B80017318DC40561D8A3C6B80413B806A806B4
:1009C80012A804100CD7E6D7200E717BFACF770057
:1009D80000CF760000CFA80002CEA000717AA171E6
:1009E8004BA4CFF30010710BA1CD0008CE20F0CF9F
:1009F800500002CF300002CD0105CE21E2CF3100F8
:100A080000CF510000CF410000CF610000CD0202AD
:100A1800CF760001CE2200F404CE24F8CF340002B1
:100A2800CF540002CF640000F406CE2603CF3C006A
:100A380011712AE4712BE0713AE4713BE0714AE4E8
:100A4800714BE0715AE4715BE0FD6A27FD5C22FDA1
:100A5800D800FDF122F54EFCF548FCF549FCF54AB5
:100A6800FCEBF8FFF6F7FD8F23D1DD2BA8002C9FB8
:100A7800DD0A2C07DD132C16DD07EF16F548FCEF11
:100A88001DF548FCE549FCEF15F548FCCF49FC028B
:100A9800EF0C300010EF03300008F7FDED278F480A
:100AA800FCF770F1C3C18F49FC70F1318DC3C18F60
:100AB8004AFC70F116314E121731CDFD0F2110048A
:100AC800FD0F211004B80013B802A800C3C1F6F73F
:100AD800FDA408FD7319FD7412FDAD283628FCF637
:100AE800BBBC023624FCCF51FCFFF54FFCF550FC93
:100AF800BF3EFCBF40FCBF42FCBBBC02CF780080BD
:100B0800717AFA1004EF0B36310271F200000061BD
:100B1800FD00D557FCDD0B717BFAB057FC717AFAF2
:100B2800EF08D558FC61F8ED5A12FD72028F50FC9F
:100B38004CF1DC4EEBF8FF30A001F7FD8F23F6C136
:100B4800302303C1F6C1304502C1F6C130E803C104
:100B5800A80E12F633F1FD78202485C061D8B3338E
:100B6800B1331004FD78201004FDCB2004204E6121
:100B7800D8A31004C3C1301100F7FDA408F550FC38
:100B88001004AF40FC44600961D8ED220CF6BF4068
:100B9800FCEBF8FF301812F7FD8F23A80212A8000B
:100BA800334400001361F8440000DF06F6BF42FC3E
:100BB800EF68EBF8FF30AC11F7FD8F23AF26FCC1CF
:100BC800AF24FCC1A80612A804FD52211004AF42AC
:100BD800FCDF21442001DE36A1442001A242FCDFD3
:100BE8002D300006C130CF6AC1301412F7FDF8224B
:100BF8001004EF1A442001DC11300006C1300E0445
:100C0800C1301412F7FDF8221004F6BF42FCA80206
:100C180012A800BF24FC13BF26FCAF3EFC44413899
:100C2800DC2EEBF8FF301812F7FD8F23A80212A86C
:100C380000334400001361F8440000DF0FF6C130B0
:100C4800A107C1301812F7FDF8221004F6BF3EFCC8
:100C5800300400F7FD33091004C3C1AEF81631851E
:100C68004BF19804D54BFCDD34880472300001FD4B
:100C780071281231FF33C3C1A80612A804FD382118
:100C88003344000010041361F8440000DD058804B3
:100C9800FD4A3488048198044F4BFCDCCCF6B8003C
:100CA800B802C1C15004F7FDA4081004301300F7BE
:100CB800FD33091004C3C1AEF81631851BA800FD29
:100CC800BB35A80212A800085CFE08B800C3C130F2
:100CD8001300F7FDA4081004301400F7FD330910C1
:100CE80004C3C1AEF81631851BA800FDBC35A802A7
:100CF80012A800085CFE08B800C3C1301400F7FD54
:100D0800A4081004404CFC01DF0D361CFCF6BBBCEB
:100D180002F54CFCED5A12DB1EFCAF1CFC33440000
:100D2800001361F844150061D8ED5A12F198045087
:100D380007F7FD33091004C3C1AEF816318566887C
:100D480000311A5C0FFD1E2AA80212A800085CBE1A
:100D580008B800086C2008B800C3C1300700F7FDC8
:100D6800A408300500F7FD3309B80813B80A30FFA6
:100D780003C13000FCC1A80A12A808316E3316312D
:100D88006E333731AD07FD382114A80E16A80C357F
:100D98000561D8A3330733BF28FC13BF2AFCE198A9
:100DA8000C1008EF2231E51F31D5068F51FCFD1ECE
:100DB8002AA80212A800085C9F08B800C3C130071F
:100DC80000F7FDA4081004AEF81631D54730050029
:100DD800F7FD3309C314AF28FCDB2AFC2561D8B31F
:100DE800C613275C80F27313440000F661F84400D0
:100DF80000DD1E8F51FCFD1E2AA80212A800085C07
:100E0800DF08B800C3C1300700F7FDA4081004EFDD
:100E180003E19804300300F7FD33091004C3C1AEA1
:100E2800F816318303EDB40E31931DDB1EFCAF1CA5
:100E3800FC334400001361F8447900DE0BE951FCEF
:100E4800A80070636148DD4E300600F7FD330914D1
:100E5800605C21DD1015085CDE08C3C1300600F7B0
:100E6800FDA4081004300800F7FD330914605C077E
:100E7800DD1015085CF808C3C1300800F7FDA408A8
:100E88001004A8009F51FCAEF80404001631830634
:100E98008F51FCFD1E2AA80212A800085CFC08B8A5
:100EA80000C3C1300300F7FDA4081004300600F7A2
:100EB800FD33091004C3C1AEF81631857A30050038
:100EC800F7FD3309B80613B808A8021613275C8083
:100ED800F27313440000F661F8440000DF598800FB
:100EE800311A5C0F9F51FCAEF804040016318306DA
:100EF8008F51FCFD1E2AA80212A800085CFE08B843
:100F080000086C2008B800C3C1300600F7FDA4082B
:100F1800300800F7FD3309B80413B80688045C06E6
:100F28001004DD13A800085CF908B800C3C1300834
:100F380000F7FDA4081004300800F7FD3309100479
:100F4800C3C1AEF816318303EDDF10300500F7FD9D
:100F58003309B80613B808A80212A800085CE0080C
:100F6800BF2CFC13BF2EFCA80812A806222CFC617B
:100F7800D8B333222EFC3316AEF804060037A7B8D0
:100F88000613A7B808A731F503ED5A12A80212A84C
:100F980000085CFE08B800086C0408B800C3C1303B
:100FA8000800F7FDA408300A00F7FD3309B8041358
:100FB800B806A80431CE609F52FC88045C0F9F538A
:100FC800FC1004EF26C3C6A80827B808FB2EFC139C
:100FD80007BF2EFCA052FCB053FCDF0FA80031CE97
:100FE800609F52FC88005C0F9F53FC8F52FC311AA3
:100FF80070F1040B001231FF33FD3309B80A33B81E
:101008000C3652FC318506F6B80A13B80CF6B80A45
:10101800AEF804060016A80C4E0312DF0B624E024F
:10102800DF06F64E0161F84DDC9B8F52FC4C08DE62
:1010380018300900F7FD3309B80613B80851072F0F
:1010480052FC312974A806EF1CDF0DA80212A80073
:10105800541CFD5C2060EF134052FC09DF12A8020B
:1010680012A8005418FD5C20605C0F9F51FCEF042F
:10107800CF51FC0F8F51FC70318D1231FF33C3C13A
:10108800A80612A8045CF0FD0F211004B80013B8DC
:1010980002A800C3C1300A00F7FDA4081004AEF886
:1010A800040400163183068F51FCFD1E2A30060009
:1010B800F7FD33091004C3C1AEF81631D303ED5A56
:1010C80012A800085CDF08B800C3C1300600F7FDAD
:1010D800A4081004ED5A1288005C064C0661E8ED7D
:1010E8005A128F52FC4C0A61C8ED5612311A70F12F
:1010F800040B001231FF33FD3309B80633B8083644
:1011080052FC318506F6B80613B808A80812F6028C
:101118002CFC33022EFC33B80633B808C1C33005A3
:1011280000F7FD3309C42561D8B3C613275C80F2E4
:1011380073F633440000F661F844000061E8ED5AA4
:1011480012500AFD33091004C3C1EF0615B806177B
:10115800B808A80812A806BF2CFC13BF2EFCA05282
:10116800FCB053FCDF0FA80031CE609F52FC880012
:101178005C0F9F53FC8F52FC311A70F1040B001264
:1011880031FF33FD3309B80A33B80C3652FC3185C8
:1011980006F6B80A13B80CA80C12F6022CFC330297
:1011A8002EFC33B80A33B80CC1C3300500F7FD3341
:1011B80009C42561D8B3C613275C80F273F633449B
:1011C8000000F661F8440000DD828F52FC4C08DE16
:1011D80017300900FD3309B80613B80851072F5214
:1011E800FC312974A806EF1CDF0DA80212A80054D0
:1011F8001CFD5C2060EF134052FC09DF12A80212AC
:10120800A8005418FD5C20605C0F9F51FCEF04CFD0
:1012180051FC0F8F51FC70318D1231FF33C3C1A8BF
:101228000612A8045CF0FD0F211004B80013B802E0
:10123800A800C3C1300A00F7FDA4081004AEF804E2
:1012480004001631830C8F51FCFD1E2AEF04CF5188
:10125800FC0FCEABACF1FDA313D556FCDF098E51C4
:101268005CB261F8ED0F0B61EDED190B3000013642
:1012780030FCBF44FCF6BB5008BC024054FC0120C3
:1012880006DD6C711302514AFDE027510671120206
:10129800980060F0C1E6C1F614AEF804040012F636
:1012A800E1FD9A22E19804F1980508C1300200C1D5
:1012B800AEF804080014AEF804080012F6E1FD9A2E
:1012C800225105980860F0C1300200C1AEF8040C44
:1012D8000014AEF8040C0012F6E1FD9A22880D5CA9
:1012E8000C100CDD07300002F7FDED27E554FC512A
:1012F8009FCF55FC0A9802F198039804980508C1F5
:10130800300400C1AEF804060014AEF8040600125A
:10131800F6E1FD9A2288074C1F1004DF4588042C4B
:1013280040DD102C02DD1E91DD2491DD2A2C21DD0B
:101338000CEF2F3630FC300080BBF6EF213630FC46
:10134800F6BBE6EF193630FCF6BBA1A1EF1036303C
:10135800FCF6BB5004EF073630FCF6BB5008BC0265
:10136800EF07300004F7FDED27717BFAF555FC71A6
:101378007AFAD554FCDD21717BFA5179980060F036
:10138800C1E6C1F614AEF804040012F6E1FD9A2293
:10139800F554FC1004717AFA1006D74C01C1DF78B5
:1013A8004054FC01DD6C711302514AFDE0275106DF
:1013B800711202980060F0C1E6C1F614AEF8040498
:1013C8000012F6E1FD9A22E19804F1980508C1306F
:1013D8000200C1AEF804080014AEF804080012F6C2
:1013E800E1FD9A225105980860F0C1300200C1AEB3
:1013F800F8040C0014AEF8040C0012F6E1FD9A2271
:10140800880D5C0C100CDD07300002F7FDED27E5B8
:1014180054FCCF55FC0AEF2BD554FCDD26717BFA22
:10142800D555FCDF1B5179980060F0C1E6C1F61470
:10143800AEF804040012F6E1FD9A22F554FC1004FB
:10144800717AFA1002D7C3C1C52006A81014A808DB
:101458000561D8A324010061D8B3F0C3C1A80E1256
:10146800A80CF0FD52211004DD3604000161D8A358
:10147800B80213B804A80814A80225B800C1A8081F
:1014880014A80C12A80AFDB614A80216A81227C19F
:10149800A80A0714A80812A806FDB6141004EF0B32
:1014A800C5A80814A80AFDB6141002100CD7C3C1A9
:1014B800C54054FC01200ADD6C711302514AFDE05D
:1014C800275106711202980060F0C1E6C1F614AE09
:1014D800F804040012F6E1FD9A22E19804F1980557
:1014E80008C1300200C1AEF804080014AEF80408C0
:1014F8000012F6E1FD9A225105980860F0C1300209
:1015080000C1AEF8040C0014AEF8040C0012F6E1A9
:10151800FD9A22880D5C0C100CDD07300002F7FDE7
:10152800ED27E554FCCF55FC0AA80E12A80C33444D
:1015380000001361F8440000DF29F6B806B8085126
:10154800089800A80812A806FDF216A80812A8060E
:1015580004000161D8A3B80633B80813880091982D
:1015680000DFE05106980260F0C1E6C1F614AEF85B
:1015780004060012F6E1FD9A2251029806DB32FCBD
:10158800AF30FC3344010010041361F8440100DC5F
:1015980016A80E609803A80C709804880C9805602B
:1015A800F0C1300400EF0FA80C709803880C980461
:1015B80060F0C1300300C1F614AEF804060012E171
:1015C800E0FD9A221004E108C1A816C1F614A80E7D
:1015D80012F6E1FD9A22510B710300980410045190
:1015E80005980260F0C1300200C1AEF8040600148C
:1015F800AEF804060012F6E1FD9A2216AEF80407CA
:10160800003771841004DE078800919800DFD0103D
:1016180010D7C3C1C54054FC012006DD6C7113020C
:10162800514AFDE0275106711202980060F0C1E6A8
:10163800C1F614AEF804040012F6E1FD9A22E1980E
:1016480004F1980508C1300200C1AEF8040800147E
:10165800AEF804080012F6E1FD9A225105980860D8
:10166800F0C1300200C1AEF8040C0014AEF8040C4E
:101678000012F6E1FD9A22880D5C0C100CDD073093
:101688000002F7FDED27E554FC5103CF55FC0A98FD
:1016980002DB32FCAF30FC334401001361F8440133
:1016A80000DC16A80A609803A808709804880898AF
:1016B8000560F0C1300400EF0FA80870980388088F
:1016C800980460F0C1300300C1F614AEF8040600B7
:1016D80012E1E0FD9A221004E108C1F7A812C1A89E
:1016E8000A14F6E1FD9A221010D7C3C14054FC0138
:1016F8002006DD6C711302514AFDE0275106711274
:1017080002980060F0C1E6C1F614AEF804040012B5
:10171800F6E1FD9A22E19804F1980508C13002002B
:10172800C1AEF804080014AEF804080012F6E1FD92
:101738009A225105980860F0C1300200C1AEF80441
:101748000C0014AEF8040C0012F6E1FD9A22880D84
:101758005C0C100CDD07300002F7FDED27E554FCAA
:101768005106CF55FC0A980260F0C1E6C1F614AEE6
:10177800F804060012F6E1FD9A2251819806A80C99
:10178800609807A80A709808F1980908C130040001
:10179800C1F614AEF8040A0012F6E1FD9A22510BC4
:1017A80098081008EF04E6FD8F2751059802F19874
:1017B8000308C1300200C1AEF804060014AEF804F4
:1017C800060012F6E1FD9A22AEF8040700167184AD
:1017D8001004DE078800919800DFCB100AD7C3C138
:1017E800200CA816C1A816C1A810FD78201004B8AE
:1017F8000813B80A4054FC01DD6C711302514AFD0C
:10180800E0275106711202980060F0C1E6C1F61493
:10181800AEF804040012F6E1FD9A22E19804F1986A
:101828000508C1300200C1AEF804080014AEF8047F
:10183800080012F6E1FD9A225105980860F0C130BF
:101848000200C1AEF8040C0014AEF8040C0012F645
:10185800E1FD9A22880D5C0C100CDD07300002F7C0
:10186800FDED27E554FCCF55FC0AF6B800A81A127E
:10187800A818334400001361F844000061F8ED70C3
:10188800195106980260F0C1E6C1F614AEF80406D4
:101898000012F6E1FD9A22A81212A81033440000A3
:1018A800100413DF2C440001DD0C440010DD10444B
:1018B8000080DD14EF1B51819802301A00EF10519F
:1018C800209802303200EF0751529802309001B848
:1018D80006A80A609803A808709804F1980508C13A
:1018E800300400C1F614AEF804060012F6E1FD9AC1
:1018F800221004EF04E6FD8F2751059802F19803A2
:1019080008C1300200C1AEF804060014AEF804069F
:101918000012F6E1FD9A22AEF80407001671841051
:1019280004DE0AA806B1440000B806DFC8A80E16EF
:10193800A80C14A80A12A8080561D8A3330733B85D
:101948000813B80AA800A1B800AEF804180016A831
:1019580000F7618B4E03DF0B4E02DF07634E01DF9A
:1019680002604D61D8ED89181010D77140F00071F0
:10197800783002715AE5715BE1715BED715BE95A90
:1019880006FC8E266C039E2636310271B2CF3202D7
:1019980026CF33022B7183CF340240711A52710A59
:1019A80052B771C371B271A2715BE571F271E28EC7
:1019B800265CFC9E26D7C1C3C5C7AEFCC1C1D5569F
:1019C800FCDD0F4056FC06DD098E509801363002CA
:1019D80071D27178310200000000008E519800AE7B
:1019E800F81631852136300271C34056FC05DF08F0
:1019F800FD3805A057FCEF084056FC0661F871D287
:101A0800F556FCED2A1BD556FCDF3031D5083630AB
:101A18000271E2ED2A1B31C303ED2A1B714030022B
:101A280031B507CF56FC06ED051B3634FC71503036
:101A380002E556FCF6BBBC02ED2A1B4056FC01DF52
:101A48000FCF56FC02880170F1BF34FCF6ED201B65
:101A58004056FC02DF30CF56FC03DB36FCAF34FCCB
:101A6800318C16318E031217318DBF34FC13BF36FB
:101A7800FC8801FB36FC70F1EB34FCF70561D8A358
:101A8800330733ED1C1B4056FC03DF2FCF56FC04F5
:101A9800DB36FCAF34FC318C16318E031217318DD6
:101AA800BF34FC13BF36FC8801FB36FC70F1EB3405
:101AB800FCF70561D8A3330733EF594056FC04DD22
:101AC800064056FC05DF2D4056FC04DF09DB36FCDA
:101AD800AF34FCFD1C058801FD2705DB36FCAF345F
:101AE800FC04010061D8A3BF34FC13BF36FCCF56F9
:101AF800FC05EF2E4056FC06DF2831A520DB36FC1E
:101B0800AF34FCFD4D089E50DB36FCAF34FC0401BD
:101B18000061D8A3BF34FC13BF36FCEF0536300292
:0D1B280071D21002C0C6C4C2BEFCC061FC78
:041B3500FFFFFFFFB0
:101B3900C3C52004C8020030BE35EF1CA7A7A7A75C
:101B49008EFD08C1C7A80416118C029EFC11AB6159
:101B5900CA1004C7C4980215B800A8001688029EC6
:101B6900FD8EFD4C00DF041744E635DFCF1004C4B9
:021B7900C2D7D1
:10200000FFFF0000FFFFFFFFFFFFFFFFFFFFF0FCF0
:10201000FF0000FC000000000000FFE00000FFA047
:102020000000001C0000000000FF0FF00000000096
:1020300000000000000000000000000000000000A0
:10204000FFFFFFFF00000000000000000000000094
:0C20500000000000FFFFFFFF0000000088
:10205C00C58494DD0D33311E3361FB0861FB08949C
:10206C00DFF3146168616B616A15C4D7C5C72004BE
:10207C00C3C1AEF81404100016AD20C1AD22C1F4DA
:10208C0022F7F4208D20819D218BB77089A5D60372
:10209C001261D8A422B421DFF0C7AEF80620166274
:1020AC009C0A6372E822F42215C416A5A4203124DC
:1020BC0020D2C0BD22C0BD201004C0C2C6C4D7C52A
:1020CC003335C7FD9021C1C7C1AEF816C0617D6123
:1020DC00AD05C6618D61DCDE0A61FB618DFDA02161
:1020EC00EE040061FB618D317503FDB721FDCF213D
:1020FC00C0317503FDA02165616C616A616B35337C
:10210C00C6C4D7C53335C7AEF816618A6E08618A66
:10211C00618B6E09618B618C6E0A618C618D6E0BAB
:10212C0075616C616A616B3533C6C4D7C53335C70D
:10213C00FBF8FF625E0872635E0973645E0A706589
:10214C005E0B33C6C4D7C53335C7AEF816622E083E
:10215C0070633E096160643E0A6160653E0B6160BC
:10216C003533C6C4D7C53530000008612C08613D35
:10217C003530000008613A08613B126168616D619D
:10218C006C15C4D7AEF8168C0C088C0DC18C0E7067
:10219C008C0FC6D7C130000008612A08613B123091
:1021AC00000008613C08613D14C0D7C31230000028
:1021BC0008612E08613F16706178613A7061786130
:1021CC003BC2D7C1C7C5C3AEF8168C046E056E06EC
:1021DC006E07DF0B320000340000C6C6EE6E0052F4
:1021EC00203000001461AC610161AC61AD0161DCB7
:1021FC0061AD0161AD0261DC61AD0261AD0361DC19
:10220C0061AD03618C61DC618C618D61DC618D0879
:10221C0061DC0861DC4E07DF04084E0608DC29DFB0
:10222C0010618D4E05618DDF06618C4E04618CDC76
:10223C0017618C2E04618C618D3E05618D083E0604
:10224C00083E0761AC8161AC92DF9AC2C4C6C6D7A6
:10225C007120F000E6FD8F27F6BF2601E6BF2401B2
:10226C00710AE5710BE15007BF08015020BF100146
:10227C003007F0BF1801C9100002AF28015CFE083E
:10228C005CFE08BF2801E6BF2A01BF2201D7C5C1E9
:10229C00C3C67113026072A808440000DD3BB8008D
:1022AC00880A73634C018B61F87CFF9D1000000061
:1022BC0000AF0001603163F9A802440000DF048D17
:1022CC0010EF0A634C018D1061F87CFF99A800B1E6
:1022DC00440000A5A7B800DFCAD261F87112021041
:1022EC0004CEABACD7711200711204D7C3C1200459
:1022FC00F1980071130451140091DFFC711300511B
:10230C00140091DFFC5182FD95264C01DF1FA806BD
:10231C0060FD95264C01DF15A804FD95264C01DFC8
:10232C000C8804FD95264C01DF03E19800A80E12E1
:10233C00A80C5418FD5C2060FD95269803A80E602F
:10234C00FD95269802A80CFD95269801880CFD9504
:10235C00267113047051140091DFFC71120051149A
:10236C000091DFFC71120451140091DFFC880173A1
:10237C008802728803758800615D615A615B100880
:10238C006158D7C3C1C52006F19800F6B802B8044D
:10239C0071130451140091DFFC711300511400915E
:1023AC00DFFCF35080605C82DD05711204EF037179
:1023BC00130460311A7112007051140091DFFC513A
:1023CC00140091DFFC71130051140091DFFCD0DF7D
:1023DC00D4711204711A2451140091DFFC311204CF
:1023EC0001E3711B2471120051140091DFFC511494
:1023FC000091DFFC71130051140091DFFCD361F8E4
:10240C00ED4925A80A6073F198015080636158DD8D
:10241C0005711204EF0371130460311A711200700C
:10242C0051140091DFFC51140091DFFC7113005129
:10243C00140091DFFCD0DFD4711204711A245114F2
:10244C000091DFFC31120403E19801711B2471121D
:10245C000051140091DFFC51140091DFFC7113004A
:10246C0051140091DFFCAEF816A7318303ED49251A
:10247C00A80873F698015080636158DD0571120449
:10248C00EF0371130460311A711200705114009132
:10249C00DFFC51140091DFFC71130051140091DF2B
:1024AC00FCD0DFD4711204711A2451140091DFFC9A
:1024BC0031120403E19801711B24711200511400B4
:1024CC0091DFFC51140091DFFC7113005114009149
:1024DC00DFFC318568880873F1980150806361587E
:1024EC00DD05711204EF0371130460311A711200CF
:1024FC007051140091DFFC51140091DFFC7113003A
:10250C0051140091DFFCD0DFD4711204711A2451E4
:10251C00140091DFFC31120403E19801711B24714A
:10252C00120051140091DFFC51140091DFFC711367
:10253C000051140091DFFC318503E1980071130404
:10254C0051140091DFFC71120051140091DFFC71E9
:10255C00120451140091DFFCAEF816318303ED68C0
:10256C002671130451140091DFFC711300511400F7
:10257C0091DFFCF198015080605C83DD05711204E1
:10258C00EF0371130460311A711200705114009131
:10259C00DFFC51140091DFFC71130051140091DF2A
:1025AC00FCD0DFD4711204711A2451140091DFFC99
:1025BC0031120403E19801711B24711200511400B3
:1025CC0091DFFC51140091DFFC7113005114009148
:1025DC00DFFCA7318303ED6826F1DBF8FF9801A33C
:1025EC00FDF3264C019800DF12880170F1318DDB70
:1025FC00F8FFB804A3F6FDF326980088004C01DF21
:10260C001E880170F112F6C3C1A80812F6FD0F2145
:10261C00100413DBF8FFB804A3F1FDF3269800882F
:10262C00004C01DF1E880170F1F7318DC3C1A80881
:10263C0012F6FD0F211004DBF8FFB802A3E1FDF345
:10264C0026980088004C01DF138801F770F1C3C194
:10265C00A80812A806FD0F211004B802711304512A
:10266C00140091DFFC71120051140091DFFC711207
:10267C000451140091DFFCA80412A80216A8063716
:10268C00BB13BC028800100CD772F35080626158E7
:10269C00DD05711204EF0371130460311A7112001D
:1026AC007051140091DFFC51140091DFFC71130088
:1026BC0051140091DFFCD0DFD4711204711A245133
:1026CC00140091DFFC31120401E3711B2471120020
:1026DC0051140091DFFC51140091DFFC7113005177
:1026EC00140091DFFC63D7C3C6711204711A2475F0
:1026FC005380F0F25401711200711A20311200084B
:10270C0080604C40DCF65400711B2051140091DFAA
:10271C00FC3114040462616B7263311A711300731F
:10272C0051140091DFFCD3DFCD65D1711B24DF0583
:10273C00711304EF0371120451140091DFFC711238
:10274C00003112000880604C40DCF654005114003B
:10275C0091DFFC64D1711300DD02629B64D7717050
:10276C00F000CB900000713AE6713BE2713AEE71E9
:10277C003AEACB90FF0EAE906C80BE90713BE67146
:10278C003BE2D7360600377100F000BFB6011736B2
:10279C00000037BF900117360100C9187D0037BF04
:1027AC00B20117440000DD1EB1FB8001DB80013754
:1027BC004317DCEFEB8001334513DCE7FB8001357D
:1027CC004715DCDFEFE6E6BFB4017108F000D7A0D7
:1027DC0058FC61FCF0000000000000806148DEF550
:1027EC00D7C3C12004300200F7FD3309300200F7D3
:1027FC00FD33091004C3C13344ADDE1361F844EF5B
:10280C00BEDF05F6B800B802A806C1A806C1A80626
:10281C0012A804FD0F211004C3C1300200F7FDA45F
:10282C0008100CD7717BFA5100718C7109FECBF832
:10283C0000FA3600F9320001D261E88351CD9BA732
:10284C0092DFFB93DFF8CEFC00FDCE096168DD0F53
:10285C00FC391B003620FE5304F19BA793DFFBFDD4
:10286C00D009FDA828D2DD040192DFFC440000D77A
:10287C00C7C3C6127066D660731367D663610873DC
:10288C001366D6610BF743C7C2C6D7C1C3337C806E
:10289C00337C8043C2C0D7C1C0FDAB28EDA328EF69
:1028AC00FE361CFCF6BBBC02F54CFCD549FCDF101B
:1028BC003620FC30D494BBF6BC02CF4BFC0AEF1D87
:1028CC004049FC013620FCDF07302458BBE6EF07FB
:1028DC0030B4B7BB300200BC02CF4BFC07E1FD7833
:1028EC003560F0CFF4FBE5CFF5FB03C134020032C9
:1028FC00F4FBE6FD8D3460F0CFF4FB65E5F5FBC130
:10290C0034020032F4FBE6FD8D34E6FD8F2760F0D7
:10291C00CFF4FBABC1E61432F4FB5004E1FD8D3473
:10292C00E108CFF4FB03F5F5FBCFF6FB64F5F7FB01
:10293C00C134040032F4FB5004E1FD8D34F0340159
:10294C000032F4FB5104FDF6348FF4FB9F4DFCE197
:10295C0008CFF4FB03F5F5FBCFF6FB61CFF7FBAA31
:10296C00C134040032F4FB5004E1FD8D34F0340A20
:10297C00003204FC5104FDF634CFF4FB03F5F5FBF7
:10298C00CFF6FB64CFF7FB1071320171430136F4C3
:10299C00FB5304100A50808B6158DD05712200EF47
:1029AC000371230060311A71020070D0710300DFD3
:1029BC00E693713201A7DFDD712300CEABACF034AE
:1029CC000A00320EFC5104FDF634CFF4FB65F5F52C
:1029DC00FB71330171030236F4FB530250808B619F
:1029EC0058DD05712200EF0371230060311A71026A
:1029FC000070D0710300DFE693713201A7DFDD7147
:102A0C002300710202714201714201CEABACF1EDB7
:102A1C007835C12028F6B80AB80C51FF9802F6C1D7
:102A2C0030F401C1301100F7FD330904FA0061D80C
:102A3C00A3FDCB20609805E1FDA313E1FD7835E5FE
:102A4C00F4FBCFF5FB37F5F6FBCFF7FB05CFF8FB27
:102A5C000571330171030236F4FB530510045080E9
:102A6C008B6158DD05712200EF0371230060311A70
:102A7C0071020070D0710300DFE693713201A7DFA1
:102A8C00DD712300710202714201714201CEABACC7
:102A9C00F5F4FBCFF5FBCFCFF6FB087133017103D7
:102AAC000236F4FB530350808B6158DD0571220014
:102ABC00EF0371230060311A71020070D0710300B2
:102ACC00DFE693713201A7DFDD7123007102027121
:102ADC004201714201CEABACE6FD8F27510AEF07E4
:102AEC00E6FD8F27880091980031140C03ED812BA3
:102AFC008800D1DFEB300081B80C300200F7FD33D9
:102B0C0009B80E13B810A80E3344ADDE1361F844A7
:102B1C00EFBEDF05F6B80EB810A80CC1F6C1A814AC
:102B2C0012A812FD0F211004C3C1300200F7FDA43E
:102B3C00081004F1FDA313300A00FD8F27F1FD7876
:102B4C0035301000F7FD330904010061D8A3C3C16F
:102B5C00301000F7FDA408301200F7FD3309B80857
:102B6C0013B80A8807D110046361E8EDE9336CC02F
:102B7C007313EDEB33CFF4FBE5CFF5FB03713301AE
:102B8C0071030236F4FB530250808B6158DD0571E2
:102B9C002200EF0371230060311A71020070D071B2
:102BAC000300DFE693713201A7DFDD7123007102B0
:102BBC0002714201714201CEABACCFF4FB03F5F5CF
:102BCC00FB71330171030236F4FB530250808B61AD
:102BDC0058DD05712200EF0371230060311A710278
:102BEC000070D0710300DFE693713201A7DFDD7155
:102BFC002300710202714201714201CEABACCFF4E1
:102C0C00FBE3CFF5FBEE71330171030236F4FB539A
:102C1C000250808B6158DD05712200EF0371230097
:102C2C0060311A71020070D0710300DFE6937132CB
:102C3C0001A7DFDD712300710202714201714201B3
:102C4C00CEABACCFF4FB06CFF5FB27CFF6FB27CFF3
:102C5C00F7FB2771330171030236F4FB53045080E8
:102C6C008B6158DD05712200EF0371230060311A6E
:102C7C0071020070D0710300DFE693713201A7DF9F
:102C8C00DD712300710202714201714201CEABACC5
:102C9C0088017C802C86DE03F6EF6088017C802C1A
:102CAC00A7DE03E6EF55880176317B778FF8FB7250
:102CBC00F317FD9728DE05300400EF3F8FF9FB7208
:102CCC0017FD9728DE05300500EF308FFAFB7217E1
:102CDC00FD9728DE05300600EF218FFBFB7217FDF8
:102CEC009728DE05300700EF128FFCFB7217FD975B
:102CFC0028DE05300800EF03300900B808CFF4FBDC
:102D0C0030A8081236F4FB490EFC9FF5FB71330119
:102D1C00710302530250808B6158DD05712200EF64
:102D2C000371230060311A71020070D0710300DF4F
:102D3C00E693713201A7DFDD71230071020271424B
:102D4C0001714201CEABACCFF4FB50CFF5FB7771E8
:102D5C00330171030236F4FB530250808B6158DD52
:102D6C0005712200EF0371230060311A71020070AB
:102D7C00D0710300DFE693713201A7DFDD71230010
:102D8C00710202714201714201CEABACCFF4FB6017
:102D9C00CFF5FB2271330171030236F4FB53025061
:102DAC00808B6158DD05712200EF037123006031C7
:102DBC001A71020070D0710300DFE693713201A723
:102DCC00DFDD712300710202714201714201CEAB51
:102DDC00ACCFF4FB61CFF5FB02CFF6FB58E5F7FB6C
:102DEC00CFF8FBC071330171030236F4FB5305506D
:102DFC00808B6158DD05712200EF03712300603177
:102E0C001A71020070D0710300DFE693713201A7D2
:102E1C00DFDD712300710202714201714201CEAB00
:102E2C00AC300F00FD8F2730AC0DEF0AE6FD8F277D
:102E3C00CEABACA808B1B80831120C0DA8084400F0
:102E4C0000DFE9300004ED042BCFF4FB04713301F7
:102E5C0051807103029800AEF81631A5057122005D
:102E6C00EF037123007102007103008800311AD145
:102E7C009800DFE37132017123007102027142018B
:102E8C00714201CEABAC301E00FD8F275164EF07B1
:102E9C00E6FD8F27880091980031120C0B8800D129
:102EAC00DFEE300040ED042BCFF4FB4071330151C9
:102EBC00807103029800AEF81631E505712200EF1F
:102ECC00037123007102007103008800311AD1983C
:102EDC0000DFE3713201712300CEABAC300A00FD90
:102EEC008F275164EF07E6FD8F27880091980031FA
:102EFC00120C0ECEABAC8800D1DFEB300001ED0430
:102F0C002BF034020032F4FBE1FDF6348FF4FB3687
:102F1C00F5FB31199FF4FB8B36F4FB317A6D9B88F2
:102F2C00012FF4FB707C802C88DC045007EF0960C7
:102F3C007C802C7861D850F8605C0FCFF4FB419FFB
:102F4C00F5FB713301710302530250808B6158DD24
:102F5C0005712200EF0371230060311A71020070B9
:102F6C00D0710300DFE693713201A7DFDD7123001E
:102F7C00710202714201714201CEABACCFF4FB8203
:102F8C008F4DFC9FF5FB71330171030236F4FB533B
:102F9C000250808B6158DD05712200EF0371230014
:102FAC0060311A71020070D0710300DFE693713248
:102FBC0001A7DFDD71230071020271420171420130
:102FCC00CEABACCFF4FB107133015180710302987E
:102FDC0000AEF81631C505712200EF0371230071A4
:102FEC0002007103008800311AD19800DFE37132BE
:102FFC0001712300710202714201714201CEABAC2E
:10300C00D549FCDF1EF6C15190C1F7882D70F1FD3A
:10301C00782004001061D8A31004B81213B814A8B7
:10302C0012EF23E6C1300010C1F7882D70F1FD7846
:10303C002004001061D8A31004B81213B814A812FD
:10304C0004408361D8A3B81C13B81E30D020B8102C
:10305C00300400C1AEF804260014A81612A814FD02
:10306C001A16A81612A81404040061D8A31002B8EA
:10307C001213B814D549FCDD24300400C1AEF80499
:10308C00220014A82012A81EFD1A16A82012A81E91
:10309C0004040061D8A31002B81C13B81EAEF804C7
:1030AC002400B80E04FCFFB80834F4FB500416A836
:1030BC000E378BA7980037B80EA808378BA7980146
:1030CC0037B8081735D549FCB81635A5FBF8FFDF1E
:1030DC007731F503F7EF02523031E5045600EF0279
:1030EC00560362616E16A816379B35B81635FBF879
:1030FC00FFA531D503F7EF02523031C5045600EF6E
:10310C0002560362616E16A816379B35B81635FB4E
:10311C00F8FFA531B503F7EF02523031A504560084
:10312C00EF02560362616E16A816379B35B816353A
:10313C00FBF8FFA5319503F7EF02523031850456A9
:10314C0000EF025603ED143231F503F7EF0AA73105
:10315C00F5045240EF025230FBF8FF31E504560003
:10316C00EF0AA731E5045604EF02560362616E16AE
:10317C00A816379B35B81635FBF8FFA531D503F7E4
:10318C00EF0AA731D5045240EF025230FBF8FF3161
:10319C00C5045600EF0AA731C5045604EF025603C6
:1031AC0062616E16A816379B35B81635FBF8FFA56D
:1031BC0031B503F7EF0AA731B5045240EF02523094
:1031CC00FBF8FF31A5045600EF0AA731A5045604FD
:1031DC00EF02560362616E16A816379B35B816358A
:1031EC00FBF8FFA5319503F7EF0AA7319504524080
:1031FC00EF025230FBF8FF3185045600EF0AA7317D
:10320C0085045604EF02560362616E16A816379BAE
:10321C009061E8EDBA3071320171030236F4FB5360
:10322C001050808B6158DD05712200EF0371230073
:10323C0060311A71020070D0710300DFE6937132B5
:10324C0001A7DFDD7123007102027142017142019D
:10325C00CEABACA810B1440000B81061E8ED5C3006
:10326C00CFF4FB127133017103025080605C12DDEC
:10327C0005712200EF0371230060311A7102007096
:10328C00D0710300DFE6713201712300710202710B
:10329C004201714201CEABAC303200FD8F27AEF84B
:1032AC0004040014308001F7FD8F234C01DF2CA89F
:1032BC000612A8046C04C3C1308001F7FDF8224C3F
:1032CC00011004DF16A80612A804618A6C04618A36
:1032DC00C3C1308001F7FDF8221004306C07FD8F5C
:1032EC0027F958FC31120C1D61ED00CEABACC38F2D
:1032FC0058FCC6570070F1277C8044F080DCE53028
:10330C000010ED042BA80612A8046C04C3C1308075
:10331C0001F7FDF822AEF8041C0014308401F7FD0F
:10332C008F234C011004DF11A81AF1B818F6B81A43
:10333C00881881DD0488189802CFF4FB5171330191
:10334C007103025080605C51DD05712200EF037146
:10335C00230060311A71020070D0710300DFE67136
:10336C003201E671230014AEF8040300CEABAC12AC
:10337C00F6E1FDF634306400FD8F27CFF4FB0271CB
:10338C00330151807103029800AEF8163195057126
:10339C002200EF03712300710200710300880031D9
:1033AC001AD19800DFE371320171230071020271AE
:1033BC004201714201CEABAC510AEF07E6FD8F27FB
:1033CC00880091980031140C0B8800D1DFEE30008E
:1033DC0020ED042B306400FD8F27ED3F2B5CBFB834
:1033EC0006A80C440000F661F8440000A806DD04B1
:1033FC006C30EF025CEFB8068802F770F1C3C1A81D
:10340C000A12A808F0FD0F211004B804880273A852
:10341C000470636148DE1370F7318DC3C1A80A12C2
:10342C00A808F1FD0F211004B804A80612A804C3C3
:10343C00C1301200F7FDA408102EE54CFCD74F4B01
:10344C00FC200472DE38D549FCDF05300900EF039F
:10345C00301100B800F6B802A80216A800C7F3C1D4
:10346C0013F7C3C1C7C2A808FD782004010061D8B6
:10347C00A31004C3C1300010F7FDE61710081004A8
:10348C00D7C3D1C1DF05713301EF03713201FBF8F2
:10349C00FF31850371030231950371430131A5039B
:1034AC0071430115440000DD2A131650808B6158BE
:1034BC00DD05712200EF0371230060311A710200E7
:1034CC0070D0710300DFE615B1440000713201A722
:1034DC0014DFD87123008808D1DF09710202714210
:1034EC00017142011004CEABACD7C3C5C1C160732E
:1034FC00AEF80403001631A502EF11318508712ACC
:10350C0020710302EF09319506712A2071430115D0
:10351C00440000DD42A80614A804B800F0528060F4
:10352C0031197016AEF871020004030037F131A5A1
:10353C000571240CEF0371240061DC7760616F70FE
:10354C0062311A72D2710300DFD56099A800B144C0
:10355C000000A5B800DFC5D3712B20DF0971020272
:10356C007142017142011008CEABACD74C01DF297E
:10357C0071320271330071020271420171030071E8
:10358C002200712B20E6FD8F27713302300300FDE2
:10359C008F27713202E6ED8F2771230071030071C2
:1035AC003200710302714301713301713302D7D7B9
:0135BC00D737
:1035BE00843600000400000020FE0F008436000058
:1035CE005502000004FA0F00E6350000040000006A
:0835DE00351B000000FA0F008C
:1035E600C3C5200CA8141688169EFD11ABB8081189
:1035F600AC02B80AC7C4118A06980611AA04B80410
:10360600118A0A980211AA08B800EF4FA804168872
:10361600069EFD118B73A8001688029EFD63119B02
:10362600A8041488069EFDE605A561D8A0FDFF8EB8
:10363600FD980615B804C7C488029EFDE605A56177
:10364600D8A0FDFF8EFD980215B800A80A12A8089A
:1036560024010061D8B3B80813B80AA80A12A8084A
:103666003344000013DF02F743DFA1A814168816BF
:103676009EFD17040C00168EFD100CC4C2D7C3C5E0
:103686002008A8101688129EFD11ABB80411AC02D2
:10369600B806C7C4118A06980211AA04B800A80081
:1036A6001688029EFDF1119BC7C4E605A561D8A048
:1036B600FDFF8EFD980215B800A80612A804240185
:1036C6000061D8B3B80413B806A804334400001345
:1036D600DF02F743DFC8A8101688129EFD170408FC
:0936E60000168EFD1008C4C2D7C5
:04000005000028309F
:00000001FF
