:020000040000FA
:02000000DD0021
:02001E002E288A
:02002A00FC2AAE
:0E00C0007FFFAA040000000000000000000006
:1000D800C1C0FD042B717BFA5100718C7109FECBF4
:1000E800F842FC3642FB320001D261E88351CD9BD5
:1000F800A792DFFB93DFF8CEFC00FD511661686123
:10010800F8ED39013604F9323D02D261E883F19BFA
:10011800A792DFFB93DFF8410036062B320400D2AA
:1001280061E8833400F9118B99A7A592DFF893DF72
:10013800F5FD5316FD012BD2C3DD040192DFFCF758
:1001480043C2D7C7C3C6127066D660731367D66337
:100158006108731366D6610BF743C7C2C6D7C58457
:1001680033353392DF0D126168616D616C1335337D
:1001780035C4D735311E3561FB0861FB08EEE3FF56
:10018800C5C714F6C1C1FBF8FF13522061AD0F615A
:10019800FB61AD0F61AD0E61FB61AD0E61AD0D612F
:1001A800FB61AD0D61AD0C61FB61AD0CDE2061AC96
:1001B800610C61AC61AD01611D61AD0161AD0261B0
:1001C8001861AD0261AD031E0361AD03718835612D
:1001D800EE3561EE61DC9261FBDFB1C2C4EED001A5
:1001E800C53335C7FD8802FDC702EEC301C53335E7
:1001F800C7FD8802C1C7C1AEF816C0617D61AD05F3
:10020800C6618D61DCDE0A61FB618DFD9802EE043A
:100218000061FB618D317503FDAF02FDC702C0317E
:100228007503FD9802EE8801C53335C7AEF816612F
:100238008A6E08618A618B6E09618B618C6E0A61B6
:100248008C618D6E0B75EE6701C53335C7FBF8FF02
:10025800625E0872635E0973645E0A70655E0B33E2
:10026800C6C4D7C53335C7AEF816622E0870633ECC
:10027800096160643E0A6160653E0B6160EE3701AA
:10028800AEF8168C0C088C0DC18C0E708C0FC6D76E
:10029800C130000008612A08613B12300000086183
:1002A8003C08613D14C0D7C31230000008612E0815
:1002B800613F16706178613A706178613BC2D7C15D
:1002C800C7C5C3AEF8168C046E056E066E07DF0B45
:1002D800320000340000C6C6EE6E00522030000026
:1002E8001461AC610161AC61AD0161DC61AD0161BA
:1002F800AD0261DC61AD0261AD0361DC61AD03613A
:100308008C61DC618C618D61DC618D0861DC086168
:10031800DC4E07DF04084E0608DC29DF10618D4E2D
:1003280005618DDF06618C4E04618CDC17618C2EB3
:1003380004618C618D3E05618D083E06083E0761AB
:10034800AC8161AC92DF9AC2C4C6C6D7C1C3C5C767
:100358008EFD72880A9EFDA80816118B70118C01FB
:1003680014C0B806C0B806629EFD500CF11215FB09
:10037800F8FF0714FD8603BEF8C2C0C6C4D7C1C3C0
:1003880061DD1725DE1737033735033561CDB7B57E
:100398008B99B3F1616A616BDFF4EE100061CDC532
:1003A800C78B99A7A5B3136168DFF6C6C4C2C0D7C7
:1003B80065616C616A616BA804B808A806B80AA8E8
:1003C80002B806A800B8043533C6C6C6C4D7F6C3F3
:1003D800BFD0F9BFD2F9BFD4F9F52AFB717BFA3641
:1003E80068F9BB5104BC02717AFA717BFA366CF970
:1003F800F6BB5104BC02717AFA8EA8D1DD12717B6A
:10040800FA70F1318D12F6BF70F913BF72F9EF0F60
:10041800717BFA3670F930DEADBB30BEEFBC0271CD
:100428007AFA717BFA3694F9300001BBBC02717A12
:10043800FA717BFA3698F9BBBC02717AFA717BFAC9
:10044800369CF9BBBC02717AFA717BFA36A0F9BB0B
:10045800BC02717AFA717BFA36A4F9BBBC02717AD4
:10046800FA717BFA36ACF9F6BB305208BC02717AE5
:10047800FAC2D7C3C52018ED9B05717BFAFB7CF93E
:10048800DB7EF917B80413B80688047517318E3364
:1004980016318E3337318D0716B80413B806880421
:1004A8007417318E3316318E3337318D0716B804F1
:1004B800F6B80617F008C3C1880870F1C3C16470A4
:1004C800F1C3C16570F1318DC40561D8A3C6318C03
:1004D80016318E031217318DC40561D8A3C6318C2D
:1004E80016318E031217318DC40561D8A304FA00A2
:1004F80061D8A3C6B80013B802880075A800318E69
:100508003316318E3337318D07B80013B80288009F
:1005180074A800318E3316318E3337318D07B80009
:10052800F6B802A800F008C3C1880470F1C3C1641A
:1005380070F1C3C16570F1318DC40561D8A3C631AE
:100548008C16318E031217318DC40561D8A3C631BC
:100558008C16318E031217318DC40561D8A3C6BF1E
:100568007CF913BF7EF9D53DFB61E8B03DFBB04097
:10057800FB717AFAAF0AFBDB0CFB04010061D8A31C
:10058800BF0AFB13BF0CFBA037FBA038FBA20EFB76
:10059800A210FBD540FB61E8ED8204F1ED3C06605A
:1005A8007CFF7365615B7560311A70D0DF396473E5
:1005B800AEF804080016658461D9644C10DF243055
:1005C8001000C1AEF8040A0014A80812A806FDFD20
:1005D8001FA80612A80404100061D8A3B80413B811
:1005E800065400508055008802D161E8ED30078834
:1005F8000191980161E8ED200764D1DF05604C8026
:10060800DD22604C80DD0C6473AEF80408001665CA
:1006180061D9845500C5AEF8040A0014A80812A8C8
:1006280006FDFD1FAFD2F9440001DC04F6BFD2F984
:1006380088000C049800717BFA765700AFD4F9272C
:10064800BFD4F9AFD4F9717AFA440000DF05101865
:10065800C4C2D7DBD2F949D6F99800A2D2F9EBD2B5
:10066800F9A2D2F9FBD2F9A2D2F9DBD2F949D6F92B
:10067800F770F1C3C1C7C249D6F9F770F1C3C1C554
:10068800C249D6F970F1F7318DFD300216318E125C
:1006980017318DFD300216B80413B806173344011C
:1006A80000A2D2F93361F8440000DC052400F0EF21
:1006B8000F334400003361F84400F8DC192400F8D3
:1006C80061D8B3B80413B806A804334408003361EA
:1006D800F8440000DE2C880070F1C1AFD2F904D6CE
:1006E800F914A80812A806FDFD1F880070F102D2AF
:1006F800F9BFD2F9AFD2F944000161D8ED3806ED5F
:10070800340613240800B8068800D15080540055D8
:100718000061F8ED2C069801DBD2F949D6F9980367
:100728005C7F81A2D2F99802880291980216AEF8ED
:100738000403003731F303EDA705656168EDAE05E5
:10074800BF04F913BF06F9F52AFBD7C3708F2AFB3C
:100758004C30DE0873601808F9A02AFBC2D7C3C55D
:1007680020088F2AFBD19800F52AFB61F8ED8A0A48
:10077800DB06F9AF04F9334400003361F84400188C
:10078800DE3C3600F930FFFFBBBC02AF04F933444E
:1007980000001361F8447C00DF0A3604F9301C00BD
:1007A800BBF6BC023008F9B806AF04F90468F9B81A
:1007B80004AF04F90400305500B802EDDB09AF02BC
:1007C800F9C1AF00F9C1AF04F9FD6B02DF6788001A
:1007D8004F2BFBDF603008F9B8043038F95500B802
:1007E80002EF1DA804168C0273A802168C0261433E
:1007F800DF431785040300B802A804040300B80403
:1008080088006145DE28A804168B73A80216634D7C
:10081800DF238588006145DE15A80416A78B73A819
:100828000216A7634DDF0E8588006145DCB561457A
:1008380061F8ED8A0ADB06F9AF04F9BF00F913BFC6
:1008480002F988009F2BFB5C033638F93408F970ED
:10085800DD0789909BA5A7DFF98800312A70D0DDD4
:1008680019899B8A019C018A029C028A039C03A520
:10087800A7A5A790A5A7A5A7DFE7DB06F9AF04F909
:10088800334400003361F84400F861D8ED46098824
:100898000070F102D4F904040044010161C8ED8A32
:1008A8000ADBD0F9880048D6F9A2D0F9AF06F9DBFF
:1008B800D0F96048D6F9A2D0F9DBD0F9AF04F948ED
:1008C800D6F9A2D0F9DBD0F98F04F948D6F9A2D02D
:1008D800F988005C033608F970DD0EDBD0F98B4827
:1008E800D6F990A2D0F9A7DFF28800312A70D0DDBE
:1008F80032DBD0F98B48D6F9A2D0F9DBD0F98C01DC
:1009080048D6F9A2D0F9DBD0F98C0248D6F9A2D0A2
:10091800F98C03DBD0F9A7A748D6F990A7A2D0F99C
:10092800A7DFCEAFD0F9440001DC04F6BFD0F988C8
:10093800000C0470F102D4F9BFD4F9ED8A0A3344EB
:1009480000001361F844C06061E8EDAC073604F9B3
:10095800301400BBF6BC02510498008F0CF99F08B4
:10096800F98F0DF99F09F98F0EF99F0AF98F0FF981
:100978009F0BF9EDAC07AF04F9334400001361F89D
:1009880044680061C8ED8A0AA802168C027CFF73CD
:10099800A806168C02615B7016A802378C027316C3
:1009A800A804378C02615B61689C02AF04F9DB061E
:1009B800F904010061D8A3BF04F913BF06F9A8021E
:1009C80085040300B80217040300B804A80604034A
:1009D80000B8068800614561C8ED8A0ADB06F9AFF0
:1009E80004F9334400001361F844680061C8ED8AD3
:1009F8000AA802168B7CFF73A80616635D7016A8FA
:100A08000237C7C216A804378BC3C65D616873A8CE
:100A18000416639BAF04F9DB06F904010061D8A34F
:100A2800BF04F913BF06F98588006145DE54AF0499
:100A3800F9334400001361F8446800DE45A8021643
:100A4800A78B7CFF73A80616A7635D7016A80237EC
:100A5800C7C216A80437A7A38BC3C65D616873A86D
:100A68000416A7639BAF04F9DB06F904010061D8FB
:100A7800A3BF04F913BF06F9858800614561D8ED65
:100A88007E091008C4C2D7C5C1334400003361F8D9
:100A98004400F833DC354401003361F8440000DCDD
:100AA800052400F0EF032400F861D8B3FB22FBC74C
:100AB800FB20FBC7FD6B02DE22360100C714AEF82F
:100AC80004020035FD98218800EF114400001361ED
:100AD800F8446800DE054968F9EF01F11002C4D74F
:100AE800C5C3C13344000020041361F8441A00DE72
:100AF8007DA81012A80E318E3316318E3337318D02
:100B080007B80013B802880074A800318E33163174
:100B18008E3337318D07B800F6B802717BFAA8001A
:100B2800F008C3C1880470F1C3C16470F1C3C188FF
:100B38001A70F1318DC40561D8A3C6318C16318E77
:100B4800031217318DC40561D8A3C6318C16318EB6
:100B5800031217318DC40561D8A3C6C3C1A80831D3
:100B68002D0468F916C0C2BB13BC02717AFA1008CA
:100B7800C4FD54030400C5C3C13344000020081356
:100B880061F8441A00DE7B717BFA312D0468F9168E
:100B9800AC0212AB16B80413B806717AFA17318E84
:100BA8003316318E3337318D07B80013B8028800F9
:100BB80074A800318E3316318E3337318D07B80063
:100BC800F6B802A800F008C3C1880470F1C3C16474
:100BD80070F1C3C1881070F1318DC40561D8A3C606
:100BE800318C16318E031217318DC40561D8A3C616
:100BF800318C16318E031217318DC405C661D8A306
:100C0800EF02F6F7100CC4D7360AFBC3F6C5BBBC17
:100C180002F530FBF7FD7E0B14649F2CFB155C0F6F
:100C28009F2DFB1531CE609F2EFB402DFB01E1610E
:100C3800E8F6728F2CFB70F10104683016ABFD3FAB
:100C480001F7C3C1DB22FBAF20FBFDE801604C0BC1
:100C58009F2FFB61C8CF2FFB0ACF31FB3CF532FB3E
:100C6800CF33FB22CF34FB1ECF35FB77C4C2D7C3AB
:100C7800C5C1203A301500F7FD7E0BF633B80030B9
:100C88001500FD7E0BB828301600F7FD7E0BF633F5
:100C9800B826301600FD7E0BB824301700F7FD7E0D
:100CA8000BF633B81E301700FD7E0BB81C30180049
:100CB800F7FD7E0BF633B816301800FD7E0BB8141E
:100CC800301900F7FD7E0BF633B822301900FD7E8F
:100CD8000BB820301200F7FD7E0BB82E13B830E1A8
:100CE800FD9C1FAEF8042E0016318546301300F720
:100CF800FD7E0BB82A13B82C301400F7FD7E0BB814
:100D08003613B838A82C12A82A5418FD6601609F1B
:100D180031FBA82C609F32FBA82A9F33FB882A9FAF
:100D280034FBA83812A8365418FD6601609F35FBBD
:100D3800EF13CF31FB3CF532FBCF33FB22CF34FB33
:100D48001ECF35FB77713202713300710202714296
:100D580001710300712200712B20E6FDA62A713370
:100D680002300300FDA62A713202E6FDA62AA80079
:100D780044000061E8FDA62A51049804E6C1AEF8D3
:100D8800040600F2145302F1FD6215301E00FDA6A0
:100D98002A306400B800F6B802EF0F24010061D8C9
:100DA800B3B80013B802E6FDA62A31120C19A8023E
:100DB80012A800334400003361F8440000DFDCF679
:100DC800B8185180ED8E14A82844000061E8FDA6EB
:100DD8002AF1980451CF980551089806300300C1AC
:100DE800AEF8040600F2145302F1FD6215E198040E
:100DF80051379805F198065105980798083005006D
:100E0800C1AEF8040600F2145302F1FD6215A826DB
:100E180044000061E8FDA62A51E5980451039805AD
:100E2800300200C1AEF8040600F2145302F1FD626C
:100E38001551039804F19805713301AEF871030256
:100E480004040016530250808B6158DD057122009E
:100E5800EF0371230060311A71020070D071030032
:100E6800DFE693713201A7DFDD71230071020271A1
:100E780042017142015106CEABAC98045128980545
:100E880098069807713301AEF8710302040400163E
:100E9800530450808B6158DD05712200EF037123E4
:100EA8000060311A71020070D0710300DFE693719F
:100EB8003201A7DFDD712300710202714201714224
:100EC80001CEABACA82444000061E8FDA62A51304D
:100ED80098048F31FB9805713301AEF87103020451
:100EE800040016530250808B6158DD05712200EF13
:100EF8000371230060311A71020070D0710300DFA2
:100F0800E693713201A7DFDD71230071020271429D
:100F180001714201CEABAC514198048F32FB980568
:100F2800713301AEF87103020404001653025080B5
:100F38008B6158DD05712200EF0371230060311ABF
:100F480071020070D0710300DFE693713201A7DFF0
:100F5800DD712300710202714201714201CEABAC16
:100F6800A81E44000061E8FDA62A515098048F3558
:100F7800FB9805713301AEF871030204040016539F
:100F88000250808B6158DD05712200EF0371230048
:100F980060311A71020070D0710300DFE69371327C
:100FA80001A7DFDD71230071020271420171420164
:100FB800CEABAC516098048F33FB9805713301AE0A
:100FC800F871030204040016530250808B6158DD47
:100FD80005712200EF0371230060311A710200705D
:100FE800D0710300DFE693713201A7DFDD712300C2
:100FF800710202714201714201CEABACA81C4400DF
:101008000061E8FDA62A51619804510298055158DB
:101018009806E1980751C09808713301AEF871033A
:101028000204040016530550808B6158DD057122B7
:1010380000EF0371230060311A71020070D0710350
:1010480000DFE693713201A7DFDD71230071020230
:10105800714201714201CEABAC300F00FDA62A30BF
:10106800AC0DB800F6B802EF0F24010061D8B3B890
:101078000013B802E6FDA62A31120C19A80212A81C
:1010880000334400003361F8440000DFDCF6B81890
:101098005140ED8E14A81644000061E8FDA62A51BF
:1010A800659804E19805713301AEF87103020404F0
:1010B8000016530250808B6158DD05712200EF0342
:1010C80071230060311A71020070D0710300DFE6ED
:1010D80093713201A7DFDD712300710202714201B1
:1010E800714201CEABACE6FDA62A51039804F198F3
:1010F8000551649806F19807713201AEF871430101
:1011080004040016530450808B6158DD05712200D9
:10111800EF0371230060311A71020070D07103006F
:10112800DFE693713201A7DFDDE671230014AEF824
:10113800040400CEABAC12F65108FDCF158804723A
:1011480051659804F19805713301AEF871030204F2
:10115800040016530250808B6158DD05712200EFA0
:101168000371230060311A71020070D0710300DF2F
:10117800E693713201A7DFDD71230071020271422B
:10118800017142015182CEABAC9804AEF8042E0036
:10119800163185058F34FBEF016298056270F131D5
:1011A8008D12F6C3C1A83412A832FD3002C3C13073
:1011B8001200F7FDE80A713301AEF8710302040466
:1011C8000016530250808B6158DD05712200EF0331
:1011D80071230060311A71020070D0710300DFE6DC
:1011E80093713201A7DFDD712300710202714201A0
:1011F800714201CEABACA81444000061E8FDA62AF8
:101208005110980471330151807103029800AEF8AF
:101218001631C505712200EF0371230071020071B8
:1012280003008800311AD19800DFE371320171237D
:1012380000710202714201714201CEABAC8F2CFBEE
:1012480070F10104683016F7AB16B81CF6B81ED555
:101258002DFBDF0AC15190C1883F70F1EF0B1701D8
:1012680061FEC3C1F7883F70F1FD8801B81413B857
:1012780016A81404001061D8A3B81413B81617449C
:10128800000061F8ED9813300400C1AEF804340092
:1012980014A81812A816FD9821A81612A814040458
:1012A8000061D8A3B81413B816AEF8043200B80019
:1012B80004D2FF145304A8001631F503F1EF0251CC
:1012C800309931E503F6EF025003C5C6606D9BA85F
:1012D800001631D503F1EF0251309A0131C503F6FA
:1012E800EF025003C5C6A7606D9BA8001631B50371
:1012F800F1EF0251309A0231A503F6EF025003C50F
:10130800C6A7A7606D9BA80016319503F1EF02519F
:10131800309A03318503F6EF025003C5C6A7A7A785
:10132800606DA59BA5A800A5A193A5B800DF87714E
:101338003201AEF871030204040016531050808B7A
:101348006158DD05712200EF0371230060311A71C5
:10135800020070D0710300DFE693713201A7DFDD70
:10136800712300710202714201714201CEABACA837
:101378001E12A81C24040061D8B316B81C13B81E8A
:1013880017334400001361F844000061E8ED8F1240
:10139800511298047133017103025080605C12DDB0
:1013A80005712200EF0371230060311A7102007089
:1013B800D0710300DFE671320171230071020271FE
:1013C8004201714201CEABAC306C07FDA62A306EEB
:1013D80000B800F6B802EF1124010061D8B3B800D4
:1013E80013B802300A00FDA62A31120C19A80212FD
:1013F800A800334400003361F8440000DFDAF6B88F
:101408001851C0ED8E14A82244000061E8FDA62AF8
:10141800306400FDA62A510298047133015180718D
:1014280003029800AEF816319505712200EF03719A
:1014380023007102007103008800311AD19800DF7F
:10144800E37132017123007102027142017142019C
:10145800300A00CEABACB800F6B802EF0F2401009A
:1014680061D8B3B80013B802E6FDA62A31140C1AE5
:10147800A80212A800334400003361F8440000DFDA
:10148800DCF6B81851E0B81AEF21306400FDA62A3E
:10149800A82044000061E8FDA62AA81A12A818335B
:1014A8004400001361F8440000DD33300200F7FD0A
:1014B8007E0B1004C3C13344ADDE1361F844EFBEA4
:1014C800DF05F6B800B802A81AC1A81AC1A8061202
:1014D800A804FD3002C3C1300200F7FDE80A300A53
:1014E80000FDA62A71230071030071320071030206
:1014F800714301713301713302301000F7FD7E0B27
:1015080004010061D8A3C3C1301000F7FDE80A1038
:101518003CE530FBC4C2D7C3C54F2FFB2004DE35E2
:1015280070F1320900FD4B01A11231FF33B80013ED
:10153800B8025509A80212A800C3C1300010F7FD6F
:10154800CF22A80212A80004010061D8A3B8001392
:1015580095B802DFDF1004C4C2D7D1C3DF057133E9
:1015680001EF03713201FBF8FFA731950371030204
:1015780031A50371430131B503714301A806440045
:1015880000DD2BC5C61450808B6158DD0571220023
:10159800EF0371230060311A71020070D0710300EB
:1015A800DFE615B1440000713201A714DFD8D2710B
:1015B8002300DF09710202714201714201CEABAC16
:1015C8001002FD54030200C3C5C1C16073AEF80424
:1015D80003001631B502EF11319508712A20710305
:1015E80002EF0931A506712A207143011544000054
:1015F800DD42A80614A804B800F0528060311970C2
:1016080016AEF871020004030037F131B5057124F4
:101618000CEF0371240061DC7760616F7062311A2E
:1016280072D2710300DFD56099A800B1440000A50B
:10163800B800DFC5D3712B20DF09710202714201A6
:101648007142011008CEABACD7E6D7C3C5200E71E6
:101658007BFACF770000CF760000CFA80002CEA09B
:1016680000717AA1714BA4CFF30010710BA1CD00CA
:1016780008CE20F0CF500002CF300002CD0115CEA9
:1016880021E2CF310000CF510000CF410000CF61EF
:101698000000CD0203CF760001CE2200CD0404CE97
:1016A80024F8CF340002CF540002CF640000F406BF
:1016B800CE2603CF3C0011712AE4712BE0713AE485
:1016C800713BE0714AE4714BE0715AE4715BE0FDF3
:1016D800802AFD7329FDD603FDFB23F19804F53616
:1016E800FBCF2CFB03F52DFBF52EFBEBF8FFF6F7F4
:1016F800FD9524D1DD0DA80244050FF661F84400DC
:1017080000DD06CF36FB02EF3DA8002C93DD2A2C26
:1017180002DD2B91DD2D2C05DD3C2C04DD572C142E
:10172800DD3D2C02DD3E2C03DD2191DD112C02DD97
:101738003891DD4791DD38EF49F52CFBEF44E52C76
:10174800FBEF3FE536FBE52EFBEF37E1E536FBE542
:101758002EFB9804EF2CCF2CFB02712304EF23F50A
:101768002CFBEF1BE52CFBEF16CF2CFB02EF10CF69
:101778002CFB03EF0ACF2CFB04EF07CF2CFB04E56F
:101788002DFB8F2CFBF770F1C3C18F2DFB70F1314E
:101798008DC3C18F2EFB70F116314E121731CDFD5E
:1017A8003002FD3002B80013B802A800C3C1F6F732
:1017B800FDE80AFDD727FD361FFD100C3618FBF68D
:1017C800BBBC023614FBCF39FBFFF537FBF538FB02
:1017D800BF0EFBBF10FBBF12FBBBBC02CF78008063
:1017E800717AFAAEF804040016318520306400FDE1
:1017F800A62AF6C1300311C1F6320021FD9826EF62
:101808000B36310271F200000061FD00D53FFBDDAF
:101818000B717BFAB03FFB717AFAEF08D540FB6198
:10182800F8ED1C1FFD7B044036FB0261F8ED8119C1
:101838008F38FB4CF1DC46EBF8FF30A001F7FD9543
:1018480024F6C1302303C1F6C1304502C1F6C130C8
:10185800E803C1A80E12F633F1FD88012485C061A2
:10186800D8B333B133FD8801FDF50104204E61D8AA
:10187800A3C3C1301100F7FDE80AF538FBAF10FB30
:1018880044600961D8ED1119F6BF10FBEBF8FF3081
:101898001812F7FD9524A80212A80033440000137B
:1018A80061F8440000DD5EEBF8FF30AC11F7FD9500
:1018B80024AF16FBC1AF14FBC1A80612A804FD6B28
:1018C80002AF12FBDF2B442001DE18A1442001A245
:1018D80012FBDF0F300006C130CF6AC1301412F797
:1018E800FD0224A80212A800BF14FB13BF16FBEFC9
:1018F80018442001DC0F300006C1300E04C130143A
:1019080012F7FD0224F6BF12FBAF0EFB444138DC90
:101918002CEBF8FF301812F7FD9524A80212A80046
:10192800334400001361F8440000DF0DF6C130A114
:1019380007C1301812F7FD0224F6BF0EFB4036FB34
:1019480001DF368F37FB4C79DC2F300500F7FD7E41
:101958000B1004C3C1C3C1301400320021FD982606
:10196800301100F7FD7E0B1004C3C1C3C130440021
:10197800320021FD9826F537FB300400F7FD7E0B79
:101988001004C3C1AEF8163185614036FB01DF0D86
:10199800A800C3C1301000320021FD9826D52FFBC6
:1019A8005500DD3A6572300001FD3F011231FF3309
:1019B800C3C1A80612A804FD510233440000100454
:1019C8001361F8440000DD0FFBF8FF31950453FF65
:1019D800EF01F365FD1F1585654F2FFBDCC6F6B8D3
:1019E80000B802C1C15004F7FDE80A4030FB01DF2E
:1019F8000D360AFBF6BBBC02F530FBED1C1FDB0CF9
:101A0800FBAF0AFB334400001361F844150061D8AA
:101A1800ED1C1FF198045007F7FD7E0B1004C3C19D
:101A2800AEF8163185688800311A5C0FFD770CA86E
:101A38000212A800085CBE08B800086C2008B800AC
:101A4800C3C1300700F7FDE80A300500F7FD7E0B3B
:101A5800B80413B80630FF03C13000FCC1A8061251
:101A6800A804316E3316316E333731AD07FD51029C
:101A7800C3C1A80E12A80CC40561D8A3C633073386
:101A8800BF18FB13BF1AFBE198081004EF2031E5DB
:101A98001D31D5068F39FBFD770CA80212A8000866
:101AA8005C9F08B800C3C1300700F7FDE80AAEF82C
:101AB8001631D545300500F7FD7E0BC314AF18FB72
:101AC800DB1AFB2561D8B3C613275C80F273134475
:101AD8000000F661F8440000DD1C8F39FBFD770C2F
:101AE800A80212A800085CDF08B800C3C1300700CC
:101AF800F7FDE80AEF03E19804300300F7FD7E0BD9
:101B08001004C3C1AEF81631857F31931EDB0CFB80
:101B1800AF0AFB334400001361F8447900DE0C8FF0
:101B280039FB75A80070656148DD4A300600F7FD8D
:101B38007E0B14645C21DD0E15085CDE08C3C13021
:101B48000600F7FDE80A300800F7FD7E0B14645C18
:101B580007DD0E15085CF808C3C1300800F7FDE87A
:101B68000AA8009F39FBAEF8040400163183068FDB
:101B780039FBFD770CA80212A800085CFC08B80025
:101B8800C3C1300300F7FDE80A300600F7FD7E0BFD
:101B98001004C3C1AEF816318575300500F7FD7E17
:101BA8000BB80613B808A8021613275C80F2731343
:101BB800440000F661F8440000DF548800311A5CE4
:101BC8000F9F39FBAEF8040400163183068F39FBEA
:101BD800FD770CA80212A800085CFE08B800086C83
:101BE8002008B800C3C1300600F7FDE80A30080035
:101BF800F7FD7E0B1004C3C188005C06DD11A80048
:101C0800085CF908B800C3C1300800F7FDE80A30DD
:101C18000800F7FD7E0B1004C3C1AEF8163183032C
:101C2800EDA11D300500F7FD7E0BB80613B808A816
:101C38000212A800085CE008BF1CFB13BF1EFBA82B
:101C48000812A806221CFB61D8B333221EFB3316E8
:101C5800AEF804060037A7B80613A7B808A731F5E9
:101C680003ED1C1FA80212A800085CFE08B80008B3
:101C78006C0408B800C3C1300800F7FDE80A300A50
:101C880000F7FD7E0B1004C3C1EF1BC3C6A80827CD
:101C9800B808C7C2FB1EFB1307BF1EFBA03AFBB068
:101CA8003BFBDF0FA80031CE609F3AFB88005C0F3A
:101CB8009F3BFB8F3AFB311A70F1040B001231FF86
:101CC80033FD7E0BB80A33B80C363AFB318506F67D
:101CD800B80A13B80CF6B80AAEF804060016A80C31
:101CE8004E0312DF0B624E02DF06F64E0161F84D1D
:101CF800DC998F3AFB4C08DE18300900F7FD7E0BA3
:101D0800B80613B80851072F3AFB312974A806EF13
:101D18001CDF0DA80212A800541CFD660160EF1319
:101D2800403AFB09DF12A80212A8005418FD660108
:101D3800605C0F9F39FBEF04CF39FB0F8F39FB70C5
:101D4800318D1231FF33C3C1A80612A8045CF0FD1F
:101D58003002B80013B802A800C3C1300A00F7FD6A
:101D6800E80AAEF8040400163183068F39FBFD77C4
:101D78000C300600F7FD7E0B1004C3C1AEF8163117
:101D8800D303ED1C1FA800085CDF08B800C3C130EE
:101D98000600F7FDE80AED1C1F88005C064C06618A
:101DA800E8ED1C1F8F3AFB4C0A61C8ED181F311A69
:101DB80070F1040B001231FF33FD7E0BB80633B807
:101DC80008363AFB318506F6B80613B808A8081293
:101DD800F6021CFB33021EFB3316B80613B80817AD
:101DE800C3C1300500F7FD7E0BC42561D8B3C61307
:101DF800275C80F273F633440000F661F844000073
:101E080061E8ED1C1F500AFD7E0B1004C3C1EF06EC
:101E180015B80617B808A80812A806BF1CFB13BFF8
:101E28001EFBA03AFBB03BFBDF0FA80031CE609F42
:101E38003AFB88005C0F9F3BFB8F3AFB311A70F12D
:101E4800040B001231FF33FD7E0BB80A33B80C3691
:101E58003AFB318506F6B80A13B80CA80C12F6023C
:101E68001CFB33021EFB3316B80A13B80C17C3C188
:101E7800300500F7FD7E0BC42561D8B3C613275C77
:101E880080F273F633440000F661F8440000DD8008
:101E98008F3AFB4C08DE17300900FD7E0BB806139D
:101EA800B80851072F3AFB312974A806EF1CDF0D3B
:101EB800A80212A800541CFD660160EF13403AFB0B
:101EC80009DF12A80212A8005418FD6601605C0F11
:101ED8009F39FBEF04CF39FB0F8F39FB70318D121F
:101EE80031FF33C3C1A80612A8045CF0FD3002B864
:101EF8000013B802A800C3C1300A00F7FDE80AAE13
:101F0800F80404001631830C8F39FBFD770CEF04BD
:101F1800CF39FB0FCEABACF1FD9C1FD53EFBDF09E3
:101F28008E515CB261F8ED091861EDED1318C3F636
:101F3800F7FD7E0B604C039F2CFBDC092C03DD13A3
:101F480091DD19EF263620FB300080BBF6BC02502D
:101F580040EF153620FBF6BBA1A1EF073620FBF6B4
:101F6800BB5008BC02300001BF24FBF53DFB717B70
:101F7800FA711A22402CFB02DF05712304EF03716A
:101F88002204F1FDBB29711302711B22F53CFB7180
:101F98007AFAC2D74C01DF33403CFB01DD28711AC5
:101FA80022E1FDBB29402CFB02DF05712204EF036F
:101FB800712304E6FDA62A711202711B2230130058
:101FC800FDA62AE53CFBCF3DFB0AD7717BFAD53D40
:101FD800FBDF1E711A22402CFB02DF05712304EF80
:101FE80003712204F1FDBB29711302711B22F53C18
:101FF800FB717AFAD7C3C1C52006F7A810C3C1A8D8
:102008000E12A80CC40561D8A324010061D8B3C678
:10201800F0C3C1A80E12A80CF0FD6B02DD3104005C
:102028000161D8A316B80213B804A808141725B874
:1020380000C1A80814A80C12A80AFD6720A8001659
:10204800A81027C1A8080714A80612A804EF06C5F7
:10205800A80814A80AFD6720100CFD54030200C349
:10206800C1C5403CFB012008DD28711A22E1FDBBF7
:1020780029402CFB02DF05712204EF03712304E6DB
:10208800FDA62A711202711B22301300FDA62AE553
:102098003CFBCF3DFB0AA80A334400001361F84417
:1020A8000000DF22F6B804B8065508A80612A804EE
:1020B800FD2622A80612A80404000161D8A3B804CA
:1020C8001395B806DFE551069800F6C1E6C1F61487
:1020D800AEF804040012F6E1FDF729E19800F19842
:1020E80001F6C1A1A1C1F614AEF804040012F6E18C
:1020F800FDF72951069800F6C1E6C1F614AEF804BA
:10210800040012F6E1FDF72951029800DB22FBAF2B
:1021180020FB334401001361F8440100DC13A80CD0
:10212800609801A80A9802880A9803F6C15004EF3B
:102138000CA80A9801880A9802F6C15003C1AEF8A3
:1021480004040034000012E1E0FDF729E6C1340080
:1021580000A814C1A80C12F6E1FDF729510B710370
:1021680000980451059800F6C1A1A1C1AEF8040475
:102178000014AEF804040012F6E1FDF729AEF816D3
:10218800A73185078804919804DFD8100EED6220E6
:10219800C3C1C5403CFB012004DD28711A22E1FDC2
:1021A800BB29402CFB02DF05712204EF03712304D5
:1021B800E6FDA62A711202711B22301300FDA62A21
:1021C800E53CFB5103CF3DFB0A9800DB22FBAF2027
:1021D800FB334401001361F8440100DC13A80860D4
:1021E8009801A806980288069803F6C15004EF0CD7
:1021F800A806980188069802F6C15003C1AEF804F3
:10220800040034000012E1E0FDF729E6C1F7A81048
:10221800C1A80814F6E1FDF729100AED6220C5C32C
:10222800C1403CFB012006DD28711A22E1FDBB29D3
:10223800402CFB02DF05712204EF03712304E6FD45
:10224800A62A711202711B22301300FDA62AE53C52
:10225800FB5106CF3DFB0A9802F6C1E6C1F614AE63
:10226800F804060012F6E1FDF72951819802A80842
:10227800609803A8069804F19805F6C15004C1F6C1
:1022880014AEF804060012F6E1FDF729510B980088
:10229800EF04E6FDA62A51059802F19803F6C1A1BC
:1022A800A1C1AEF804060014AEF804060012F6E167
:1022B800FDF729AEF80403001631850788009198C8
:1022C80000DFCF100AC4D7C5C3C12008A814C1A80D
:1022D80014C1A80CFD8801B80413B806403CFB01E2
:1022E800DD28711A22E1FDBB29402CFB02DF0571B4
:1022F8002204EF03712304E6FDA62A711202711B62
:1023080022301300FDA62AE53CFB5106CF3DFB0A0F
:102318009800F6C1E6C1F614AEF804040012F6E11E
:10232800FDF729E19800F19801F6C1A1A1C1F614C1
:10233800AEF804040012F6E1FDF72951069800F6FC
:10234800C1E6C1F614AEF804040012F6E1FDF7295F
:10235800A80A12A808440001DF053344000033DD51
:1023680025440010DF053344000033DD1D440080A0
:10237800DF053344000033DD15440000DF04134457
:102388000100DD0EEF105181EF0A5120EF06515286
:10239800EF0251D89800A806609801A8049802F1A5
:1023A8009803F6C15004C1F614AEF804040012F6FE
:1023B800E1FDF729F6B804EF04E6FDA62A510598D1
:1023C80000F19801F6C1A1A1C1AEF804040014AE51
:1023D800F804040012F6E1FDF729AEF816A73185D6
:1023E8000AA804B1440000B804DFCE100CC4FD54A0
:1023F800030400711200711204D7C5C3C1C1F1985A
:102408000071130451140091DFFC71130051140082
:1024180091DFFC5182FDBF254C01DF1E1360FDBF1B
:10242800254C01DF15A802FDBF254C01DF0C8802F1
:10243800FDBF254C01DF03E19800A80E12A80C543B
:1024480018FD660160FDBF259801A80E60FDBF2537
:1024580074A80CFDBF2575880CFDBF257113047089
:1024680051140091DFFC71120051140091DFFC71CE
:10247800120451140091DFFC8801738800615B61CC
:102488005C1006615D6158C4FD54030400C3C1209B
:1024980006F19800F6B802B80471130451140091BB
:1024A800DFFC71130051140091DFFC5182FDBF2540
:1024B8004C01DF1E1360FDBF254C01DF15A806FD8A
:1024C800BF254C01DF0C8806FDBF254C01DF03E169
:1024D800980071130451140091DFFC71120051141B
:1024E8000091DFFC71120451140091DFFCAEF81664
:1024F800318303ED962571130451140091DFFC71AB
:10250800130051140091DFFC5183FDBF254C01DFFE
:102518007DF1DBF8FF9801A3FD1F264C019800DF31
:1025280012880170F1318DDBF8FFB804A3F6FD1FA6
:1025380026980088004C01DF1C880170F112F6C350
:10254800C1A80812F6FD300213DBF8FFB804A3F1A6
:10255800FD1F26980088004C01DF1C880170F1F7E8
:10256800318DC3C1A80812F6FD3002DBF8FFB802AE
:10257800A3E1FD1F26980088004C01DF118801F7B0
:1025880070F1C3C1A80812A806FD3002B802711381
:102598000451140091DFFC71120051140091DFFC0A
:1025A80071120451140091DFFCA80412A802B91397
:1025B800BA028800100AD7C372F35080626158DDEE
:1025C80005711204EF0371130460311A711200705F
:1025D80051140091DFFC51140091DFFC711300517C
:1025E800140091DFFCD0DFD4711204711A24511445
:1025F8000091DFFC31120401E3711B2471120051B8
:10260800140091DFFC51140091DFFC711300511488
:102618000091DFFC63C2D7C5C3C6711204711A24C6
:10262800755380F0F25401711200711A20311200B2
:102638000880604C40DCF65400711B205114009156
:10264800DFFC3114040462616B7263311A71130088
:102658007351140091DFFCD3DFCD65D1711B24DFEA
:1026680005711304EF0371120451140091DFFC711A
:1026780012003112000880604C40DCF654005114FE
:102688000091DFFC64D1711300DD02629B64C4D742
:10269800C3C171130451140091DFFC71130051146C
:1026A8000091DFFC5182FDBF254C01DF16F1FDBF13
:1026B800254C01DF0E5120FDBF254C01DF055130AF
:1026C800FDBF2551E8FDBF255103FDBF255197FDED
:1026D800BF25F1FDBF2571130451140091DFFC7172
:1026E800120051140091DFFC71120451140091DFA3
:1026F800FCA80A12A808C3C1300005F7FD0224A8E7
:102708000212A800C3C1301005F7FD02247113049A
:1027180051140091DFFC71130051140091DFFC513A
:1027280082FDBF254C01DF16F1FDBF254C01DF0EF0
:102738005105FDBF254C01DF055124FDBF2551C0C2
:10274800FDBF25F1FDBF255120FDBF255130FDBF3F
:102758002571130451140091DFFC7112005114000B
:1027680091DFFC71120451140091DFFC71130451C4
:10277800140091DFFC71130051140091DFFC5182A9
:10278800FDBF254C01DF16F1FDBF254C01DF0E51C1
:1027980005FDBF254C01DF055148FDBF255110FD42
:1027A800BF25F1FDBF2551C0FDBF25E1FDBF257146
:1027B800130451140091DFFC71120051140091DFD1
:1027C800FC71120451140091DFFC1004ED902436C2
:1027D800F00071C236300271F3715AE5715BE17134
:1027E8005BED715BE95A06FC8E266C039E26A77189
:1027F800B2CF320226CF33022B71834036FB02DF81
:1028080006CF340242EF04CF340240711A52710AE3
:1028180052B771C371B271A2715BE571F271E28E48
:10282800265CFC9E26D7C1C3C5C7AEFCC1C1D53E38
:10283800FBDD0E403EFB06DD088E5036300271D2BD
:102848007436310271F300000000008E519800AE1A
:10285800F81631852136300271C3403EFB05DF088A
:10286800FD6607A03FFBEF08403EFB0661F871D20A
:10287800F53EFBED6829D53EFBDF3331D508363010
:102888000271E2ED682931C303ED6829363002711F
:10289800C21631B507CF3EFB06ED4329363002712B
:1028A800D23626FBE53EFBF6BBBC02ED6829403E6E
:1028B800FB01DF0E5500CF3EFB0215BF26FBF6EDF0
:1028C8005E29403EFB02DF06CF3EFB03EF0A403E97
:1028D800FB03DF26CF3EFB04DB28FBAF26FB318C56
:1028E80016318E031217318DBF26FB13BF28FBDB71
:1028F80028FB5500AF26FB05EF55403EFB04DD06DF
:10290800403EFB05DF2C403EFB04DF09DB28FBAF24
:1029180026FBFD480764FD5307DB28FBAF26FB04B5
:10292800010061D8A3BF26FB13BF28FBCF3EFB05E0
:10293800EF2E403EFB06DF2831A520DB28FBAF2623
:10294800FBFD8F0A9E50DB28FBAF26FB04010061CC
:10295800D8A3BF26FB13BF28FBEF0536300271D280
:102968001002C0C6C4C2BEFCC061FC36F00071A231
:10297800E6FDA62AF6BF2601710302714301711311
:1029880002E6BF2401710AE5710BE15007BF080197
:102998005020BF10013007F0BF1801C9100002AF66
:1029A80028015CFE085CFE08BF2801E6BF2A01BFBB
:1029B8002201D74C01DF1F71120236240171827186
:1029C8000201712201562A7182AF18016C40BF18AA
:1029D8000156227182D73624017182562A71837179
:1029E8000301712301710302714301711302D7C3FB
:1029F800C5C1C16072AEF8040300163185037113B6
:102A08000231950371030231A503714301A80C44F7
:102A18000000DD3F16A80637B800880E73634C0126
:102A28008B61F87CFF9D1000000000AF0001603151
:102A380063F9A804440000DF048D10EF0A634C0119
:102A48008D1061F87CFF99A800B1440000A5A7B8D3
:102A580000DFCAD2DF18AEF804030016318503710F
:102A6800120231950371020231A503714201CEAB06
:102A7800AC1008FD5403040036F00071F2CB90004E
:102A880000713AE6713BE2713AEE713AEACB90FF97
:102A98000EAE906C80BE90713BE6713BE2D7C3C529
:102AA80036F0007182560637BFB601173600003778
:102AB800BF900117360100C9187D0037BFB2011752
:102AC800440000DD11B1FB8001DB8001374317DED4
:102AD80011440000DFEFE6BFB40136F0007183C493
:102AE800C2D7EB8001334513DCE7FB80013547157E
:102AF800DCDFEFD5A040FB61FCEDD800EFFEFFFF67
:022B0800FFFFCD
:10300000FFFF0000FFFFFFFFFFFFFFFFFFFFF0FCE0
:10301000FF0000FC000000000000FFE00000FFA037
:103020000000001C0000000000FF0FF00000000086
:103030000000000000000000000000000000000090
:10304000FFFFFFFF00000000000000000000000084
:103050000000000000000000000000000000000070
:1030600000000000000000008813C40A8012983A93
:0230700040839B
:04000005000000DD1A
:00000001FF
