:020000006D345D
:10000400DE34DE34DE34DE34DE34DE34DE34DE345C
:10001400DE34DE34DE34DE34DE346E31DE34DE34BF
:10002400DE34DE34DE34BF33DE34DE34DE34DE345C
:10003400DE34DE34DE34DE34DE34DE34DE34DE342C
:10004400DE34DE34DE34DE34DE34DE34DE34DE341C
:10005400DE34DE34DE34DE34DE34DE34DE34DE340C
:10006400DE34DE34DE34DE34DE34DE34DE34DE34FC
:0C007400DE34DE34DE34DE34DE34DE3414
:0400C0007FFFAA0410
:0A00C4000000000000000000000032
:1000D800F6BF88FCBF8AFCF5B8FCD72C9FDD202C26
:1000E8000461F8ED00022C09DD502C10DD2B2C17D3
:1000F80061F8EDBD012C0261F8EDDD01ED22023061
:100108004083F5B4FCCFB7FC0ACFBAFC09BF80FC2A
:10011800F6BF82FC5190EDD401304083F5B4FCE584
:10012800B5FCCFB7FC07CFBAFC11BF80FCF6BF8285
:10013800FC5110BF84FCE6EDFB01304083F5B4FCB4
:10014800CFB5FC02CFB7FC07CFBAFC11BF80FCF6D5
:10015800BF82FC5110BF84FCE6BF86FC30B4B7BF39
:100168008CFC300200BF8EFCE1FD030F60F0CF581D
:10017800FCE5CF59FC03C13402003258FCE6FD19F6
:100188000E60F0CF58FC65E559FCC13402003258C6
:10019800FCE6FD190EE6FD7333CF58FCAB71320156
:1001A80071430150801004605CAB61F8ED4B027143
:1001B8002200ED4E02300078E5B4FCCFB7FC0ACF40
:1001C800BAFC08BF80FCF6BF82FC5180BF84FCF6F5
:1001D800BF86FCEF4C300078E5B4FCE5B5FCCFB742
:1001E800FC08CFBAFC0FBF80FCF6BF82FC51F0BF01
:1001F80084FCF6BF86FCEF41300078E5B4FCCFB54F
:10020800FC02CFB7FC08CFBAFC0FBF80FCF6BF8258
:10021800FC51F0BF84FCF6ED6101300010F7FD2AB7
:1002280034D5B5FCDF0A30D494BF8CFCF6ED6D01F3
:1002380040B5FC0161E8ED6401302458BF8CFCE650
:10024800ED6D0171230060311A71020070D07103E5
:100258000061E8EDAF017132017123007102027192
:100268004201714201CEABACCF58FC03F559FCCF2B
:100278005AFC64F55BFC7132017143013658FC533A
:100288000450808B6158DD05712200EF0371230053
:1002980060311A71020070D0710300DFE693713289
:1002A80001A7DFDD712300CEABACF034010032587A
:1002B800FC5104FD810E8F58FC9FB9FCCF58FC03FC
:1002C800F559FCCF5AFC61CF5BFCAA71320171432E
:1002D800013658FC530450808B6158DD05712200AB
:1002E800EF0371230060311A71020070D0710300AE
:1002F800DFE693713201A7DFDD712300CEABACF0EE
:10030800340A003268FC5104FD810ECF58FC03F515
:1003180059FCCF5AFC64CF5BFC1071320171430168
:100328003658FC530450808B6158DD05712200EF6C
:100338000371230060311A71020070D0710300DF6D
:10034800E693713201A7DFDD712300CEABACF03448
:100358000A003272FC5104FD810ECF58FC65F55934
:10036800FC7133017103023658FC530250808B61D3
:1003780058DD05712200EF0371230060311A710204
:100388000070D0710300DFE693713201A7DFDD71E1
:100398002300710202714201714201CEABACF1FD42
:1003A800030FD7C1202CF6B80CB80E50FFB80AF6C8
:1003B800C130F401C1301100F7FD211A04FA0061BF
:1003C800D8A3FD7C2F609805E1FDC224E1FD030F51
:1003D800E558FCCF59FC37F55AFCCF5BFC05CF5CE0
:1003E800FC057133017103023658FC5305100450A3
:1003F800808B6158DD05712200EF037123006031A5
:100408001A71020070D0710300DFE693713201A700
:10041800DFDD712300710202714201714201CEAB2E
:10042800ACF558FCCF59FCCFCF5AFC087133017199
:1004380003023658FC530350808B6158DD05712246
:1004480000EF0371230060311A71020070D071034C
:1004580000DFE693713201A7DFDD7123007102022C
:10046800714201714201CEABACE6FD7333510AEF24
:1004780007E6FD7333880091980031140C03ED0CE6
:10048800058800D1DFEB300081B80E300200F7FD9F
:10049800211AB81013B812A8103344ADDE1361F84E
:1004A80044EFBEDF05F6B810B812A80EC1F6C1A811
:1004B8001612A814FDC02F1004C3C1300200F7FDA6
:1004C8007F191004F1FDC224300A00FD7333F1FDD9
:1004D800030F301000F7FD211A04010061D8A3C3EF
:1004E800C1301000F7FD7F19301200F7FD211AB84E
:1004F8000613B808880CD110041361E8ED9D0D6C43
:10050800C0ED9F0DCF58FCE5CF59FC037133017145
:1005180003023658FC530250808B6158DD05712266
:1005280000EF0371230060311A71020070D071036B
:1005380000DFE693713201A7DFDD7123007102024B
:10054800714201714201CEABACCF58FC03F559FCA6
:100558007133017103023658FC530250808B615885
:10056800DD05712200EF0371230060311A7102006A
:1005780070D0710300DFE693713201A7DFDD7123CC
:1005880000710202714201714201CEABACCF58FC3E
:10059800E3CF59FCEE7133017103023658FC530264
:1005A80050808B6158DD05712200EF0371230060D4
:1005B800311A71020070D0710300DFE693713201C5
:1005C800A7DFDD712300710202714201714201CE81
:1005D800ABACCF58FC06CF59FC27CF5AFC27CF5BD2
:1005E800FC277133017103023658FC530450808B89
:1005F8006158DD05712200EF0371230060311A7123
:10060800020070D0710300DFE693713201A7DFDDCD
:10061800712300710202714201714201CEABAC88B4
:10062800017C802C86DE03F6EF5788017C802CA79E
:10063800DE03E6EF4C880176317B77F95CFCF31733
:10064800FDC934DE05300400EF37F95DFCFDC9341F
:10065800DE05300500EF2AF95EFCFDC934DE053001
:100668000600EF1DF95FFCFDC934DE05300700EF19
:1006780010F960FCFDC934DE05300800EF033009CD
:1006880000B806CF58FC30A806123658FC4972FC50
:100698009F59FC713301710302530250808B6158DA
:1006A800DD05712200EF0371230060311A71020029
:1006B80070D0710300DFE693713201A7DFDD71238B
:1006C80000710202714201714201CEABACCF58FCFD
:1006D80050CF59FC777133017103023658FC53022D
:1006E80050808B6158DD05712200EF037123006093
:1006F800311A71020070D0710300DFE69371320184
:10070800A7DFDD712300710202714201714201CE3F
:10071800ABACCF58FC60CF59FC2271330171030296
:100728003658FC530250808B6158DD05712200EF6A
:100738000371230060311A71020070D0710300DF69
:10074800E693713201A7DFDD712300710202714265
:1007580001714201CEABACCF58FC61D5B4FCCF5986
:10076800FC02DF0DCF5AFC58E55BFCCF5CFCC0EF08
:100778000BCF5AFC80E55BFCCF5CFC8071330171C8
:1007880003023658FC530550808B6158DD057122F1
:1007980000EF0371230060311A71020070D07103F9
:1007A80000DFE693713201A7DFDD712300710202D9
:1007B800714201714201CEABAC300F00FD73333092
:1007C800AC0DEF0AE6FD7333CEABACA806B1B806A4
:1007D80031120C0DA806440000DFE9300004ED9149
:1007E80004CF58FC0471330151807103029800AEA4
:1007F800F81631A505712200EF037123007102007C
:100808007103008800311AD19800DFE37132017159
:100818002300710202714201714201CEABAC301E5D
:1008280000FD73335164EF07E6FD73338800919838
:100838000031120C0B8800D1DFEE300040ED91043E
:10084800CF58FC4071330151807103029800AEF813
:100858001631E505712200EF037123007102007162
:1008680003008800311AD19800DFE3713201712347
:1008780000CEABAC300A00FD73335164EF07E6FDE0
:100888007333880091980031120C0ECEABAC8800FF
:10089800D1DFEB300001ED9104F03402003258FC56
:1008A800E1FD810E8F58FC3659FC31199F58FC8B9D
:1008B8003658FC317A6D9B88012F58FC707C802C4F
:1008C80088DC045007EF09607C802C7861D850F8E8
:1008D800605C0FCF58FC419F59FC713301710302D2
:1008E800530250808B6158DD05712200EF0371239C
:1008F8000060311A71020070D0710300DFE6937155
:100908003201A7DFDD7123007102027142017142D9
:1009180001CEABACCF58FC828FB9FC9F59FC713328
:10092800017103023658FC530250808B6158DD0573
:10093800712200EF0371230060311A71020070D038
:10094800710300DFE693713201A7DFDD71230071C7
:100958000202714201714201CEABACCF58FC10715A
:10096800330151807103029800AEF81631C5057144
:100978002200EF0371230071020071030088003127
:100988001AD19800DFE371320171230071020271FC
:100998004201714201CEABACAF86FCC1AF84FCC151
:1009A800F7883170F1FD292F04001061D8A31004D5
:1009B800B81433B816D5B5FCDF0713B820A816EF5E
:1009C8001112A8140280FC61D8A3330282FC33B848
:1009D8002013B822AF80FCB81CAF82FCB81E12A846
:1009E8001C334400001361F844000061F8ED210C49
:1009F800300400C1AEF8042A0014A81812A816FD85
:100A08003927A81812A81604040061D8A31002B840
:100A18001413B816D5B5FCDD24300400C1AEF804B3
:100A2800260014A82412A822FD3927A82412A822D7
:100A380004040061D8A31002B82013B822AEF80449
:100A48002800B81004FCFFB8063458FC500416A857
:100A580010378BA7980037B810A806378BA79801CE
:100A680037B8061735D5B5FCB81235A5FBF8FFDF42
:100A78007A31F503F7EF0332300031E502EF063340
:100A8800086C0308336216A812379B35B81235FB79
:100A9800F8FFA531D503F7EF02523031C502EF0652
:100AA80033086C0308336216A812379B35B8123521
:100AB800FBF8FFA531B503F7EF02523031A502EF7D
:100AC8000633086C0308336216A812379B35B81230
:100AD80035FBF8FFA5319503F7EF02523031850257
:100AE800EF0633086C030833EDB70B31F503F7EF66
:100AF8000CA731F505324000EF03323000FBF8FF58
:100B080031E502EF0EA7330831E5046C04EF026CFF
:100B18000308336216A812379B35B81235FBF8FF65
:100B2800A531D503F7EF0AA731D5045240EF025299
:100B380030FBF8FF31C502EF0EA7330831C5046C4E
:100B480004EF026C0308336216A812379B35B812FB
:100B580035FBF8FFA531B503F7EF0AA731B5045205
:100B680040EF025230FBF8FF31A502EF0EA7330821
:100B780031A5046C04EF026C0308336216A812371F
:100B88009B35B81235FBF8FFA5319503F7EF0AA797
:100B98003195045240EF025230FBF8FF318502EFE5
:100BA8000EA733083185046C04EF026C0308336226
:100BB80016A81237909B61E8ED560A71320171034D
:100BC800023658FC531050808B6158DD05712200A5
:100BD800EF0371230060311A71020070D0710300B5
:100BE800DFE693713201A7DFDD7123007102027124
:100BF8004201714201CEABACA81E12A81C2404000D
:100C080061D8B3B81C13B81EA81C33440000136184
:100C1800F844000061E8EDF809CF58FC127133017F
:100C28007103025080605C12DD05712200EF0371D0
:100C3800230060311A71020070D0710300DFE67181
:100C48003201712300710202714201714201CEAB7F
:100C5800AC303200FD7333AEF8040200143080016A
:100C6800F7FD302B4C01DF2CA80412A8026C04C33A
:100C7800C1308001F7FD992A4C011004DF16A80441
:100C880012A802618A6C04618AC3C1308001F7FD31
:100C9800992A1004306C07FD7333F9C5FC31120C26
:100CA8001C61ED00CEABACC3C65700D9C5FCF1271B
:100CB8007C8044F080DCE6300010ED9104A804123A
:100CC800A8026C04C3C1308001F7FD992AAEF8046C
:100CD8001C0014308401F7FD302B4C011004DF1187
:100CE800A81AF1B818F6B81AA81844FF0061D8B8BD
:100CF8000ACF58FC517133017103025080605C5176
:100D0800DD05712200EF0371230060311A710200C2
:100D180070D0710300DFE6713201E671230014AE72
:100D2800F8040800CEABAC12F0E1FD810E3064008F
:100D3800FD7333CF58FC027133015180710302985F
:100D480000AEF816319505712200EF03712300718A
:100D580002007103008800311AD19800DFE3713274
:100D680001712300710202714201714201CEABACE4
:100D7800510AEF07E6FD7333880091980031140C8F
:100D88000B8800D1DFEE300020ED9104306400FDC7
:100D98007333EDCC045CBFB804A80E440000F661C0
:100DA800F8440000A804DD046C30EF025CEFF7B8EB
:100DB80004A80AC3C1A80812A806F0FDC02F100491
:100DC800B802F00816A80A47DE12F7318DC3C1A889
:100DD8000812A806F1FDC02F1004B802A802C3C16A
:100DE800301200F7FD7F191032E5B8FCD74FB7FC79
:100DF8007061C8D78FBAFC74D6360000A15500C7F9
:100E08001231FFC533C3C1300010F7FD05291008A2
:100E1800D7C3D1C1DF05713301EF03713201FBF88C
:100E2800FF31850371030231950371430131A50335
:100E380071430115440000DD29131650808B615859
:100E4800DD05712200EF0371230060311A71020081
:100E580070D0710300DFE61504FFFF713201A7149B
:100E6800DFD97123008808D1DF09710202714201BC
:100E78007142011004CEABACD7C3C5C1C16073AE1B
:100E8800F80403001631A502EF11318508712A20F4
:100E9800710302EF09319506712A20714301154447
:100EA8000000DD42A80614A804B800F052806031A2
:100EB800197016AEF871020004030037F131A50568
:100EC80071240CEF0371240061DC7760616F70623C
:100ED800311A72D2710300DFD56099A800B14400BD
:100EE80000A5B800DFC5D3712B20DF09710202719C
:100EF80042017142011008CEABACD74C01DF2A7118
:100F080032027133007102027142017103007122D1
:100F180000712B20E6FD7333713302300300FD733B
:100F280033713202E6FD7333D77123007103007108
:100F38003200710302714301713301713302D7C367
:100F4800C1201213609801A812709800624FB7FC74
:100F580061C8ED6B10604FB7FC61C8ED6B10E1FD27
:100F6800C224AEF80412001631932588004FB7FC4E
:100F7800DE1EF7D9BAFCF1C3C18804708FBAFCD65B
:100F8800A11231FF33C3C1300010F7FD0529100845
:100F980040BBFC01DD38AF86FCC1AF84FCC1F788DB
:100FA8000570F1FD292F1004B80613B808AF86FCA8
:100FB800C1AF84FCC1F7880470F1FD292F1004B873
:100FC8000213B804AF80FCB80AAF82FCB80CA808BA
:100FD80012A80604001061D8A3B80613B808A8041C
:100FE80012A80204001061D8A3B80213B804A80C10
:100FF80012A80A334400001361F8440000DD64308D
:101008000400C1AEF804100014A80A12A808FD399B
:1010180027300400C1AEF804120014A80812A8066C
:10102800FD6D25A80C12A80A04040061D8A31004B9
:10103800B80613B808A80412A80204040061D8A3CB
:10104800B80213B804A80C12A80A24040061D8B383
:10105800B80A13B80CA80A334400001361F8440016
:1010680000DF9C1016D7C3C12012AEF8040200FDA1
:10107800D133E1FDC224F19800D5B7FC61F8ED61E8
:1010880011880074300001F7FDF82EC3C1A81812AA
:10109800A816FDE92F3344000010041361F844003A
:1010A8000061F8ED541140BBFC01DD21AF86FCC1A5
:1010B800AF84FCC1F7880470F1FD292F1004B80E25
:1010C80013B810AF80FCB80AAF82FCB80CA80C1299
:1010D800A80A334400001361F8440000DD6E3004B0
:1010E80000C1AEF804080014A81212A810FD392790
:1010F800880872AEF8040400FDD933880972AEF886
:10110800040400FDD933880A72AEF8040400FDD93E
:1011180033880B72AEF8040400FDD933A81212A864
:101128001004040061D8A31002B80E13B810A80C5C
:1011380012A80A24040061D8B3B80A13B80CA80A84
:10114800334400001361F8440000DF92880081985E
:10115800004FB7FC61D8ED8910A80412A802C3C1DA
:10116800301500F7FD7F19101AD7F6BFA4FCBFA6EB
:10117800FC200CBFA8FCF5B2FC717BFABF9CFB51AC
:101188000DBF9EFB717AFA8EA8D17561F8EDAD128C
:10119800717BFAAFA0FBB808AFA2FBB80A717AFA64
:1011A80012A808318E3316318E3337318D07B800C7
:1011B80033B8026274A80212A800318E3316318E39
:1011C8003337318D07B800F6B8026570F1C3C155E1
:1011D80000A804F008C3C1880870F1C3C1C3C5A83A
:1011E8001A12A818318C16318E031217318DC405C6
:1011F80061D8A3C6318C16318E031217318DC40500
:1012080061D8A3C6318C16318E031217318DC405EF
:1012180061D8A3C6F0FDC02F618B6C801004618B70
:10122800B80413B806A804318E3316318E3337311B
:101238008D07B80033B8026270F114F6C1C5F7889B
:101248000870F1318DC40561D8A3C6B80413B80677
:10125800A80212A800318E3316318E3337318D072C
:10126800B80033B802717BFA13F00814F616C1629D
:10127800C570F114C7C5A80E12A80C318C16318E92
:10128800031217318DC40561D8A3C6318C16318E6F
:10129800031217318DC40561D8A3C6BFA0FB13BFC5
:1012A800A2FB717AFA717BFA300001BFC4FBBFC69A
:1012B800FB717AFA717BFABFC8FBBFCAFB717AFA75
:1012C800717BFABFCCFBBFCEFB717AFA717BFABF98
:1012D800D0FBBFD2FB717AFA717BFABFD4FBBFD6C1
:1012E800FB717AFA717BFAF6BFDCFB305208BFDE7D
:1012F800FB717AFA717BFAF6BFE0FB50FFBFE2FBA5
:10130800717AFA717BFAF6BFF4FBBFF6FB717AFAD1
:10131800100CD7201A717BFADBF6FB717AFA139856
:1013280008ED4B14717BFAAFACFBB804AFAEFBB859
:1013380006880475A80612A804318E3316318E3338
:1013480037318D07B80433B8066274A80612A804AA
:10135800318E3316318E3337318D07B804F6B8061F
:10136800A804F008C3C1880870F1C3C115F1C3C14E
:101378006570F1318DC40561D8A3C6318C16318EE4
:10138800031217318DC40561D8A3C6318C16318E6E
:10139800031217318DC40561D8A304FA0061D8A3DC
:1013A800C6B80033B8026275A80212A800318E339D
:1013B80016318E3337318D07B80033B8026274A8FE
:1013C8000212A800318E3316318E3337318D07B8AB
:1013D80000F6B802A800F008C3C1880470F1C3C1C0
:1013E80015F1C3C16570F1318DC40561D8A3C6314B
:1013F8008C16318E031217318DC40561D8A3C631FE
:101408008C16318E031217318DC40561D8A3C6BF5F
:10141800ACFB13BFAEFBD5C2FC61E8B0C2FCB0C5E3
:10142800FC717AFAAF88FCDB8AFC04010061D8A35E
:10143800BF88FC13BF8AFCA0BCFCA0BDFCA2AAFC10
:10144800A2ACFCD5C5FC61E8ED2C13F1EDF01460FD
:101458007CFF7365615B7560311A70D0DF3B647324
:10146800AEF8040A0016658461D9644C10DF263092
:101478001000C1AEF8040C0014A80812A806FD6DEF
:1014880025A80812A80604100061D8A31002540069
:10149800B80413B806508055008802D161E8EDE819
:1014A80015880191980161E8EDD81564D1DF0560D0
:1014B8004C80DD24604C80DD0C6473AEF8040A00B7
:1014C800166561D9845500C5AEF8040C0014A80847
:1014D80012A806FD6D251002AFA6FC440001DC042D
:1014E800F6BFA6FC88000C049800717BFA88007689
:1014F8005700AFA8FC27BFA8FCAFA8FC717AFA4434
:101508000000DF03101AD7DBA6FC4964FA9800A292
:10151800A6FCEBA6FCA2A6FCFBA6FCA2A6FCDBA6EE
:10152800FC4964FAF770F1C3C1C7C24964FAF7709D
:10153800F1C3C1C5C24964FA70F1F7318DFDC02FFE
:1015480016318E1217318D1004FDC02F1004B80407
:1015580013B806A2A6FC8808D1DF42A804334409C0
:10156800003361F844000061C8ED0016880070F18E
:10157800C1AFA6FC0464FA14A8062400F061D8B32D
:10158800FD6D25880270F102A6FCBFA6FCAFA6FC83
:10159800440001100261D8EDEC14EDE8144C01612F
:1015A800E8EDEC14A804334401003361F84400006A
:1015B80061D8EDEC142400F061D8B3B80413B80670
:1015C8008800D150805400550061F8EDE01498016E
:1015D800DBA6FC4964FA98035C7F81A2A6FC98020A
:1015E800880291980216AEF80403003731F303ED30
:1015F8005714656168ED5E142400F061D8B3332494
:10160800080033EFB6BF7CFC13BF7EFCF5B2FCD7F5
:10161800708FB2FC4C30DE0AE9B2FC6018F8FBA00F
:10162800B2FCD720068FB2FCD19800F5B2FC61F865
:10163800ED2219DB7EFCAF7CFC334400003361F8FB
:10164800440010DE3730FFFFBF00F9BF02F9AF7C5E
:10165800FC334400001361F8447C00DF0A301C00AE
:10166800BF7CFCF6BF7EFCAF7CFC0498FBB804AFE3
:101678007CFC0404F95500B802ED6518AF02F9C105
:10168800AF00F9C1AF7CFCFD2C301004DF4E8800A0
:101698004FB3FCDF475500EF0E657309F8FB70097F
:1016A80028FC6140DF368588006145DE28657309BE
:1016B800F8FB700928FC6140DF228588006145DE5F
:1016C80014657309F8FB700928FC6140DF0E8588F2
:1016D800006145DCC4614561F8ED2219DB7EFCAF91
:1016E8007CFCBF00F913BF02F988009FB3FC5C03C0
:1016F8003628FC34F8FB70DD0789909BA5A7DFF935
:101708008800312A70D0DD19899B8A019C018A02E0
:101718009C028A039C03A5A7A5A790A5A7A5A7DF58
:10172800E7DB7EFCAF7CFC334400003361F8440007
:10173800F061D8EDED17880070F102A8FC040400F0
:1017480044010161C8ED2219DBA4FC88004864FA51
:10175800A2A4FCAF7EFCDBA4FC604864FAA2A4FC53
:10176800DBA4FCAF7CFC4864FAA2A4FCDBA4FC8FDD
:101778007CFC4864FAA2A4FC88005C0336F8FB7081
:10178800DD0EDBA4FC8B4864FA90A2A4FCA7DFF270
:101798008800312A70D0DD32DBA4FC8B4864FAA2C1
:1017A800A4FCDBA4FC8C014864FAA2A4FCDBA4FC26
:1017B8008C024864FAA2A4FC8C03DBA4FCA7A7480B
:1017C80064FA90A7A2A4FCA7DFCEAFA4FC44000152
:1017D800DC04F6BFA4FC88000C0470F102A8FCBF6E
:1017E800A8FCED2219334400001361F844C060617D
:1017F800E8ED6F16301400BF7CFCF6BF7EFC510488
:1018080098008FFCFB9FF8FB8FFDFB9FF9FB8FFE79
:10181800FB9FFAFB8FFFFB9FFBFBED6F16A80216E1
:101828008C027CFF70657309F8FB6158708C027339
:1018380016A804378C02615B61689C02AF7CFCDBF4
:101848007EFC04010061D8A3BF7CFC13BF7EFCA80A
:101858000285040300B80217040300B80488006175
:101868004561C8ED2219DB7EFCAF7CFC33440000E7
:101878001361F844600061C8ED2219A802168B7C38
:10188800FF70657309F8FBC76158C27016A8043762
:101898008BC3C65D616873A80416639BAF7CFCDBD1
:1018A8007EFC04010061D8A3BF7CFC13BF7EFC85CD
:1018B80088006145DE64AF7CFC334400001361F8A6
:1018C800446000DE55A80216A78B7CFF706573097B
:1018D800F8FB61587016A80237C7C216A80437A7C4
:1018E800A38BC3C65D616873A80416A7639BAF7C0E
:1018F800FCDB7EFC04010061D8A3BF7CFC13BF7E27
:10190800FC8588006145DE12AF7CFC33440000137F
:1019180061F844600061D8ED25181006D7C3C1C12D
:10192800F19800A802334400003361F84400F0DC69
:101938002D2400F061D8B3B80213B804AF9EFCC1DF
:10194800AF9CFCC1A806FD2C301004DE22E6C1AE17
:10195800F804020014A804FD39271002EF113344DB
:1019680000001361F8446000DE054998FB9800F513
:10197800B3FC88001006D7C3C13344000020041309
:1019880061F844180061C8ED1E1AA80E12A80C319F
:101998008E3316318E3337318D07B80033B8026273
:1019A80070F114F6C1C5F7881070F1318DC4056166
:1019B800D8A3C6B80C13B80EA80212A800318E33EB
:1019C80016318E3337318D07B80033B802717BFA80
:1019D80013F00814F616C162C570F114C7C5A8162D
:1019E80012A814318C16318E031217318DC405617B
:1019F800D8A3C6318C16318E031217318DC40561F8
:101A0800D8A3C6C3C1A808312D0498FB16C0C2BB11
:101A180013BC02717AFA1008D7C3C12008F6B804BB
:101A2800B806A808334400001361F8441800DE7EA5
:101A3800717BFA312D0498FB16ABB804AC02B806DA
:101A4800717AFA12A804318E3316318E3337318DFC
:101A580007B80033B8026274A80212A800318E33A6
:101A680016318E3337318D07B800F6B802A800F06A
:101A780008C3C15500880470F1C3C1C3C58810707C
:101A8800F1318DC40561D8A3C6318C16318E03128D
:101A980017318DC40561D8A3C6318C16318E031257
:101AA80017318DC40561D8A3C6B80413B806A806B3
:101AB80012A804100CD7E6D7200E717BFACF770056
:101AC80000CF760000CFA80002CEA000717AA171E5
:101AD8004BA4CFF30010710BA1CD0008CE20F0CF9E
:101AE800500002CF300002CD0105CE21E2CF3100F7
:101AF80000CF510000CF410000CF610000CD0202AD
:101B0800CF760001CE2200F404CE24F8CF340002B0
:101B1800CF540002CF640000F406CE2603CF3C0069
:101B280011712AE4712BE0713AE4713BE0714AE4E7
:101B3800714BE0715AE4715BE0FD4E33FDB932FD43
:101B48007211FD922AF5BBFCF5B4FCF5B5FCF5B6AF
:101B5800FC302C01FD7333EBF8FFF6F7FD302BD189
:101B6800DD4BA800FDE300A8002C9FDD162C04DD4A
:101B78002E2C09DD182C10DD0F2C17DD152C02DD9D
:101B880016EF25F5B4FCEF2CF5B4FCEF0DF5B4FC1D
:101B9800EF10E5B4FCEF1DE5B4FCE5B5FCEF15E589
:101BA800B4FCCFB5FC02EF0C300010EF0330000896
:101BB800F7FD2A3430002CC1300103C1302010F762
:101BC800FD992AD11004DDE5F7D9B4FCF1C3C1D9D8
:101BD800B5FC318DC3C1D9B6FCF116314E1217319F
:101BE800CDFDC02F1004FDC02F1004B80013B8029B
:101BF800A800C3C1F6F7FD7F19FD2331FD9723FD2A
:101C0800D800F6BF94FCBF96FCCFBEFCFFF5BCFC29
:101C1800F5BDFCBFAAFCBFACFCBFAEFCBF90FCBFCF
:101C280092FCCF780080717AFA1004EF0B363102FB
:101C380071F200000061FD00D5C4FCDD0B717BFA78
:101C4800B0C4FC717AFAEF08D5C5FC61F8ED7D23C4
:101C5800FD1B138FBDFC4CF1DC4EEBF8FF30A001EF
:101C6800F7FD302BF6C1302303C1F6C1304502C160
:101C7800F6C130E803C1A80E12F633F1FD292F246E
:101C880085C061D8B333B1331004FD292F1004FD8A
:101C98007C2F04204E61D8A31004C3C1301100F773
:101CA800FD7F19F5BDFC1004AFACFC44600961D898
:101CB800ED481DF6BFACFCEBF8FF301812F7FD300D
:101CC8002BA80212A800334400001361F844000056
:101CD800DF06F6BFAEFCEF68EBF8FF30AC11F7FD9E
:101CE800302BAF92FCC1AF90FCC1A80612A804FD2E
:101CF8002C301004AFAEFCDF21442001DE36A144B5
:101D08002001A2AEFCDF2D300006C130CF6AC13001
:101D18001412F7FD992A1004EF1A442001DC11303F
:101D28000006C1300E04C1301412F7FD992A1004C0
:101D3800F6BFAEFCA80212A800BF90FC13BF92FC2D
:101D4800AFAAFC444138DC2EEBF8FF301812F7FD3F
:101D5800302BA80212A800334400001361F8440095
:101D680000DF0FF6C130A107C1301812F7FD992A1C
:101D78001004F6BFAAFC300400F7FD211A1004C3B2
:101D8800C1AEF816318548F19804D5B7FCDD318825
:101D98000474300001F7FDF82EC3C1A80612A80488
:101DA800FDE92F3344000010041361F8440000DDFE
:101DB800058804FDF50D88048198044FB7FCDCCF35
:101DC800F6B800B802C1C15004F7FD7F19100430FD
:101DD8001300F7FD211A1004C3C1AEF81631851B94
:101DE800A800FD470FA80212A800085CFE08B8006A
:101DF800C3C1301300F7FD7F191004301400F7FD3C
:101E0800211A1004C3C1AEF81631851BA800FD6E57
:101E180010A80212A800085CFE08B800C3C130145C
:101E280000F7FD7F19100440B8FC01DF0DF6BF88EC
:101E3800FCBF8AFCF5B8FCED7D23DB8AFCAF88FC8F
:101E4800334400001361F844150061D8ED7D23F197
:101E580098045007F7FD211A1004C3C1AEF81631D3
:101E680085668800311A5C0FFDAB03A80212A80032
:101E7800085CBE08B800086C2008B800C3C1300769
:101E880000F7FD7F19300500F7FD211AB80813B8CF
:101E98000A30FF03C13000FCC1A80A12A808316E3D
:101EA8003316316E333731AD07FDE92F14A80E16FE
:101EB800A80C350561D8A3330733BF94FC13BF962C
:101EC800FCE1980C1008EF2231E51F31D5068FBED2
:101ED800FCFDAB03A80212A800085C9F08B800C369
:101EE800C1300700F7FD7F191004AEF81631D54749
:101EF800300500F7FD211AC314AF94FCDB96FC25CE
:101F080061D8B3C613275C80F27313440000F661EE
:101F1800F8440000DD1E8FBEFCFDAB03A80212A82A
:101F280000085CDF08B800C3C1300700F7FD7F195F
:101F38001004EF03E19804300300F7FD211A1004A0
:101F4800C3C1AEF816318303EDD71F31931DDB8A69
:101F5800FCAF88FC334400001361F8447900DE0BC1
:101F6800E9BEFCA80070636148DD4E300600F7FD4D
:101F7800211A14605C21DD1015085CDE08C3C1302D
:101F88000600F7FD7F191004300800F7FD211A1428
:101F9800605C07DD1015085CF808C3C1300800F75D
:101FA800FD7F191004A8009FBEFCAEF804040016BB
:101FB8003183068FBEFCFDAB03A80212A800085CA3
:101FC800FC08B800C3C1300300F7FD7F19100430C6
:101FD8000600F7FD211A1004C3C1AEF81631857C3E
:101FE800300500F7FD211AB80613B808A802161321
:101FF800275C80F27313440000F661F8440000DFA8
:102008005B8800311A5C0F9FBEFCAEF80404001612
:102018003183068FBEFCFDAB03A80212A800085C42
:10202800FE08B800086C2008B800C3C1300600F7E5
:10203800FD7F19300800F7FD211AB80433B806628D
:102048005C061004DD16A80212A800085CF908B89E
:1020580000C3C1300800F7FD7F191004300800F7ED
:10206800FD211A1004C3C1AEF816318303ED022214
:10207800300500F7FD211AB80613B808A80212A8FF
:1020880000085CE008BF98FC13BF9AFCA80812A8D7
:10209800062298FC61D8B333229AFC3316AEF804B2
:1020A800060037A7B80613A7B808A731F503ED7DD2
:1020B80023A80212A800085CFE08B800086C0408EF
:1020C800B800C3C1300800F7FD7F19300A00F7FDDA
:1020D800211AB80433B8061331CE609FBFFC625C86
:1020E8000F9FC0FC1004EF26C3C6A80827B808FB3A
:1020F8009AFC1307BF9AFCA0BFFCB0C0FCDF0FA876
:102108000031CE609FBFFC88005C0F9FC0FC8FBF72
:10211800FC311A70F1040B001231FF33FD211AB89B
:102128000A33B80C36BFFC318506F6B80A13B80C6A
:10213800F6B80AAEF804060016A80C4E0312DF0B18
:10214800624E02DF06F14E0161F84DDC9B8FBFFC49
:102158004C08DE18300900F7FD211AB80613B80834
:1021680051072FBFFC312974A806EF1CDF0DA80208
:1021780012A800541CFD0D2F60EF1340BFFC09DFAF
:1021880012A80212A8005418FD0D2F605C0F9FBE04
:10219800FCEF04CFBEFC0FD9BEFCF1318D1231FF2C
:1021A80033C3C1A80612A8045CF0FDC02F1004B800
:1021B8000013B802A800C3C1300A00F7FD7F191048
:1021C80004AEF8040400163183068FBEFCFDAB0391
:1021D800300600F7FD211A1004C3C1AEF81631D33A
:1021E80003ED7D23A800085CDF08B800C3C13006F2
:1021F80000F7FD7F191004ED7D2388005C064C066E
:1022080061E8ED7D238FBFFC4C0A61C8ED7923316D
:102218001A70F1040B001231FF33FD211AB806338E
:10222800B80836BFFC318506F6B80613B808A80802
:1022380012F60298FC33029AFC33B80633B808C188
:10224800C3300500F7FD211AC42561D8B3C613278A
:102258005C80F273F633440000F661F844000061D4
:10226800E8ED7D23500AFD211A1004C3C1EF0615BD
:10227800B80617B808A80812A806BF98FC13BF9A92
:10228800FCA0BFFCB0C0FCDF0FA80031CE609FBF30
:10229800FC88005C0F9FC0FC8FBFFC311A70F104F2
:1022A8000B001231FF33FD211AB80A33B80C36BFC0
:1022B800FC318506F6B80A13B80CA80C12F6029879
:1022C800FC33029AFC33B80A33B80CC1C33005009A
:1022D800F7FD211AC42561D8B3C613275C80F273B1
:1022E800F633440000F661F8440000DD828FBFFC3D
:1022F8004C08DE17300900FD211AB80613B808513A
:10230800072FBFFC312974A806EF1CDF0DA80212A5
:10231800A800541CFD0D2F60EF1340BFFC09DF120D
:10232800A80212A8005418FD0D2F605C0F9FBEFC78
:10233800EF04CFBEFC0FD9BEFCF1318D1231FF3353
:10234800C3C1A80612A8045CF0FDC02F1004B80091
:1023580013B802A800C3C1300A00F7FD7F191004A2
:10236800AEF80404001631830C8FBEFCFDAB03EFFE
:1023780004CFBEFC0FCEABACF1FDC224D5C3FCDF4D
:10238800098E515CB261F8ED351C61EDED3F1C30F2
:102398000001BFB0FCF6BF9CFC5008BF9EFC40C1CA
:1023A800FC012006DD6C711302514AFDC43351064D
:1023B800711202980060F0C1E6C1F614AEF8040488
:1023C8000012F0E1FDF732E19804F1980508C130F8
:1023D8000200C1AEF804080014AEF804080012F0B8
:1023E800E1FDF7325105980860F0C1300200C1AE36
:1023F800F8040C0014AEF8040C0012F0E1FDF732FA
:10240800880D5C0C100CDD07300002F7FD2A34E55E
:10241800C1FC519FCFC2FC0A9802F1980398049816
:102428000508C1300400C1AEF804060014AEF80473
:10243800060012F0E1FDF73288074C1F1004DF4157
:1024480088042C40DD102C02DD1C91DD2191DD2655
:102458002C21DD0BEF2B300080BF9CFCF6EF1DF626
:10246800BF9CFCE6EF16F6BF9CFCA1A1EF0EF6BFE1
:102478009CFC5004EF06F6BF9CFC5008BF9EFCEF86
:1024880007300004F7FD2A34717BFAF5C2FC717A33
:10249800FAD5C1FCDD21717BFA5179980060F0C151
:1024A800E6C1F614AEF804040012F0E1FDF732F5C7
:1024B800C1FC1004717AFA1006D74C01C1DF7840CC
:1024C800C1FC01DD6C711302514AFDC43351067120
:1024D8001202980060F0C1E6C1F614AEF8040400D8
:1024E80012F0E1FDF732E19804F1980508C13002D5
:1024F80000C1AEF804080014AEF804080012F0E1B8
:10250800FDF7325105980860F0C1300200C1AEF8FD
:10251800040C0014AEF8040C0012F0E1FDF7328848
:102528000D5C0C100CDD07300002F7FD2A34E5C104
:10253800FCCFC2FC0AEF2BD5C1FCDD26717BFAD596
:10254800C2FCDF1B5179980060F0C1E6C1F614AEF9
:10255800F804040012F0E1FDF732F5C1FC10047133
:102568007AFA1002D7C3C1C52006A81014A8080516
:1025780061D8A324010061D8B3F0C3C1A80E12A882
:102588000CF0FD2C301004DD3604000161D8A3B82E
:102598000213B804A80814A80225B800C1A8081492
:1025A800A80C12A80AFDD525A80216A81227C1A8AA
:1025B8000A0714A80812A806FDD5251004EF0BC5B4
:1025C800A80814A80AFDD5251002100CD7C3C1C548
:1025D80040C1FC01200ADD6C711302514AFDC4336D
:1025E8005106711202980060F0C1E6C1F614AEF807
:1025F80004040012F0E1FDF732E19804F1980508AF
:10260800C1300200C1AEF804080014AEF804080096
:1026180012F0E1FDF7325105980860F0C130020070
:10262800C1AEF8040C0014AEF8040C0012F0E1FD81
:10263800F732880D5C0C100CDD07300002F7FD2A1C
:1026480034E5C1FCCFC2FC0AA80E12A80C33440022
:10265800001361F8440000DF29F6B806B8085108ED
:102668009800A80812A806FD1128A80812A80604B0
:10267800000161D8A3B80633B80813880091980000
:10268800DFE05106980260F0C1E6C1F614AEF80426
:10269800060012F0E1FDF73251029806DB9EFCAF0E
:1026A8009CFC3344010010041361F8440100DC165B
:1026B800A80E609803A80C709804880C980560F020
:1026C800C1300400EF0FA80C709803880C980460C0
:1026D800F0C1300300C1F614AEF804060012E1E0C0
:1026E800FDF7321004E108C1A816C1F614A80E12AD
:1026F800F0E1FDF732510B71030098041004510505
:10270800980260F0C1300200C1AEF804060014AEB1
:10271800F804060012F0E1FDF73216AEF8040700DF
:102728003771841004DE078800919800DFD01010FC
:10273800D7C3C1C540C1FC012006DD6C711302512D
:102748004AFDC4335106711202980060F0C1E6C117
:10275800F614AEF804040012F0E1FDF732E1980433
:10276800F1980508C1300200C1AEF804080014AEA3
:10277800F804080012F0E1FDF7325105980860F0FE
:10278800C1300200C1AEF8040C0014AEF8040C000D
:1027980012F0E1FDF732880D5C0C100CDD073000FB
:1027A80002F7FD2A34E5C1FC5103CFC2FC0A9802A6
:1027B800DB9EFCAF9CFC334401001361F84401002C
:1027C800DC16A80A609803A8087098048808980579
:1027D80060F0C1300400EF0FA808709803880898CB
:1027E8000460F0C1300300C1F614AEF8040600120C
:1027F800E1E0FDF7321004E108C1F7A812C1A80A08
:1028080014F0E1FDF7321010D7C3C140C1FC01201C
:1028180006DD6C711302514AFDC433510671120270
:10282800980060F0C1E6C1F614AEF804040012F096
:10283800E1FDF732E19804F1980508C1300200C1C2
:10284800AEF804080014AEF804080012F0E1FDF731
:10285800325105980860F0C1300200C1AEF8040C8E
:102868000014AEF8040C0012F0E1FDF732880D5C9C
:102878000C100CDD07300002F7FD2A34E5C1FC51CD
:1028880006CFC2FC0A980260F0C1E6C1F614AEF8A1
:1028980004060012F0E1FDF73251819806A80C6099
:1028A8009807A80A709808F1980908C1300400C16F
:1028B800F614AEF8040A0012F0E1FDF732510B9855
:1028C800081008EF04E6FD733351059802F19803E8
:1028D80008C1300200C1AEF804060014AEF80406C0
:1028E8000012F0E1FDF732AEF8040700167184100B
:1028F80004DE078800919800DFCB100AD7C3C120F7
:102908000CA816C1A816C1A810FD292F1004B808D4
:1029180013B80A40C1FC01DD6C711302514AFDC4B1
:10292800335106711202980060F0C1E6C1F614AE88
:10293800F804040012F0E1FDF732E19804F198057B
:1029480008C1300200C1AEF804080014AEF804084B
:102958000012F0E1FDF7325105980860F0C130022D
:1029680000C1AEF8040C0014AEF8040C0012F0E13B
:10297800FDF732880D5C0C100CDD07300002F7FD06
:102988002A34E5C1FCCFC2FC0AF6B800A81A12A87E
:1029980018334400001361F844000061F8ED8F2AF1
:1029A8005106980260F0C1E6C1F614AEF8040600BC
:1029B80012F0E1FDF732A81212A8103344000010FB
:1029C8000413DF2C440001DD0C440010DD1044002A
:1029D80080DD14EF1B51819802301A00EF1051204E
:1029E8009802303200EF0751529802309001B80631
:1029F800A80A609803A808709804F1980508C130DF
:102A08000400C1F614AEF804060012F0E1FDF73236
:102A18001004EF04E6FD733351059802F19803089A
:102A2800C1300200C1AEF804060014AEF804060076
:102A380012F0E1FDF732AEF80407001671841004B5
:102A4800DE0AA806B1440000B806DFC8A80E16A81A
:102A58000C14A80A12A8080561D8A3330733B808CC
:102A680013B80AA800A1B800AEF804180016A80008
:102A7800F3618B4E03DF0B4E02DF07634E01DF026B
:102A8800604D61D8EDA8291010D771120071120499
:102A9800D7C3C12004F1980071130451140091DFC9
:102AA800FC71130051140091DFFC5182FD232E4C60
:102AB80001DF1FA80660FD232E4C01DF15A804FDC9
:102AC800232E4C01DF0C8804FD232E4C01DF03E18B
:102AD8009800A80E12A80C5418FD0D2F60FD232E87
:102AE8009803A80E60FD232E9802A80CFD232E98AB
:102AF80001880CFD232E7113047051140091DFFC22
:102B080071120051140091DFFC71120451140091EC
:102B1800DFFC8801738802728803758800615D6133
:102B28005A615B10086158D7C3C1C52006F19800E7
:102B3800F6B802B80471130451140091DFFC711344
:102B48000051140091DFFCF35080605C82DD057158
:102B58001204EF0371130460311A711200705114DA
:102B68000091DFFC51140091DFFC71130051140037
:102B780091DFFCD0DFD4711204711A245114009132
:102B8800DFFC31120401E3711B247112005114009F
:102B980091DFFC51140091DFFC7113005114009176
:102BA800DFFCD361F8EDDC2CA80A12F63360725012
:102BB80080626158DD05711204EF037113046031FE
:102BC8001A7112007051140091DFFC51140091DF4A
:102BD800FC71130051140091DFFCD0DFD471120492
:102BE800711A2451140091DFFC31120401E3711BA6
:102BF8002471120051140091DFFC51140091DFFC84
:102C080071130051140091DFFCD361F8EDDC2CA89E
:102C18000872F35080626158DD05711204EF037188
:102C2800130460311A7112007051140091DFFC51C5
:102C3800140091DFFC71130051140091DFFCD0DF08
:102C4800D4711204711A2451140091DFFC3112045A
:102C580001E3711B2471120051140091DFFC51141F
:102C68000091DFFC71130051140091DFFCD3DD6487
:102C7800880872F35080626158DD05711204EF0311
:102C880071130460311A7112007051140091DFFC45
:102C980051140091DFFC71130051140091DFFCD036
:102CA800DFD4711204711A2451140091DFFC31121F
:102CB8000401E3711B2471120051140091DFFC51CF
:102CC800140091DFFC71130051140091DFFCD3DD77
:102CD80003E1980071130451140091DFFC71120094
:102CE80051140091DFFC71120451140091DFFCAE05
:102CF800F816318303EDF62D71130451140091DF9A
:102D0800FC71130051140091DFFCF35080605C8368
:102D1800DD05711204EF0371130460311A7112009A
:102D28007051140091DFFC51140091DFFC71130005
:102D380051140091DFFCD0DFD4711204711A2451B0
:102D4800140091DFFC31120401E3711B247112009D
:102D580051140091DFFC51140091DFFC71130051F4
:102D6800140091DFFCD361F8EDF62DF1DBF8FF9844
:102D780001A3FD812E4C019800DF12880170F1310A
:102D88008DDBF8FFB804A3F1FD812E980088004C74
:102D980001DF1E880170F112F6C3C1A80812F6FD02
:102DA800C02F100413DBF8FFB804A3F1FD812E989F
:102DB8000088004C01DF1E880170F1F7318DC3C116
:102DC800A80812F6FDC02F1004DBF8FFB802A3E133
:102DD800FD812E980088004C01DF138801F770F1FF
:102DE800C3C1A80812A806FDC02F1004B8027113A9
:102DF8000451140091DFFC71120051140091DFFCA2
:102E080071120451140091DFFCA80412A80216A83C
:102E18000637BB13BC028800100CD772F3508062CF
:102E28006158DD05711204EF0371130460311A71E2
:102E380012007051140091DFFC51140091DFFC71F5
:102E4800130051140091DFFCD0DFD4711204711A01
:102E58002451140091DFFC31120401E3711B247129
:102E6800120051140091DFFC51140091DFFC711322
:102E78000051140091DFFC63D7C3C6711204711AA4
:102E880024755380F0F25401711200711A20311226
:102E9800000880604C40DCF65400711B205114007F
:102EA80091DFFC3114040462616B7263311A71138F
:102EB800007351140091DFFCD3DFCD65D1711B2461
:102EC800DF05711304EF0371120451140091DFFC44
:102ED8007112003112000880604C40DCF654005139
:102EE800140091DFFC64D1711300DD02629B64D78A
:102EF800C58494DD060161FE94DFFA146168616B94
:102F0800616A15C4D7C58494DD0D33311E3361FB66
:102F18000861FB0894DFF3146168616B616A15C48A
:102F2800D7C5C72004C3C1AEF81404100016AD20DD
:102F3800C1AD22C1F422F7F4208D20819D218BB7E9
:102F48007089A5D6031261D8A422B421DFF0C7AED8
:102F5800F8062016629C0A6372E822F42215C41649
:102F6800A5A420312420D2C0BD22C0BD201004C099
:102F7800C2C6C4D7C53335C7FEE100C1C7C1AEF864
:102F880016C0617D61AD05C6618D61DCDE0A61FB3D
:102F9800618DFED700EE040061FB618D317503FE83
:102FA800DB00FEED00C0317503FEC00065616C6199
:102FB8006A616B3533C6C4D7C53335C7AEF81661F9
:102FC8008A6E08618A618B6E09618B618C6E0A61F9
:102FD8008C618D6E0B75616C616A616B3533C6C42B
:102FE800D7C53335C7FBF8FF625E0872635E0973A5
:102FF800645E0A70655E0B33C6C4D7C53335C7AE89
:10300800F816618A7E08618A618B7E09618B618C02
:103018007E0A618C618D7E0B75616C616A616B35AE
:1030280033C6C4D7C53335C7AEF816622E087063E9
:103038003E096160643E0A6160653E0B616035333C
:10304800C6C4D7C535F6612C08613D35F6613A0826
:10305800613B126168616D616C15C4D7AEF8168C5E
:103068000C088C0DC18C0E708C0FC6D7C1F6612A66
:1030780008613B12F6613C08613D14C0D7C312F6E3
:10308800612E08613F16706178613A706178613B22
:10309800C2D7C1C7C5C3AEF8168C046E056E066EDE
:1030A80007DF09F7340000C6C6EE6C005220F6149C
:1030B80061AC610161AC61AD0161DC61AD0161AD23
:1030C8000261DC61AD0261AD0361DC61AD03618C5D
:1030D80061DC618C618D61DC618D0861DC0861DC1B
:1030E8004E07DF04084E0608DC29DF10618D4E0507
:1030F800618DDF06618C4E04618CDC17618C2E04B7
:10310800618C618D3E05618D083E06083E0761AC05
:103118008161AC92DF9AC2C4C6C6D77140F0007113
:10312800783002715AE5715BE1715BED715BE95AC8
:1031380006FC8E266C039E2636310271B2CF32020F
:1031480026CF33022B7183CF340240711A52710A91
:1031580052B771C371B271A2715BE571F271E28EFF
:10316800265CFC9E26D7C1C3C5C7AEFCC1C1D5C36A
:10317800FCDD0F40C3FC06DD098E50980136300295
:1031880071D27178310200000000008E519800AEB3
:10319800F81631852136300271C340C3FC05DF08BB
:1031A800FD2B16A0C4FCEF0840C3FC0661F871D2E1
:1031B800F5C3FCEDAE32D5C3FCDF2E31D508363071
:1031C8000271E2EDAE3231C303EDAE32714030022E
:1031D80031B507CFC3FC06ED893236300271D2E52E
:1031E800C3FCF6BFA0FCEDA43240C3FC01DF0FCF47
:1031F800C3FC02880170F1BFA0FCF6EDA43240C305
:10320800FC02DF06CFC3FC03EF0A40C3FC03DF2F39
:10321800CFC3FC04DBA2FCAFA0FC318C16318E03BB
:103228001217318DBFA0FC13BFA2FC8801FBA2FCC2
:1032380070F1EBA0FCF70561D8A3330733EF5940D1
:10324800C3FC04DD0640C3FC05DF2D40C3FC04DFDE
:1032580009DBA2FCAFA0FCFD0D168801FD1816DBEA
:10326800A2FCAFA0FC04010061D8A3BFA0FC13BF5F
:10327800A2FCCFC3FC05EF2E40C3FC06DF2831A516
:1032880020DBA2FCAFA0FCFD25199E50DBA2FCAF01
:10329800A0FC04010061D8A3BFA0FC13BFA2FCEFEF
:1032A8000536300271D21002C0C6C4C2BEFCC0616D
:1032B800FC7120F000E6FD7333F6BF2601E6BF245B
:1032C80001710AE5710BE15007BF08015020BF10DA
:1032D800013007F0BF1801C9100002AF28015CFED9
:1032E800085CFE08BF2801E6BF2A01BF2201D7C536
:1032F800C1C3C67113026072A808440000DD3BB860
:1033080000880A73634C018B61F87CFF9D100000F4
:103318000000AF0001603163F9A802440000DF0437
:103328008D10EF0A634C018D1061F87CFF99A8009D
:10333800B1440000A5A7B800DFCAD261F871120233
:103348001004CEABACD77170F000CB900000713A8E
:10335800E6713BE2713AEE713AEACB90FF0EAE901D
:103368006C80BE90713BE6713BE2D7360600377140
:1033780000F000BFB6011736000037BF90011736BE
:103388000100C9187D0037BFB20117440000DD1ED7
:10339800B1FB8001DB8001374317DCEFEB800133A1
:1033A8004513DCE7FB8001354715DCDFEFE6E6BFB8
:1033B800B4017108F000D7A0C5FC61FCF000000062
:1033C800000000806148DEF5D71630FFFFBBBC0265
:1033D800D7F3C113318D12F6C3C1A80416AC02127B
:1033E800ABFD033013BC0255081004A7A7A731F59D
:1033F8001D30C104C130B71DC1A80416AC0212AB00
:103408000161FEFD0330BB13BC021004EF0EA800DF
:1034180016AC0212AB0161FEBB13BC0295DFCC10E7
:1034280002D7C3C12004300200F7FD211A30020080
:10343800F7FD211A1004C3C13344ADDE1361F8440B
:10344800EFBEDF05F6B800B802A806C1A806C1A8F5
:103458000612A804FDC02F1004C3C1300200F7FDF6
:103468007F19100CD7717BFA5100718C7109FECB52
:10347800F864FA3664F9320001D261E88351CD9BD1
:10348800A792DFFB93DFF8CEFC00E60C006168DD55
:103498000FFC2E36003620FE5304F19BA793DFFB6A
:1034A800FDC01AFDDA34C7C3C6127066D66073133E
:1034B80067D6636108731366D6610BF743C7C2C644
:1034C800D7C1C3337C80337C8043C2C0D7C1C0FD21
:0A34D800E034FDD534D761FCEFFEAF
:1034E200FFFFFFFFFFFF0000FFFFFFFFFFFFFFFFE8
:1034F200FFFFF0FCFF0000FC000000000000FFE006
:103502000000FFA00000001C0000000000FF0FF000
:1035120000000000000000000000000000000000A9
:1035220000000000FFFFFFFF00000000000000009D
:103532000000000000000000FFFFFFFF000000008D
:10354200000000006A3500000400000020FE0F00A9
:103552006A3500006202000064FA0F00D5350000EF
:083562006400E234000000F9EE
:10356A00C3C52008A8101688129EFD11ABB8041115
:10357A00AC02B806C7C4118A06980211AA04B80098
:10358A00A8001688029EFDF1119BC7C4E605A56135
:10359A00D8A0FDFF8EFD980215B800A80612A8044F
:1035AA0024010061D8B3B80413B806A80433440050
:1035BA000013DF02F743DFC8A8101688129EFD1712
:1035CA00040800168EFD1008C4C2D7C3C52006A879
:1035DA000E1688109EFD11AB12C7C4118A049804F6
:1035EA0011AA02B80211AC06B800EF1FA802168889
:1035FA00049EFD118B75A80016659BA80214A58E62
:10360A00FD980415B80217A1B800B313F74312DFE7
:10361A00DBA80E1688109EFD17040800168EFD10F2
:10362A0006C4C2D7C3C52004C80200304635EF1C01
:10363A00A7A7A7A78EFD70C1C7A80416118C029E62
:10364A00FC11AB61CA1004C7C4980215B800A800DF
:10365A001688029EFD8EFD4C00DF0417446A35DF92
:06366A00CF1004C4C2D71A
:040000050000346D56
:00000001FF
