:020000007A354F
:10000400C435C435C435C435C435C435C435C43524
:10001400C435C435C435C435C4357B32C435C43560
:10002400C435C435C435CC34C435C435C435C435FD
:10003400C435C435C435C435C435C435C435C435F4
:10004400C435C435C435C435C435C435C435C435E4
:10005400C435C435C435C435C435C435C435C435D4
:10006400C435C435C435C435C435C435C435C435C4
:0C007400C435C435C435C435C435C435AA
:0400C0007FFFAA0410
:0A00C4000000000000000000000032
:1000D800F6BFA2FCBFA4FCF5D3FCF5CEFCD740CEFE
:1000E800FC01200461F8EDA701EBF8FFF6F7FD3DF0
:1000F8002CD161F8EDA001A8002C9FDD192C04611A
:10010800F8ED96012C09DD732C10DD672C17DD74D2
:100118002C02DD75EF7DF5CFFCE5CEFCA800FDAA2D
:1001280001F7D9CFFCF1C3C1D9D0FC318DC3C1D9F6
:10013800D1FCF116314E121731CDFDCD301004FD32
:10014800CD301004B80013B802A800C3C1F6F7FDFB
:100158000D1B300200F7FDAF1BB80413B806A80446
:1001680010045CEFB800C3C1300200F7FD0D1B108E
:1001780004EF2CF5CFFCE5D0FCEF9EF5CFFCCFD0FB
:10018800FC02EF95E5CFFCEF90E5CFFCEFE8E5CF7B
:10019800FCEFEB300010EF03300008F7FD373510A7
:1001A80004D72C9F2008DD202C0461F8EDA3022C35
:1001B80009DD502C10DD2B2C1761F8ED60022C02A4
:1001C80061F8ED8002EDC502304083F5CFFCCFD257
:1001D800FC0ACFD4FC09BF9AFCF6BF9CFC5190EDF9
:1001E8007702304083F5CFFCE5D0FCCFD2FC07CFB7
:1001F800D4FC11BF9AFCF6BF9CFC5110BF9EFCE6D4
:10020800ED9E02304083F5CFFCCFD0FC02CFD2FC6C
:1002180007CFD4FC11BF9AFCF6BF9CFC5110BF9EBF
:10022800FCE6BFA0FC30B4B7BFA6FC300200BFA8F4
:10023800FCE1FDA20FCF68FCE5CF69FC0371330137
:100248007103023668FC530250808B615861F8EDE7
:10025800EE02712200EDF102300078E5CFFCCFD23A
:10026800FC0ACFD4FC08BF9AFCF6BF9CFC5180BFA7
:100278009EFCF6BFA0FCEF4C300078E5CFFCE5D043
:10028800FCCFD2FC08CFD4FC0FBF9AFCF6BF9CFC75
:1002980051F0BF9EFCF6BFA0FCEF41300078E5CFDF
:1002A800FCCFD0FC02CFD2FC08CFD4FC0FBF9AFC05
:1002B800F6BF9CFC51F0BF9EFCF6ED2A0230001000
:1002C800F7FD3735D5D0FCDF0A30D494BFA6FCF64D
:1002D800ED360240D0FC0161E8ED2D02302458BF14
:1002E800A6FCE6ED360271230060311A7102007037
:1002F800D071030061E8ED520293713201A761E801
:10030800ED5002712300710202714201714201CE67
:10031800ABACCF68FC65E569FC713301710302364B
:1003280068FC530250808B6158DD05712200EF0391
:1003380071230060311A71020070D0710300DFE68A
:1003480093713201A7DFDD7123007102027142014E
:10035800714201CEABACE6FD8034CF68FCAB7132A4
:10036800017143015080605CABDD05712200EF0331
:1003780071230060311A71020070D0710300DFE64A
:10038800713201712300710202714201714201CE82
:10039800ABACD5CFFCDF12300064B804F6B8063039
:1003A8001064B800F6B802EF7830D961B804F6B82E
:1003B8000630CF61B800F6B802CF68FC03F569FCD7
:1003C800CF6AFC61CF6BFCCB713201714301366897
:1003D800FC530450808B6158DD05712200EF0371D6
:1003E800230060311A71020070D0710300DFE693B8
:1003F800713201A7DFDD712300CEABACF03404000D
:100408003268FC5104FD200F52043068FCFD1112C3
:10041800AF6AFCC1AF68FCC1301900F7FD0D1B10B5
:1004280004CF68FC03F569FCCF6AFC61CF6BFCAABA
:100438007132017143013668FC530450808B615856
:10044800DD05712200EF0371230060311A7102008B
:1004580070D0710300DFE693713201A7DFDD7123ED
:1004680000CEABACF0340A003278FC5104FD200F0A
:10047800CF68FC03F569FCA8009F6AFC609F6BFCD1
:100488007132017143013668FC530450808B615806
:10049800DD05712200EF0371230060311A7102003B
:1004A80070D0710300DFE693713201A7DFDD71239D
:1004B80000CEABACF0340A003282FC5104FD200FB0
:1004C800CF68FC03F569FCA8049F6AFC609F6BFC7D
:1004D8007132017143013668FC530450808B6158B6
:1004E800DD05712200EF0371230060311A710200EB
:1004F80070D0710300DFE693713201A7DFDD71234D
:1005080000CEABACF0340A00328CFC5104FD200F55
:10051800CF68FC65F569FC7133017103023668FC2C
:10052800530250808B6158DD05712200EF0371235F
:100538000060311A71020070D0710300DFE6937118
:100548003201A7DFDD71230071020271420171429D
:1005580001CEABACF1FDA20F1008D7C1202CF6B824
:100568000EB81050FFB80CE1FDCF25E1FDA20FE554
:1005780068FCCF69FC37F56AFC71330171030236F8
:1005880068FC530350808B6158DD05712200EF032E
:1005980071230060311A71020070D0710300DFE628
:1005A80093713201A7DFDD712300710202714201EC
:1005B800714201CEABACF568FCCF69FCCFCF6AFCC9
:1005C800087133017103023668FC530350808B6154
:1005D80058DD05712200EF0371230060311A7102A2
:1005E8000070D0710300DFE693713201A7DFDD717F
:1005F8002300710202714201714201CEABACE6FDEB
:1006080080345114EF07E6FD80348800919800315A
:10061800140C03EDA1068800D1DFEB300081B8107F
:10062800300200F7FDAF1BB80613B808A80633441C
:10063800ADDE1361F844EFBEDF05F6B806B808A8CA
:1006480010C1F6C1A80C12A80AFDCD301004C3C110
:10065800300200F7FD0D1B1004F1FDCF25300A0014
:10066800FD8034F1FDA20F301000F7FDAF1B04012F
:100678000061D8A3C3C1301000F7FD0D1B30120074
:10068800F7FDAF1BB80613B808880ED11004136124
:10069800E8EDA40E6CC0EDA60ECF68FCE5CF69FCB2
:1006A800037133017103023668FC530250808B6179
:1006B80058DD05712200EF0371230060311A7102C1
:1006C8000070D0710300DFE693713201A7DFDD719E
:1006D8002300710202714201714201CEABACCF68B6
:1006E800FC06CF69FCC7CF6AFCCCCF6BFC15713315
:1006F800017103023668FC530450808B6158DD0594
:10070800712200EF0371230060311A71020070D06A
:10071800710300DFE693713201A7DFDD71230071F9
:100728000202714201714201CEABACCF68FC40714C
:10073800330151807103029800AEF81631E5057156
:100748002200EF0371230071020071030088003159
:100758001AD19800DFE3713201712300CEABAC30BF
:100768000A00FD80345164EF07E6FD80348800916B
:10077800980031120C0ECEABAC8800D1DFEB300004
:1007880001ED2606712A207103023668FC5202F335
:100798005080710200F171240061DC7563311961C8
:1007A8006D7360311A70D0710300DFE663929BA706
:1007B800DFDD712B20710202714201714201CEAB63
:1007C800AC8F68FC3669FC31199F68FC8B317A9BC9
:1007D8008F68FC6F69FC4F78FC74DE05F6B806EF8D
:1007E800544F79FCDE03E6EF494F7AFCDE05300210
:1007F80000EF3F4F7BFCDE05300300EF354F7CFCFC
:10080800DE05300400EF2B4F7DFCDE05300500EFE0
:10081800214F7EFCDE05300600EF174F7FFCDE051A
:10082800300700EF0D4F80FCDE05300800EF033085
:100838000900B806F6B808A8061255004982FC98BF
:10084800008F8CFC9801C5C2F6C3C1880570318D34
:100858001231FF33C3C1F7880870F1C3C1A8123140
:100868008D12F6FDCD301004FDCD301004FDCD30D5
:100878001004C3C1301800F7FD0D1BCF68FC308889
:10088800049F69FC7133017103023668FC5302103E
:100898000450808B6158DD05712200EF037123003D
:1008A80060311A71020070D0710300DFE693713273
:1008B80001A7DFDD7123007102027142017142015B
:1008C800CEABACCF68FC50CF69FC777133017103B4
:1008D800023668FC530250808B6158DD0571220096
:1008E800EF0371230060311A71020070D0710300A8
:1008F800DFE693713201A7DFDD7123007102027117
:100908004201714201CEABACCF68FC61D5CFFCCFC0
:1009180069FC02DF0DCF6AFC58E56BFCCF6CFCC0AC
:10092800EF0BCF6AFC80E56BFCCF6CFC8071330168
:100938007103023668FC530550808B6158DD0571E0
:100948002200EF0371230060311A71020070D07128
:100958000300DFE693713201A7DFDD712300710226
:1009680002714201714201CEABAC300F00FD803400
:1009780030AC0DEF0AE6FD8034CEABACA806B1B8BA
:100988000631120C0DA806440000DFE9300004ED22
:100998002606CF68FC047133015180710302980068
:1009A800AEF81631A505712200EF0371230071021C
:1009B800007103008800311AD19800DFE371320119
:1009C800712300710202714201714201CEABAC3059
:1009D8001E00FD8034309001EF07E6FD8034A80644
:1009E800B1B80631120C0DA806440000DFEC300047
:1009F80040ED2606CF68FC8288019F69FC713301AF
:100A08007103023668FC530250808B6158DD057112
:100A18002200EF0371230060311A71020070D07157
:100A28000300DFE693713201A7DFDD712300710255
:100A380002714201714201CEABACCF68FC10713338
:100A48000151807103029800AEF81631C505712274
:100A580000EF037123007102007103008800311A4E
:100A6800D19800DFE37132017123007102027142F3
:100A780001714201CEABACAFA0FCC1AF9EFCC1F787
:100A8800883170F1FD363004001061D8A31004B825
:100A98001433B816D5D0FCDF0713B820A816EF1109
:100AA80012A814029AFC61D8A333029CFC33B82024
:100AB80013B822AF9AFCB81CAF9CFCB81E12A81C35
:100AC800334400001361F844000061F8ED000D3074
:100AD8000400C1AEF8042A0014A81812A816FD468E
:100AE80028A81812A81604040061D8A31002B81484
:100AF80013B816D5D0FCDD24300400C1AEF80426A6
:100B08000014A82412A822FD4628A82412A822040A
:100B1800040061D8A31002B82013B822AEF8042844
:100B280000B80804FCFFB8063468FC500416A8088E
:100B3800378BA7980037B808A806378BA7980137CE
:100B4800B8061735D5D0FCB81235A5FBF8FFDF7A03
:100B580031F503F7EF0332300031E502EF063308D1
:100B68006C0308336216A812379B35B81235FBF8A8
:100B7800FFA531D503F7EF02523031C502EF063336
:100B8800086C0308336216A812379B35B81235FB78
:100B9800F8FFA531B503F7EF02523031A502EF0691
:100BA80033086C0308336216A812379B35B8123520
:100BB800FBF8FFA5319503F7EF025230318502EFBC
:100BC8000633086C030833ED960C31F503F7EF0C88
:100BD800A731F505324000EF03323000FBF8FF3152
:100BE800E502EF0EA7330831E5046C04EF026C034D
:100BF80008336216A812379B35B81235FBF8FFA5E3
:100C080031D503F7EF0AA731D5045240EF0252302D
:100C1800FBF8FF31C502EF0EA7330831C5046C0499
:100C2800EF026C0308336216A812379B35B81235E9
:100C3800FBF8FFA531B503F7EF0AA731B504524019
:100C4800EF025230FBF8FF31A502EF0EA73308314F
:100C5800A5046C04EF026C0308336216A812379BD4
:100C680035B81235FBF8FFA5319503F7EF0AA73120
:100C780095045240EF025230FBF8FF318502EF0E27
:100C8800A733083185046C04EF026C03083362163D
:100C9800A81237909B61E8ED350B713201710302A0
:100CA8003668FC531050808B6158DD05712200EFC7
:100CB8000371230060311A71020070D0710300DFE4
:100CC800E693713201A7DFDD7123007102027142E0
:100CD80001714201CEABACA81E12A81C240400610D
:100CE800D8B3B81C13B81EA81C334400001361F80D
:100CF80044000061E8EDD70ACF68FC127133017136
:100D080003025080605C12DD05712200EF0371233D
:100D18000060311A71020070D0710300DFE6713291
:100D280001712300710202714201714201CEABAC24
:100D3800303200FD8034AEF804020014308001F730
:100D4800FD3D2C4C01DF2CA80412A8026C04C3C181
:100D5800308001F7FDA62B4C011004DF16A8041201
:100D6800A802618A6C04618AC3C1308001F7FDA6BC
:100D78002B1004306C07FD8034F9DFFC31120C1C99
:100D880061ED00CEABACC3C65700D9DFFCF1277CC0
:100D98008044F080DCE6300010ED2606A80412A896
:100DA800026C04C3C1308001F7FDA62BAEF8041C09
:100DB8000014308401F7FD3D2C4C011004DF11A80C
:100DC8001AF1B818F6B81AA81844FF0061D8B80C78
:100DD800CF68FC517133017103025080605C51DDB2
:100DE80005712200EF0371230060311A710200704F
:100DF800D0710300DFE6713201712300CEABAC7114
:100E08002A20710302F35080710200F171240061FD
:100E1800DC72633119616A7360311A70D071030032
:100E2800DFE663980A712B20710202714201714258
:100E380001CEABAC306400FD8034CF68FC02713366
:100E48000151807103029800AEF8163195057122A0
:100E580000EF037123007102007103008800311A4A
:100E6800D19800DFE37132017123007102027142EF
:100E780001714201CEABAC510AEF07E6FD80348820
:100E88000091980031140C0B8800D1DFEE3000205F
:100E9800ED2606306400FD8034ED61065CBFB804C1
:100EA800A810440000F661F8440000A804DD046CB2
:100EB80030EF025CEFF7B804A80CC3C1A80812A869
:100EC80006F0FDCD301004B802F00816A80C47DE75
:100ED80012F7318DC3C1A80812A806F1FDCD301054
:100EE80004B802A802C3C1301200F7FD0D1B10326E
:100EF800E5D3FCD74FD2FC7061C8D78FD4FC74D629
:100F0800360000A15500C71231FFC533C3C13000F8
:100F180010F7FD122A1008D7C3C5C1C16073AEF817
:100F28000403001631A502EF11318508712A2071DA
:100F38000302EF09319506712A2071430115440017
:100F480000DD42A80614A804B800F05280603119E8
:100F58007016AEF871020004030037F131A505716F
:100F6800240CEF0371240061DC7760616F706231DB
:100F78001A72D2710300DFD56099A800B14400004D
:100F8800A5B800DFC5D3712B20DF097102027142B9
:100F9800017142011008CEABACD74C01DF2A713287
:100FA8000271330071020271420171030071220063
:100FB800712B20E6FD8034713302300300FD80344C
:100FC800713202E6FD8034D771230071030071325B
:100FD80000710302714301713301713302D7C3C138
:100FE800201213609801A812709800624FD2FC6119
:100FF800C8ED0A11604FD2FC61C8ED0A11E1FDCFBE
:1010080025AEF80412001631932588004FD2FCDE75
:101018001EF7D9D4FCF1C3C18804708FD4FCD6A1C3
:101028001231FF33C3C1300010F7FD122A100840F7
:10103800D5FC01DD38AFA0FCC1AF9EFCC1F7880527
:1010480070F1FD36301004B80613B808AFA0FCC123
:10105800AF9EFCC1F7880470F1FD36301004B80269
:1010680013B804AF9AFCB80AAF9CFCB80CA80812D5
:10107800A80604001061D8A3B80613B808A804127B
:10108800A80204001061D8A3B80213B804A80C126F
:10109800A80A334400001361F8440000DD643004FA
:1010A80000C1AEF804100014A80A12A808FD4628CA
:1010B800300400C1AEF804120014A80812A806FDF6
:1010C8007A26A80C12A80A04040061D8A31004B850
:1010D8000613B808A80412A80204040061D8A3B82B
:1010E8000213B804A80C12A80A24040061D8B3B8E3
:1010F8000A13B80CA80A334400001361F84400002E
:10110800DF9C1016D7C3C12012AEF8040200FDDE22
:1011180034E1FDCF25F19800D5D2FC61F8ED00123D
:10112800880074300001F7FD0530C3C1A81812A863
:1011380016FDF6303344000010041361F844000033
:1011480061F8EDF31140D5FC01DD21AFA0FCC1AF82
:101158009EFCC1F7880470F1FD36301004B80E13F8
:10116800B810AF9AFCB80AAF9CFCB80CA80C12A82F
:101178000A334400001361F8440000DD6E300400B7
:10118800C1AEF804080014A81212A810FD46288859
:101198000872AEF8040400FDE634880972AEF8045B
:1011A8000400FDE634880A72AEF8040400FDE63453
:1011B800880B72AEF8040400FDE634A81212A810D9
:1011C80004040061D8A31002B80E13B810A80C12BA
:1011D800A80A24040061D8B3B80A13B80CA80A33C3
:1011E8004400001361F8440000DF928800819800F1
:1011F8004FD2FC61D8ED2811A80412A802C3C1304F
:101208001500F7FD0D1B101AD7C16270311A90D165
:10121800200674F261F8EDFD125C0373F1B800DD8D
:1012280028C3C65700A8060716B8048B7513F1160D
:10123800A8002716A8060716B8028B16A804378236
:101248009BA8021665939BDFD864312AD17561F893
:10125800EDFD12C3C65700A8060716B8048B73C362
:10126800C65700A8002716A8060716B8028B74A848
:101278000416649BA8021663829BC3C65700A8067F
:101288000716B8048B73C3C65700A8002716A8060C
:1012980007B802168B74A80416649BA8021663820A
:1012A8009BC3C65700A8060716B8048B73C3C65756
:1012B80000A8002716A8060716B8028B74A80416FB
:1012C800649BA8021663829BC3C65700A80607162C
:1012D800B8048B73C3C65700A8002716A8060716BC
:1012E800B8028B74A80416649BA802166382959BA7
:1012F80061E8ED5B121008D7F6BFBEFCBFC0FC204A
:101308000CBFC2FCF5CCFC717BFABFA4FB5112BF29
:10131800A6FB717AFA8EA8D17561F8ED3B14717B42
:10132800FAAFA8FBB808AFAAFBB80A717AFA12A8F4
:1013380008318E3316318E3337318D07B80033B804
:10134800026274A80212A800318E3316318E333728
:10135800318D07B800F6B8026570F1C3C15500A811
:1013680004F008C3C1880870F1C3C1C3C5A81A1224
:10137800A818318C16318E031217318DC40561D827
:10138800A3C6318C16318E031217318DC40561D86E
:10139800A3C6318C16318E031217318DC40561D85E
:1013A800A3C6F0FDCD30618B6C801004618BB8044E
:1013B80013B806A804318E3316318E3337318D07B2
:1013C800B80033B8026270F114F6C1C5F788087026
:1013D800F1318DC40561D8A3C6B80413B806A802B4
:1013E80012A800318E3316318E3337318D07B8008D
:1013F80033B802717BFA13F00814F616C162C5708F
:10140800F114C7C5A80E12A80C318C16318E031220
:1014180017318DC40561D8A3C6318C16318E0312DD
:1014280017318DC40561D8A3C6BFA8FB13BFAAFB9B
:10143800717AFA717BFA300001BFCCFBBFCEFB7129
:101448007AFA717BFABFD0FBBFD2FB717AFA717B53
:10145800FABFD4FBBFD6FB717AFA717BFABFD8FB0F
:10146800BFDAFB717AFA717BFABFDCFBBFDEFB7176
:101478007AFA717BFAF6BFE4FB305208BFE6FB71DB
:101488007AFA717BFAF6BFE8FB50FFBFEAFB717A84
:10149800FA717BFAF6BFFCFBBFFEFB717AFA100CFF
:1014A800D7201A717BFADBFEFB717AFA139808EDE4
:1014B800D915717BFAAFB4FBB804AFB6FBB8068890
:1014C8000475A80612A804318E3316318E333731CD
:1014D8008D07B80433B8066274A80612A804318EC2
:1014E8003316318E3337318D07B804F6B806A804A1
:1014F800F008C3C1880870F1C3C115F1C3C1657094
:10150800F1318DC40561D8A3C6318C16318E031212
:1015180017318DC40561D8A3C6318C16318E0312DC
:1015280017318DC40561D8A304FA0061D8A3C6B8E1
:101538000033B8026275A80212A800318E33163142
:101548008E3337318D07B80033B8026274A802129F
:10155800A800318E3316318E3337318D07B800F637
:10156800B802A800F008C3C1880470F1C3C115F11E
:10157800C3C16570F1318DC40561D8A3C6318C161D
:10158800318E031217318DC40561D8A3C6318C166C
:10159800318E031217318DC40561D8A3C6BFB4FBC1
:1015A80013BFB6FBD5DCFC61E8B0DCFCB0DFFC7136
:1015B8007AFAAFA2FCDBA4FC04010061D8A3BFA2A5
:1015C800FC13BFA4FCA0D6FCA0D7FCA2C4FCA2C6F6
:1015D800FCD5DFFC61E8EDBA14F1ED7E16607CFF06
:1015E8007365615B7560311A70D0DF3B6473AEF868
:1015F800040A0016658461D9644C10DF2630100097
:10160800C1AEF8040C0014A80812A806FD7A26A892
:101618000812A80604100061D8A310025400B804E8
:1016280013B806508055008802D161E8ED76178816
:101638000191980161E8ED661764D1DF05604C807F
:10164800DD24604C80DD0C6473AEF8040A00166576
:1016580061D9845500C5AEF8040C0014A80812A876
:1016680006FD7A261002AFC0FC440001DC04F6BF78
:10167800C0FC88000C049800717BFA88007657003B
:10168800AFC2FC27BFC2FCAFC2FC717AFA440000AB
:10169800DF03101AD7DBC0FC496CFA9800A2C0FC23
:1016A800EBC0FCA2C0FCFBC0FCA2C0FCDBC0FC4938
:1016B8006CFAF770F1C3C1C7C2496CFAF770F1C38D
:1016C800C1C5C2496CFA70F1F7318DFDCD301631C4
:1016D8008E1217318D1004FDCD301004B80413B8E4
:1016E80006A2C0FC8808D1DF42A8043344090033AD
:1016F80061F844000061C8ED8E17880070F1C1AF31
:10170800C0FC046CFA14A8062400F061D8B3FD7A72
:1017180026880270F102C0FCBFC0FCAFC0FC4400C8
:1017280001100261D8ED7A16ED76164C0161E8EDEC
:101738007A16A804334401003361F844000061D8E4
:10174800ED7A162400F061D8B3B80413B8068800FF
:10175800D150805400550061F8ED6E169801DBC039
:10176800FC496CFA98035C7F81A2C0FC980288024D
:1017780091980216AEF80403003731F303EDE5152E
:10178800656168EDEC152400F061D8B333240800D6
:1017980033EFB6BF96FC13BF98FCF5CCFCD7708F1F
:1017A800CCFC4C30DE0AE9CCFC601808FCA0CCFC70
:1017B800D720068FCCFCD19800F5CCFC61F8EDB0B1
:1017C8001ADB98FCAF96FC334400003361F8440000
:1017D80010DE3730FFFFBF00F9BF02F9AF96FC33C8
:1017E8004400001361F8447C00DF0A301C00BF96F7
:1017F800FCF6BF98FCAF96FC04A0FBB804AF96FCBF
:101808000404F95500B802EDF319AF02F9C1AF00AD
:10181800F9C1AF96FCFD39311004DF4E88004FCD79
:10182800FCDF475500EF0E65730908FC700938FCAA
:101838006140DF368588006145DE2865730908FC4C
:10184800700938FC6140DF228588006145DE146537
:10185800730908FC700938FC6140DF0E8588006157
:1018680045DCC4614561F8EDB01ADB98FCAF96FC25
:10187800BF00F913BF02F988009FCDFC5C0336381E
:10188800FC3408FC70DD0789909BA5A7DFF9880068
:10189800312A70D0DD19899B8A019C018A029C0239
:1018A8008A039C03A5A7A5A790A5A7A5A7DFE7DBA3
:1018B80098FCAF96FC334400003361F84400F061B3
:1018C800D8ED7B19880070F102C2FC0404004401C1
:1018D8000161C8EDB01ADBBEFC8800486CFAA2BEF4
:1018E800FCAF98FCDBBEFC60486CFAA2BEFCDBBE19
:1018F800FCAF96FC486CFAA2BEFCDBBEFC8F96FCE3
:10190800486CFAA2BEFC88005C033608FC70DD0E49
:10191800DBBEFC8B486CFA90A2BEFCA7DFF2880005
:10192800312A70D0DD32DBBEFC8B486CFAA2BEFCDB
:10193800DBBEFC8C01486CFAA2BEFCDBBEFC8C0250
:10194800486CFAA2BEFC8C03DBBEFCA7A7486CFA65
:1019580090A7A2BEFCA7DFCEAFBEFC440001DC040A
:10196800F6BFBEFC88000C0470F102C2FCBFC2FCCA
:10197800EDB01A334400001361F844C06061E8ED2B
:10198800FD17301400BF96FCF6BF98FC5104980070
:101998008F0CFC9F08FC8F0DFC9F09FC8F0EFC9F91
:1019A8000AFC8F0FFC9F0BFCEDFD17A802168C029A
:1019B8007CFF7065730908FC6158708C027316A867
:1019C80004378C02615B61689C02AF96FCDB98FC73
:1019D80004010061D8A3BF96FC13BF98FCA8028538
:1019E800040300B80217040300B8048800614561C5
:1019F800C8EDB01ADB98FCAF96FC334400001361C5
:101A0800F844680061C8EDB01AA802168B7CFF7014
:101A180065730908FCC76158C27016A804378BC3E0
:101A2800C65D616873A80416639BAF96FCDB98FCDF
:101A380004010061D8A3BF96FC13BF98FC858800F9
:101A48006145DE64AF96FC334400001361F84468D6
:101A580000DE55A80216A78B7CFF7065730908FC89
:101A680061587016A80237C7C216A80437A7A38BF7
:101A7800C3C65D616873A80416A7639BAF96FCDBB9
:101A880098FC04010061D8A3BF96FC13BF98FC859D
:101A980088006145DE12AF96FC334400001361F8FC
:101AA80044680061D8EDB3191006D7C3C1C1F198D5
:101AB80000A802334400003361F84400F0DC2D2410
:101AC80000F061D8B3B80213B804AFB8FCC1AFB620
:101AD800FCC1A806FD39311004DE22E6C1AEF804C7
:101AE800020014A804FD46281002EF113344000038
:101AF8001361F8446800DE0549A0FB9800F5CDFCA9
:101B080088001006D7C3C13344000020041361F8CD
:101B1800441A0061C8EDAC1BA80E12A80C318E3314
:101B280016318E3337318D07B80033B8026270F141
:101B380014F6C1C5F7881070F1318DC40561D8A3BA
:101B4800C6B80C13B80EA80212A800318E3316318D
:101B58008E3337318D07B80033B802717BFA13F032
:101B68000814F616C162C570F114C7C5A81612A8E4
:101B780014318C16318E031217318DC40561D8A328
:101B8800C6318C16318E031217318DC40561D8A366
:101B9800C6C3C1A808312D04A0FB16C0C2BB13BC24
:101BA80002717AFA1008D7C3C12008F6B804B8063B
:101BB800A808334400001361F8441A00DE7E717BE4
:101BC800FA312D04A0FB16ABB804AC02B806717A42
:101BD800FA12A804318E3316318E3337318D07B897
:101BE8000033B8026274A80212A800318E3316318D
:101BF8008E3337318D07B800F6B802A800F008C355
:101C0800C15500880470F1C3C1C3C5881070F13193
:101C18008DC40561D8A3C6318C16318E03121731D5
:101C28008DC40561D8A3C6318C16318E03121731C5
:101C38008DC40561D8A3C6B80413B806A80612A8AF
:101C480004100CD7E6D7200E717BFACF770000CFAF
:101C5800760000CFA80002CEA000717AA1714BA433
:101C6800CFF30010710BA1CD0008CE20F0CF5000AB
:101C780002CF300002CD0105CE21E2CF310000CFE6
:101C8800510000CF410000CF610000CD0202CF76A5
:101C98000001CE2200F404CE24F8CF340002CF5441
:101CA8000002CF640000F406CE2603CF3C00117179
:101CB8002AE4712BE0713AE4713BE0714AE4714B1C
:101CC800E0715AE4715BE0FD5B34FDC633FD00133F
:101CD800FD9F2BF5D5FCF5CFFCF5D0FCF5D1FC30FC
:101CE8002C01FD8034EF07300008F7FD3735300050
:101CF8002CC1300103C1302010F7FDA62BD11004F0
:101D0800DDE5FD3032FDA424FDD800FDE600F6BF78
:101D1800AEFCBFB0FCCFD8FCFFF5D6FCF5D7FCBFB6
:101D2800C4FCBFC6FCBFC8FCBFAAFCBFACFCCF78D4
:101D38000080717AFAEF0B36310271F2000000610F
:101D4800FD00D5DEFCDD0B717BFAB0DEFC717AFAA2
:101D5800EF08D5DFFC61F8ED8A24FDE600FDA91443
:101D68008FD7FC4CF1DC4EEBF8FF30A001F7FD3DBE
:101D78002CF6C1302303C1F6C1304502C1F6C1308B
:101D8800E803C1A80E12F633F1FD36302485C06190
:101D9800D8B333B1331004FD36301004FD89300454
:101DA800204E61D8A31004C3C1301100F7FD0D1BEC
:101DB800F5D7FC1004AFC6FC44600961D8ED551E88
:101DC800F6BFC6FCEBF8FF301812F7FD3D2CA80251
:101DD80012A800334400001361F8440000DF06F63F
:101DE800BFC8FCEF68EBF8FF30AC11F7FD3D2CAF36
:101DF800ACFCC1AFAAFCC1A80612A804FD39311079
:101E080004AFC8FCDF21442001DE36A1442001A232
:101E1800C8FCDF2D300006C130CF6AC1301412F77C
:101E2800FDA62B1004EF1A442001DC11300006C176
:101E3800300E04C1301412F7FDA62B1004F6BFC8EB
:101E4800FCA80212A800BFAAFC13BFACFCAFC4FCDC
:101E5800444138DC2EEBF8FF301812F7FD3D2CA872
:101E68000212A800334400001361F8440000DF0F99
:101E7800F6C130A107C1301812F7FDA62B1004F6E1
:101E8800BFC4FC300400F7FDAF1B1004C3C1AEF89B
:101E980016318548F19804D5D2FCDD3188047430B8
:101EA8000001F7FD0530C3C1A80612A804FDF630ED
:101EB8003344000010041361F8440000DD05880471
:101EC800FDFC0E88048198044FD2FCDCCFF6B800E4
:101ED800B802C1C15004F7FD0D1B1004301300F700
:101EE800FDAF1B1004C3C1AEF81631851BA800FD59
:101EF800E60FA80212A800085CFE08B800C3C130AB
:101F08001300F7FD0D1B1004301400F7FDAF1B1074
:101F180004C3C1AEF81631851BA800FD0D11A80237
:101F280012A800085CFE08B800C3C1301400F7FD11
:101F38000D1B100440D3FC01DF0DF6BFA2FCBFA4AB
:101F4800FCF5D3FCED8A24DBA4FCAFA2FC334400EF
:101F5800001361F844150061D8ED8A24F198045003
:101F680007F7FDAF1B1004C3C1AEF81631856688AC
:101F780000311A5C0FFD6305A80212A800085CBEB8
:101F880008B800086C2008B800C3C1300700F7FD86
:101F98000D1B300500F7FDAF1BB80813B80A30FF5A
:101FA80003C13000FCC1A80A12A808316E331631EB
:101FB8006E333731AD07FDF63014A80E16A80C3570
:101FC8000561D8A3330733BFAEFC13BFB0FCE1985B
:101FD8000C1008EF2231E51F31D5068FD8FCFD63C0
:101FE80005A80212A800085C9F08B800C3C1300702
:101FF80000F7FD0D1B1004AEF81631D5473005006B
:10200800F7FDAF1BC314AFAEFCDBB0FC2561D8B342
:10201800C613275C80F27313440000F661F844008D
:1020280000DD1E8FD8FCFD6305A80212A800085C1D
:10203800DF08B800C3C1300700F7FD0D1B1004EF1F
:1020480003E19804300300F7FDAF1B1004C3C1AED1
:10205800F816318303EDE42031931DDBA4FCAFA215
:10206800FC334400001361F8447900DE0BE9D8FC26
:10207800A80070636148DD4E300600F7FDAF1B1401
:10208800605C21DD1015085CDE08C3C1300600F76E
:10209800FD0D1B1004300800F7FDAF1B14605C0732
:1020A800DD1015085CF808C3C1300800F7FD0D1BEA
:1020B8001004A8009FD8FCAEF8040400163183066B
:1020C8008FD8FCFD6305A80212A800085CFC08B8BC
:1020D80000C3C1300300F7FD0D1B1004300600F7E4
:1020E800FDAF1B1004C3C1AEF81631857C30050066
:1020F800F7FDAF1BB80613B808A8021613275C80B3
:10210800F27313440000F661F8440000DF5B8800B6
:10211800311A5C0F9FD8FCAEF80404001631830610
:102128008FD8FCFD6305A80212A800085CFE08B859
:1021380000086C2008B800C3C1300600F7FD0D1B6D
:10214800300800F7FDAF1BB80433B806625C061010
:1021580004DD16A80212A800085CF908B800C3C17B
:10216800300800F7FD0D1B1004300800F7FDAF1B09
:102178001004C3C1AEF816318303ED0F23300500F8
:10218800F7FDAF1BB80613B808A80212A800085C30
:10219800E008BFB2FC13BFB4FCA80812A80622B21C
:1021A800FC61D8B33322B4FC3316AEF8040600370A
:1021B800A7B80613A7B808A731F503ED8A24A80223
:1021C80012A800085CFE08B800086C0408B800C330
:1021D800C1300800F7FD0D1B300A00F7FDAF1BB832
:1021E8000433B8061331CE609FD9FC625C0F9FDAC6
:1021F800FC1004EF26C3C6A80827B808FBB4FC13D4
:1022080007BFB4FCA0D9FCB0DAFCDF0FA80031CEC0
:10221800609FD9FC88005C0F9FDAFC8FD9FC311ACB
:1022280070F1040B001231FF33FDAF1BB80A33B84D
:102238000C36D9FC318506F6B80A13B80CF6B80A7C
:10224800AEF804060016A80C4E0312DF0B624E020D
:10225800DF06F14E0161F84DDC9B8FD9FC4C08DE9E
:1022680018300900F7FDAF1BB80613B80851072F3F
:10227800D9FC312974A806EF1CDF0DA80212A800AA
:10228800541CFD1A3060EF1340D9FC09DF12A80274
:1022980012A8005418FD1A30605C0F9FD8FCEF0498
:1022A800CFD8FC0FD9D8FCF1318D1231FF33C3C11F
:1022B800A80612A8045CF0FDCD301004B80013B8CD
:1022C80002A800C3C1300A00F7FD0D1B1004AEF8C8
:1022D800040400163183068FD8FCFD630530060020
:1022E800F7FDAF1B1004C3C1AEF81631D303ED8A56
:1022F80024A800085CDF08B800C3C1300600F7FD59
:102308000D1B1004ED8A2488005C064C0661E8ED7C
:102318008A248FD9FC4C0A61C8ED8624311A70F1E1
:10232800040B001231FF33FDAF1BB80633B8083673
:10233800D9FC318506F6B80613B808A80812F602C3
:10234800B2FC3302B4FC33B80633B808C1C3300555
:1023580000F7FDAF1BC42561D8B3C613275C80F214
:1023680073F633440000F661F844000061E8ED8A32
:1023780024500AFDAF1B1004C3C1EF0615B8061799
:10238800B808A80812A806BFB2FC13BFB4FCA0D9AD
:10239800FCB0DAFCDF0FA80031CE609FD9FC8800C2
:1023A8005C0F9FDAFC8FD9FC311A70F1040B001214
:1023B80031FF33FDAF1BB80A33B80C36D9FC318571
:1023C80006F6B80A13B80CA80C12F602B2FC3302CF
:1023D800B4FC33B80A33B80CC1C3300500F7FDAFFD
:1023E8001BC42561D8B3C613275C80F273F6334447
:1023F8000000F661F8440000DD828FD9FC4C08DE4D
:1024080017300900FDAF1BB80613B80851072FD9BC
:10241800FC312974A806EF1CDF0DA80212A800548D
:102428001CFD1A3060EF1340D9FC09DF12A8021214
:10243800A8005418FD1A30605C0F9FD8FCEF04CF39
:10244800D8FC0FD9D8FCF1318D1231FF33C3C1A8A4
:102458000612A8045CF0FDCD301004B80013B802D1
:10246800A800C3C1300A00F7FD0D1B1004AEF80424
:1024780004001631830C8FD8FCFD6305EF04CFD818
:10248800FC0FCEABACF1FDCF25D5DDFCDF098E51BD
:102498005CB261F8ED3F1D61EDED491D300001BFF3
:1024A800CAFCF6BFB6FC5008BFB8FC40DBFC0120F4
:1024B80006DD6C711302514AFDD1345106711202C6
:1024C800980060F0C1E6C1F614AEF804040012F0FA
:1024D800E1FD0434E19804F1980508C1300200C117
:1024E800AEF804080014AEF804080012F0E1FD0488
:1024F800345105980860F0C1300200C1AEF8040CF0
:102508000014AEF8040C0012F0E1FD0434880D5CF0
:102518000C100CDD07300002F7FD3735E5DBFC5108
:102528009FCFDCFC0A9802F198039804980508C12B
:10253800300400C1AEF804060014AEF80406001218
:10254800F0E1FD043488074C1F1004DF4188042C97
:1025580040DD102C02DD1C91DD2191DD262C21DDD2
:102568000BEF2B300080BFB6FCF6EF1DF6BFB6FCB4
:10257800E6EF16F6BFB6FCA1A1EF0EF6BFB6FC500B
:1025880004EF06F6BFB6FC5008BFB8FCEF073000F2
:1025980004F7FD3735717BFAF5DCFC717AFAD5DB87
:1025A800FCDD21717BFA5179980060F0C1E6C1F633
:1025B80014AEF804040012F0E1FD0434F5DBFC105D
:1025C80004717AFA1006D74C01C1DF7840DBFC01B0
:1025D800DD6C711302514AFDD13451067112029813
:1025E8000060F0C1E6C1F614AEF804040012F0E190
:1025F800FD0434E19804F1980508C1300200C1AE29
:10260800F804080014AEF804080012F0E1FD0434E0
:102618005105980860F0C1300200C1AEF8040C0002
:1026280014AEF8040C0012F0E1FD0434880D5C0CC3
:10263800100CDD07300002F7FD3735E5DBFCCFDC99
:10264800FC0AEF2BD5DBFCDD26717BFAD5DCFCDF41
:102658001B5179980060F0C1E6C1F614AEF8040485
:102668000012F0E1FD0434F5DBFC1004717AFA1075
:1026780002D7C3C1C52006A81014A8080561D8A3AD
:1026880024010061D8B3F0C3C1A80E12A80CF0FD54
:1026980039311004DD3604000161D8A3B80213B83B
:1026A80004A80814A80225B800C1A80814A80C1288
:1026B800A80AFDE226A80216A81227C1A80A07142C
:1026C800A80812A806FDE2261004EF0BC5A80814F6
:1026D800A80AFDE2261002100CD7C3C1C540DBFCD6
:1026E80001200ADD6C711302514AFDD13451067183
:1026F8001202980060F0C1E6C1F614AEF8040400B6
:1027080012F0E1FD0434E19804F1980508C13002A3
:1027180000C1AEF804080014AEF804080012F0E195
:10272800FD04345105980860F0C1300200C1AEF8CC
:10273800040C0014AEF8040C0012F0E1FD04348817
:102748000D5C0C100CDD07300002F7FD3735E5DBBA
:10275800FCCFDCFC0AA80E12A80C3344000013615D
:10276800F8440000DF29F6B806B80851089800A810
:102778000812A806FD1E29A80812A806040001616F
:10278800D8A3B80633B808138800919800DFE05141
:1027980006980260F0C1E6C1F614AEF8040600120D
:1027A800F0E1FD043451029806DBB8FCAFB6FC3307
:1027B80044010010041361F8440100DC16A80E60FF
:1027C8009803A80C709804880C980560F0C1300430
:1027D80000EF0FA80C709803880C980460F0C130C3
:1027E8000300C1F614AEF804060012E1E0FD04345B
:1027F8001004E108C1A816C1F614A80E12F0E1FDF4
:102808000434510B710300980410045105980260B8
:10281800F0C1300200C1AEF804060014AEF8040698
:102828000012F0E1FD043416AEF804070037718495
:102838001004DE078800919800DFD01010D7C3C1BC
:10284800C540DBFC012006DD6C711302514AFDD145
:10285800345106711202980060F0C1E6C1F614AE58
:10286800F804040012F0E1FD0434E19804F198053D
:1028780008C1300200C1AEF804080014AEF804081C
:102888000012F0E1FD04345105980860F0C13002EF
:1028980000C1AEF8040C0014AEF8040C0012F0E10C
:1028A800FD0434880D5C0C100CDD07300002F7FDC8
:1028B8003735E5DBFC5103CFDCFC0A9802DBB8FCBA
:1028C800AFB6FC334401001361F8440100DC16A8DC
:1028D8000A609803A8087098048808980560F0C1F1
:1028E800300400EF0FA8087098038808980460F077
:1028F800C1300300C1F614AEF804060012E1E0FD91
:1029080004341004E108C1F7A812C1A80A14F0E1C0
:10291800FD04341010D7C3C140DBFC012006DD6C78
:10292800711302514AFDD1345106711202980060A8
:10293800F0C1E6C1F614AEF804040012F0E1FD049B
:1029480034E19804F1980508C1300200C1AEF804DA
:10295800080014AEF804080012F0E1FD0434510533
:10296800980860F0C1300200C1AEF8040C0014AE43
:10297800F8040C0012F0E1FD0434880D5C0C100C16
:10298800DD07300002F7FD3735E5DBFC5106CFDC0B
:10299800FC0A980260F0C1E6C1F614AEF80406001D
:1029A80012F0E1FD043451819806A80C609807A83C
:1029B8000A709808F1980908C1300400C1F614AEED
:1029C800F8040A0012F0E1FD0434510B98081008CD
:1029D800EF04E6FD803451059802F1980308C130F0
:1029E8000200C1AEF804060014AEF804060012F0A6
:1029F800E1FD0434AEF80407001671841004DE0704
:102A08008800919800DFCB100AD7C3C1200CA81604
:102A1800C1A816C1A810FD36301004B80813B80AAA
:102A280040DBFC01DD6C711302514AFDD1345106C3
:102A3800711202980060F0C1E6C1F614AEF8040401
:102A48000012F0E1FD0434E19804F1980508C13062
:102A58000200C1AEF804080014AEF804080012F031
:102A6800E1FD04345105980860F0C1300200C1AEA0
:102A7800F8040C0014AEF8040C0012F0E1FD043464
:102A8800880D5C0C100CDD07300002F7FD3735E5CA
:102A9800DBFCCFDCFC0AF6B800A81A12A8183344ED
:102AA80000001361F844000061F8ED9C2B51069872
:102AB8000260F0C1E6C1F614AEF804060012F0E1B7
:102AC800FD0434A81212A81033440000100413DFC8
:102AD8002C440001DD0C440010DD10440080DD149E
:102AE800EF1B51819802301A00EF105120980230E4
:102AF8003200EF0751529802309001B806A80A60D8
:102B08009803A808709804F1980508C1300400C11A
:102B1800F614AEF804060012F0E1FD04341004EFD8
:102B280004E6FD803451059802F1980308C130028B
:102B380000C1AEF804060014AEF804060012F0E175
:102B4800FD0434AEF80407001671841004DE0AA8E8
:102B580006B1440000B806DFC8A80E16A80C14A8D1
:102B68000A12A8080561D8A3330733B80813B80AAE
:102B7800A800A1B800AEF804180016A800F3618BED
:102B88004E03DF0B4E02DF07634E01DF02604D612B
:102B9800D8EDB52A1010D7711200711204D7C3C12D
:102BA8002004F1980071130451140091DFFC711393
:102BB8000051140091DFFC5182FD302F4C01DF1FC2
:102BC800A80660FD302F4C01DF15A804FD302F4CFE
:102BD80001DF0C8804FD302F4C01DF03E19800A8C9
:102BE8000E12A80C5418FD1A3060FD302F9803A857
:102BF8000E60FD302F9802A80CFD302F9801880C2C
:102C0800FD302F7113047051140091DFFC71120014
:102C180051140091DFFC71120451140091DFFC88FB
:102C280001738802728803758800615D615A615B6F
:102C380010086158D7C3C1C52006F19800F6B8023C
:102C4800B80471130451140091DFFC71130051147E
:102C58000091DFFCF35080605C82DD05711204EFA7
:102C68000371130460311A7112007051140091DF5E
:102C7800FC51140091DFFC71130051140091DFFC2A
:102C8800D0DFD4711204711A2451140091DFFC3181
:102C9800120401E3711B2471120051140091DFFC2E
:102CA80051140091DFFC71130051140091DFFCD323
:102CB80061F8EDE92DA80A12F6336072508062615E
:102CC80058DD05711204EF0371130460311A711293
:102CD800007051140091DFFC51140091DFFC711356
:102CE8000051140091DFFCD0DFD4711204711A2452
:102CF80051140091DFFC31120401E3711B2471129D
:102D08000051140091DFFC51140091DFFC71130095
:102D180051140091DFFCD361F8EDE92DA80872F396
:102D28005080626158DD05711204EF03711304606D
:102D3800311A7112007051140091DFFC5114009186
:102D4800DFFC71130051140091DFFCD0DFD4711245
:102D580004711A2451140091DFFC31120401E3714B
:102D68001B2471120051140091DFFC51140091DFF3
:102D7800FC71130051140091DFFCD3DD64880872E4
:102D8800F35080626158DD05711204EF037113047A
:102D980060311A7112007051140091DFFC51140057
:102DA80091DFFC71130051140091DFFCD0DFD47166
:102DB8001204711A2451140091DFFC31120401E34A
:102DC800711B2471120051140091DFFC5114009101
:102DD800DFFC71130051140091DFFCD3DD03E1988F
:102DE8000071130451140091DFFC7112005114009A
:102DF80091DFFC71120451140091DFFCAEF816311A
:102E08008303ED032F71130451140091DFFC711338
:102E18000051140091DFFCF35080605C83DD057184
:102E28001204EF0371130460311A71120070511407
:102E38000091DFFC51140091DFFC71130051140064
:102E480091DFFCD0DFD4711204711A24511400915F
:102E5800DFFC31120401E3711B24711200511400CC
:102E680091DFFC51140091DFFC71130051140091A3
:102E7800DFFCD361F8ED032FF1DBF8FF9801A3FD28
:102E88008E2F4C019800DF12880170F1318DDBF82C
:102E9800FFB804A3F1FD8E2F980088004C01DF1EB7
:102EA800880170F112F6C3C1A80812F6FDCD3010E2
:102EB8000413DBF8FFB804A3F1FD8E2F98008800F7
:102EC8004C01DF1E880170F1F7318DC3C1A80812CB
:102ED800F6FDCD301004DBF8FFB802A3E1FD8E2F1C
:102EE800980088004C01DF138801F770F1C3C1A86E
:102EF8000812A806FDCD301004B80271130451144D
:102F08000091DFFC71120051140091DFFC71120472
:102F180051140091DFFCA80412A80216A80637BBBA
:102F280013BC028800100CD772F35080626158DD20
:102F380005711204EF0371130460311A71120070E5
:102F480051140091DFFC51140091DFFC7113005102
:102F5800140091DFFCD0DFD4711204711A245114CB
:102F68000091DFFC31120401E3711B24711200513E
:102F7800140091DFFC51140091DFFC71130051140F
:102F88000091DFFC63D7C3C6711204711A2475530C
:102F980080F0F25401711200711A20311200088079
:102FA800604C40DCF65400711B2051140091DFFC8A
:102FB8003114040462616B7263311A711300735126
:102FC800140091DFFCD3DFCD65D1711B24DF0571BF
:102FD8001304EF0371120451140091DFFC71120005
:102FE8003112000880604C40DCF654005114009106
:102FF800DFFC64D1711300DD02629B64D7C5849441
:10300800DD060161FE94DFFA146168616B616A157F
:10301800C4D7C58494DD0D33311E3361FB0861FBD1
:103028000894DFF3146168616B616A15C4D7C5C77A
:103038002004C3C1AEF81404100016AD20C1AD229F
:10304800C1F422F7F4208D20819D218BB77089A5CA
:10305800D6031261D8A422B421DFF0C7AEF8062047
:1030680016629C0A6372E822F42215C416A5A420ED
:10307800312420D2C0BD22C0BD201004C0C2C6C4A5
:10308800D7C53335C7FEE100C1C7C1AEF816C06168
:103098007D61AD05C6618D61DCDE0A61FB618DFE77
:1030A800D700EE040061FB618D317503FEDB00FE85
:1030B800ED00C0317503FEC00065616C616A616B2B
:1030C8003533C6C4D7C53335C7AEF816618A6E081E
:1030D800618A618B6E09618B618C6E0A618C618D6E
:1030E8006E0B75616C616A616B3533C6C4D7C533C5
:1030F80035C7FBF8FF625E0872635E0973645E0A97
:1031080070655E0B33C6C4D7C53335C7AEF81661D4
:103118008A7E08618A618B7E09618B618C7E0A6177
:103128008C618D7E0B75616C616A616B3533C6C4C9
:10313800D7C53335C7AEF816622E0870633E0961ED
:1031480060643E0A6160653E0B61603533C6C4D772
:10315800C535F6612C08613D35F6613A08613B12C8
:103168006168616D616C15C4D7AEF8168C0C088C5B
:103178000DC18C0E708C0FC6D7C1F6612A08613B51
:1031880012F6613C08613D14C0D7C312F6612E08DF
:10319800613F16706178613A706178613BC2D7C14E
:1031A800C7C5C3AEF8168C046E056E066E07DF0938
:1031B800F7340000C6C6EE6C005220F61461AC610C
:1031C8000161AC61AD0161DC61AD0161AD0261DC41
:1031D80061AD0261AD0361DC61AD03618C61DC61ED
:1031E8008C618D61DC618D0861DC0861DC4E07DF74
:1031F80004084E0608DC29DF10618D4E05618DDF5D
:1032080006618C4E04618CDC17618C2E04618C6124
:103218008D3E05618D083E06083E0761AC8161ACB4
:1032280092DF9AC2C4C6C6D77140F00071783002E6
:10323800715AE5715BE1715BED715BE95A06FC8ED1
:10324800266C039E2636310271B2CF320226CF3366
:10325800022B7183CF340240711A52710A52B7712E
:10326800C371B271A2715BE571F271E28E265CFCEA
:103278009E26D7C1C3C5C7AEFCC1C1D5DDFCDD0FD5
:1032880040DDFC06DD098E50980136300271D2719E
:1032980078310200000000008E519800AEF8163117
:1032A800852136300271C340DDFC05DF08FDB91702
:1032B800A0DEFCEF0840DDFC0661F871D2F5DDFC0C
:1032C800EDBB33D5DDFCDF2E31D50836300271E297
:1032D800EDBB3331C303EDBB337140300231B50769
:1032E800CFDDFC06ED963336300271D2E5DDFCF613
:1032F800BFBAFCEDB13340DDFC01DF0FCFDDFC02CE
:10330800880170F1BFBAFCF6EDB13340DDFC02DF95
:1033180006CFDDFC03EF0A40DDFC03DF2FCFDDFC29
:1033280004DBBCFCAFBAFC318C16318E03121731AA
:103338008DBFBAFC13BFBCFC8801FBBCFC70F1EB71
:10334800BAFCF70561D8A3330733EF5940DDFC0415
:10335800DD0640DDFC05DF2D40DDFC04DF09DBBCBC
:10336800FCAFBAFCFD9B178801FDA617DBBCFCAFC0
:10337800BAFC04010061D8A3BFBAFC13BFBCFCCFE0
:10338800DDFC05EF2E40DDFC06DF2831A520DBBC87
:10339800FCAFBAFCFDB31A9E50DBBCFCAFBAFC0410
:1033A800010061D8A3BFBAFC13BFBCFCEF053630DF
:1033B8000271D21002C0C6C4C2BEFCC061FC71203A
:1033C800F000E6FD8034F6BF2601E6BF2401710A4D
:1033D800E5710BE15007BF08015020BF100130070D
:1033E800F0BF1801C9100002AF28015CFE085CFE9E
:1033F80008BF2801E6BF2A01BF2201D7C5C1C3C63D
:103408007113026072A808440000DD3BB800880A06
:1034180073634C018B61F87CFF9D1000000000AFC6
:103428000001603163F9A802440000DF048D10EF49
:103438000A634C018D1061F87CFF99A800B1440023
:1034480000A5A7B800DFCAD261F87112021004CE35
:10345800ABACD77170F000CB900000713AE6713BCD
:10346800E2713AEE713AEACB90FF0EAE906C80BEF4
:1034780090713BE6713BE2D7360600377100F000E9
:10348800BFB6011736000037BF900117360100C9D3
:10349800187D0037BFB20117440000DD1EB1FB8064
:1034A80001DB8001374317DCEFEB8001334513DC88
:1034B800E7FB8001354715DCDFEFE6E6BFB40171B5
:1034C80008F000D7A0DFFC61FCF00000000000005D
:1034D800806148DEF5D71630FFFFBBBC02D7F3C1C9
:1034E80013318D12F6C3C1A80416AC0212ABFD103D
:1034F8003113BC0255081004A7A7A731F51D30C128
:1035080004C130B71DC1A80416AC0212AB0161FE9C
:10351800FD1031BB13BC021004EF0EA80016AC025C
:1035280012AB0161FEBB13BC0295DFCC1002D7C3FE
:10353800C12004300200F7FDAF1B300200F7FDAFD9
:103548001B1004C3C13344ADDE1361F844EFBEDF82
:1035580005F6B800B802A806C1A806C1A80612A8B0
:1035680004FDCD301004C3C1300200F7FD0D1B105F
:103578000CD7717BFA5100718C7109FECBF86CFA8B
:10358800366CF9320001D261E88351CD9BA792DFF6
:10359800FB93DFF8CEFC00E60C006168DD0FFC1C35
:1035A80037003620FE5304F19BA793DFFBFD4E1C2A
:1035B800FDC035C1C0FDC635FDBB35D761FCEFFE8A
:1035C800FFFFFFFFFFFF0000FFFFFFFFFFFFFFFF01
:1035D800FFFFF0FCFF0000FC000000000000FFE01F
:1035E8000000FFA00000001C0000000000FF0FF01A
:1035F80000000000000000000000000000000000C3
:1036080000000000FFFFFFFF0000000000000000B6
:103618000000000000000000FFFFFFFF00000000A6
:103628000000000000000000FFFFFFFF5836000008
:103638000400000020FE0F0058360000740200004D
:103648006CFA0F00C33600006C00C835000000F9A2
:10365800C3C52008A8101688129EFD11ABB8041126
:10366800AC02B806C7C4118A06980211AA04B800A9
:10367800A8001688029EFDF1119BC7C4E605A56146
:10368800D8A0FDFF8EFD980215B800A80612A80460
:1036980024010061D8B3B80413B806A80433440061
:1036A8000013DF02F743DFC8A8101688129EFD1723
:1036B800040800168EFD1008C4C2D7C3C52006A88A
:1036C8000E1688109EFD11AB12C7C4118A04980407
:1036D80011AA02B80211AC06B800EF1FA80216889A
:1036E800049EFD118B75A80016659BA80214A58E73
:1036F800FD980415B80217A1B800B313F74312DFF9
:10370800DBA80E1688109EFD17040800168EFD1003
:1037180006C4C2D7C3C52004C80200303436EF1C23
:10372800A7A7A7A78EFD70C1C7A80416118C029E73
:10373800FC11AB61CA1004C7C4980215B800A800F0
:103748001688029EFD8EFD4C00DF0417445836DFB4
:06375800CF1004C4C2D72B
:040000050000357A48
:00000001FF
